[
    "create table if not exists ctl_down (tab varchar(50) not null default '',conc varchar(50) not null default '',origen varchar(8) not null default '',ts_start timestamp default 0,ts_finish timestamp default 0,ora double null,my double null,diff double null,prog int,noControl int,primary key (tab)) ENGINE=InnoDB",
    "create table if not exists ctl_create (conc varchar(50) not null default '',ts_start timestamp default 0,ts_finish timestamp default 0,error varchar(1000),primary key (conc)) ENGINE=InnoDB",
    "create or replace view ctl_status as select tab,conc,origen,ts_start,ts_finish,if(ora > 0 and ts_finish > 0 and (diff < 0.05 or noControl=1 or ora < 5),0,if((ora + my > 0) and diff >= 0.05,5,if(ts_start=0,3,if(ts_start>0 and ts_finish=0,1,if(ts_finish>0 and ora=0 and my=0 and (tab like '%SERROR%' or tab like '%s6951' or conc in ('assignadaHistorica','laboratori','ares','atic','rhb07','rhb09','rhb16','rhb17')),0,4))))) status,if(ts_finish>0,unix_timestamp(ts_finish)-unix_timestamp(ts_start),if(ts_start>0,unix_timestamp(current_timestamp)-unix_timestamp(ts_start),0)) temps,prog progress_n,ora progress_d,if(ora=0,0,round(100*prog/ora,1)) progress from ctl_down",
    "create or replace view ctl_status_agr as select conc,origen,if(max(if(status=1,1,0))=1,max(if(status=1,status,-1)),max(status)) status,if(count(1)>1,1,0) part,if(sum(progress_d)=0,0,round(100*sum(progress_n)/sum(progress_d),1)) progress from ctl_status group by conc",
    "create or replace view ctl_status_cr as select conc,if(error<>'',5,if(ts_finish>0,0,if(ts_start>0,2,3))) status,if(ts_finish>0,unix_timestamp(ts_finish)-unix_timestamp(ts_start),if(ts_start>0,unix_timestamp(current_timestamp)-unix_timestamp(ts_start),0)) temps_c,error from ctl_create",
    "create or replace view ctl_web as select a.origen,a.conc,a.part,if(b.conc is null,0,1) crt,if(b.status=2,b.status,a.status) status,if(temps_c is null,'',temps_c) temps_c,progress,if(error is null,'',error) error from ctl_status_agr a left join ctl_status_cr b on a.conc=b.conc",
    "create or replace view ctl_web_tot as select conc tema, status, temps_c temps, if(conc = 'u11', 1, if(conc = 'catalegs', 2, 5)) ordre from ctl_status_cr where conc in ('u11', 'catalegs', 'eapp') union select origen tema, if(max(if(status=1,1,0))=1,max(if(status=1,status,-1)),max(status)) status, if(min(ts_finish) > 0, unix_timestamp(max(ts_finish)) - unix_timestamp(min(ts_start)), if(max(ts_start) > 0, unix_timestamp(current_timestamp) - unix_timestamp(min(if(ts_start = 0, current_timestamp, ts_start))), 0)) temps, if(origen = 'sidics', 3, 4) ordre from ctl_status group by origen order by ordre"
]