BR002@AMBTS@MIXTE@785.959435007737@793.933379509617@70.4045972081539@63.0976702522862
BR086@AMBTS@MIXTE@690.353404077533@763.613307541148@82.3598884541398@65.2844720556075
BR129@AMBTS@MIXTE@675.651053157841@779.730191812266@92.8571665589133@22.6619218456254
BR135@AMBTS@MIXTE@500.294365459053@712.617860327371@91.2300347875641@70.5013653836959
BR136@AMBTS@MIXTE@708.420661722502@655.001466537443@16.4769597922738@9.17314542583163
BR137@AMBTS@MIXTE@701.392823628303@776.497149511495@97.6623383798609@54.2088550627117
BR138@AMBTS@MIXTE@547.050053770626@633.297543884285@97.7865514425262@66.3807130918546
BR139@AMBTS@MIXTE@614.229504514785@565.505532221342@32.5853316259524@82.074076191673
BR140@AMBTS@MIXTE@602.170139213146@840.392900049748@76.8330053952956@85.0334038839921
BR232@AMBTS@MIXTE@563.704090069776@793.221941008689@77.0513161006431@71.7808504379439
BR329@SENSETS@MIXTE@686.233889899732@544.080316158352@5.07826013563655@0
BR334@AMBTS@MIXTE@747.566261535481@770.199615483023@88.8670130698146@90
BR001@AMBTS@MIXTE@698.443950235766@562.170424107677@79.4693393373093@71.9830648377635
BR003@AMBTS@MIXTE@623.146145698845@701.783447172352@57.6010715667769@41.3690379439449
BR012@AMBTS@MIXTE@835.230967784052@707.562466782443@3.52359493101873@77.3811929587721
BR014@AMBTS@MIXTE@744.538672577818@657.523119920365@94.224926896014@49.7555274311643
BR081@AMBTS@MIXTE@638.979502326833@523.662259395872@64.4053729968674@57.5592284515266
BR106@AMBTS@MIXTE@698.267755063213@680.60676941799@74.5892500509936@79.5947536930124
BR161@AMBTS@MIXTE@499.149466777057@288.162551891375@48.7209962965527@17.1394419492831
BR181@AMBTS@MIXTE@555.114635237811@682.304341759753@2.99028672862827@44.4464044651964
BR245@AMBTS@MIXTE@710.209064024147@488.248439774068@77.2509960239128@58.9783594183208
BR107@SENSETS@MIXTE@632.932190201313@712.318586192134@57.6908173725834@0
BR162@SENSETS@MIXTE@720.67678149457@700.547265121189@57.0671477174277@0
BR166@SENSETS@MIXTE@761.525259036895@346.541322943907@25.1501550962986@0
BR239@AMBTS@MIXTE@631.238592283032@703.179828988986@59.0039921415755@28.6886133243369
BR240@AMBTS@MIXTE@599.437918965771@650.68857490127@31.9460079242934@45.0314710391797
BR241@SENSETS@ADULTS@771.795110904265@233@13.4240094326479@0
BR243@SENSETS@MIXTE@646.457538563027@793.356857950139@78.6345125508949@0
BR244@SENSETSODO@ADULTS@704.602833402868@258@0@0
BR262@SENSETS@MIXTE@644.285931875564@475.941029602835@6.3742574076775@0
BR263@SENSETS@MIXTE@710.127637823748@648.3691836073@29.1653753952901@0
BR339@SENSETS@MIXTE@801.137529000366@769.517108181022@21.4012197596717@0
BR352@SENSETS@MIXTE@853.015772780049@886.810135984801@62.8643245010082@0
BN016@SENSETS@NENS@0@450.79001564949@0@0
BR087@SENSETS@MIXTE@798.35832706767@783.476640222281@78.6797980128661@0
BR112@SENSETS@MIXTE@563.254324799866@527.297579101562@85.3080955420557@0
BR118@SENSETS@MIXTE@787.990325293431@865.140317582121@65.0407963123155@0
BR163@SENSETS@MIXTE@702.343553500896@651.802918863766@78.2977054560094@0
BR303@AMBTS@ADULTS@681.517033318925@250@32.0898735537705@56.2963695592064
BR304@AMBTS@ADULTS@770.54417780538@260@32.0679192393693@58.4860095565859
BR305@AMBTS@ADULTS@666.793094696299@0@69.372704503493@14.0835988191437
BR306@AMBTS@ADULTS@689.074183432918@250@52.3735157999629@15.8385110404573
BN017@AMBTS@NENS@0@594.726326920912@0@0
BR017@AMBTS@MIXTE@707.064789768114@561.389652981645@45.7579690296529@65.1001428697692
BR018@AMBTS@ADULTS@520.393029255515@0@67.2384991166326@39.9438255621274
BR019@AMBTS@ADULTS@674.014630317349@228@88.7350360914577@59.8346220857035
BR020@AMBTS@MIXTE@567.782037615552@618.6367780427@4.19300177544791@51.2961375959719
BR072@AMBTS@MIXTE@531.648061504887@469.597164542837@2.92241489145734@35.0464536310722
BR073@AMBTS@MIXTE@524.538730196664@344.003420661063@6.37932916670565@64.621060272258
BR074@AMBTS@MIXTE@498.247724855532@697.647503781546@39.802074323544@4.32888077865752
BR077@AMBTS@ADULTS@677.487512812261@228@7.47272781576119@59.4924045603055
BR078@AMBTS@ADULTS@709.030399669815@157@84.5716104726622@59.7915889636681
BR079@AMBTS@MIXTE@586.614193393931@754.8424275899@0@61.5097205391106
BR312@AMBTS@MIXTE@745.804516653765@685.540665357387@42.2038301465912@72.1006196645647
BR331@AMBTS@ADULTS@786.332181904548@228@59.5330108144704@64.7384704568803
BN013@AMBTS@NENS@0@590.349038892175@0@0
BN014@AMBTS@NENS@0@586.739584111685@0@0
BR021@AMBTS@ADULTS@380.584322002634@228@12.6808635726346@2.78186275970949
BR022@AMBTS@ADULTS@745.938427548714@228@20.7756429229709@47.4545795257231
BR024@AMBTS@ADULTS@781.456387626074@0@9.28086003960141@63.3918472666725
BR033@AMBTS@ADULTS@640.743649236064@0@2.41039223740291@17.491644294934
BR034@AMBTS@ADULTS@640.337758134199@277@38.0121712830073@35.1369259413679
BR035@AMBTS@MIXTE@384.119038739729@590.552623844968@0.925636074269253@63.8168808099741
BR036@AMBTS@ADULTS@659.661193998017@228@18.176330810883@47.4605980566971
BR038@AMBTS@ADULTS@749.821356022557@103@17.653171506338@32.7506275302744
BR039@AMBTS@ADULTS@628.055625204299@0@15.7430580954672@65.52629919386
BR040@AMBTS@ADULTS@497.469888242367@0@12.9966819926654@13.7747225312523
BR042@AMBTS@ADULTS@587.630268513184@0@17.7870436098074@11.9517246101164
BR043@AMBTS@ADULTS@694.003760820451@157@3.30315793923044@51.6122054256726
BN004@AMBTS@NENS@0@638.813181782082@0@0
BR383@AMBTS@ADULTS@674.364259343769@179@96.6198215000496@88.6928315403704
BN006@AMBTS@NENS@0@490.294179688393@0@0
BN007@AMBTS@NENS@0@791.414894999261@0@0
BN010@AMBTS@NENS@0@544.496042210283@0@0
BR028@AMBTS@MIXTE@721.443656608476@379.156896662025@4.27344319664608@46.6282187449822
BR047@AMBTS@MIXTE@660.379089515244@661.939687869351@7.33206170719473@67.7150439837216
BR048@AMBTS@ADULTS@668.22510828628@0@1.22242272279024@87.2014068902695
BR051@AMBTS@MIXTE@590.488623675458@596.535786221026@0@45.7765055847127
BR065@AMBTS@MIXTE@602.768673972783@652.141833558614@0@25.1673118838807
BR067@AMBTS@ADULTS@616.41593844967@0@78.7844520463581@60.4355583005378
BR075@AMBTS@ADULTS@739.306332511854@228@51.3574483705162@66.0361484902619
BR076@AMBTS@ADULTS@561.607894996499@228@34.5811910992173@79.3114629305751
BR326@AMBTS@ADULTS@636.195145791304@228@43.466286136228@66.0800317128118
BN003@AMBTS@NENS@36@697.42315015685@0@0
BR053@AMBTS@MIXTE@604.381693255016@491.550483314552@10.2551590463748@32.4883465557647
BR054@AMBTS@MIXTE@684.538718141666@363.086619481831@6.98607797361185@54.1427522400785
BR055@AMBTS@MIXTE@658.682512315833@437.513155744777@5.56571076315855@29.7440276874351
BR056@AMBTS@MIXTE@618.581561793919@600.107504610916@28.6482364533919@59.6450668212552
BR058@AMBTS@ADULTS@337.675123442955@0@0.157434368779186@55.661437576147
BR059@AMBTS@MIXTE@638.729390116157@584.215098651975@31.8429633263095@83.6858231869577
BR060@AMBTS@ADULTS@497.86928359861@211@3.86141767343841@48.1366434329235
BR061@AMBTS@ADULTS@619.581943413758@0@5.79621512487565@77.7335510056865
BR062@AMBTS@MIXTE@686.88116219022@830.307685438492@76.3501171113305@62.3197700649416
BR063@AMBTS@MIXTE@551.680454808577@648.693110411855@0@25.8677465880723
BR064@AMBTS@MIXTE@650.056972130587@468.02291842666@18.3127271780098@64.1418119346893
BR069@AMBTS@MIXTE@621.75102618912@520.250999887522@86.5538669066557@32.1322006565643
BR070@AMBTS@MIXTE@684.493246466837@753.237401863058@14.4676385500975@84.2206667726934
BR302@AMBTS@MIXTE@450.286581807534@363.869605816719@23.4238935507586@85.2029807351943
BR327@AMBTS@MIXTE@622.768834682793@808.080791263844@39.3797582420259@42.5283789759287
BN002@AMBTS@NENS@0@558.287929970802@0@0
BN001@AMBTS@NENS@0@468.555294606732@0@0
BR395@AMBTS@ADULTS@532.698610002967@162@30@93.3990055417977
BR396@AMBTS@ADULTS@653.235254665451@0@30.0456694589313@8.31392002533664
BR080@SENSETS@MIXTE@694.322185241235@575.740889154338@70.8822367657518@0
BR083@AMBTS@MIXTE@656.876119853149@408.708102773471@79.491486245074@17.4647291123028
BR092@SENSETS@MIXTE@775.950533124138@423.659585745854@94.2823588458657@0
BR119@AMBTS@MIXTE@567.690953150073@287.900126801261@12.5020849665263@63.5829154958174
BR133@SENSETS@MIXTE@490.63104187555@518.097807290065@83.4315327807133@0
BR134@SENSETS@MIXTE@638.874370051452@645.847056219271@61.5960349763478@0
BR171@AMBTS@MIXTE@733.391163997432@401.976591137794@35.5304760348366@59.4212674900627
BR187@SENSETS@MIXTE@648.52562393263@613.547024076785@78.0792408931032@0
BR189@SENSETS@MIXTE@675.557775270668@478.825647605264@56.4638388385317@0
BR267@SENSETS@MIXTE@719.122932177984@495.932162187633@55.2152261742057@0
BR008@SENSETS@MIXTE@733.059794181281@475.145112021781@60.3250126309271@0
BR015@AMBTS@MIXTE@741.794600228922@585.085294159804@57.4544638297741@70.8470038451746
BR101@AMBTS@MIXTE@687.949708625326@357.679136273979@70.2419524592175@74.6658895518054
BR124@AMBTS@MIXTE@760.242458956384@402.689888623269@70.926343039859@72.9263040581586
BR125@AMBTS@MIXTE@758.179173224729@823.952522716183@46.9373155509919@58.9173222436876
BR126@AMBTS@MIXTE@541.647589940193@492.516030316575@49.7754748123409@74.2557831834085
BR127@AMBTS@MIXTE@563.017736140803@674.161843350091@76.1694825799281@73.1784068940229
BR199@AMBTS@MIXTE@764.546439288698@724.749339077597@82.6921522331764@52.1510361369855
BR221@SENSETS@MIXTE@697.858337704657@522.698322120839@46.5795134250352@0
BR231@AMBTS@MIXTE@621.205410551277@734.101138913754@54.7493182133173@62.4240273553384
BR234@SENSETS@MIXTE@387.149266328873@602.13482153539@20.4452792511071@0
BR085@AMBTS@MIXTE@785.091183337439@301.373193930509@45.8327523088566@71.991886369126
BR093@AMBTS@MIXTE@737.445011262576@574.282176330106@81.2424587793683@30.2050606296728
BR208@SENSETS@MIXTE@752.104030498112@460.910957385227@41.812116804174@0
BR325@AMBTS@MIXTE@544.416021383082@367.479071678658@69.2678445899831@65.9078307127272
BR336@AMBTS@MIXTE@808.449989940039@513.354861961792@39.4077856037681@92.5084403034647
BR108@AMBTS@MIXTE@717.41203945194@739.148406361558@25.7918974107092@35.8085651071455
BR109@AMBTS@MIXTE@632.309770127341@716.421495746259@13.406976781861@29.2279877825647
BR110@AMBTS@MIXTE@647.809708183693@717.000089412527@68.8699092116587@50.5505192307145
BR111@AMBTS@MIXTE@554.423271880154@716.366855964602@90@39.9579387126117
BR116@AMBTS@MIXTE@597.637875066991@779.395463680545@37.1249700691108@62.7027809647069
BR117@AMBTS@MIXTE@644.565295030675@799.593138059582@29.6083986835094@43.8034209853328
BR160@AMBTS@MIXTE@553.017776159437@524.508757338768@53.8105637069213@72.2012344689127
BR202@AMBTS@MIXTE@456.828205074@339.842843931318@32.8132990503579@9.50997515790326
BR203@SENSETS@MIXTE@644.217583815785@882.302666528228@74.3466933270731@0
BR204@SENSETS@MIXTE@672.481555285282@539.398545012143@92.0098884424972@0
BR205@AMBTS@MIXTE@822.737300586297@862.098788219198@97.9560071433078@43.6594009472944
BR209@AMBTS@MIXTE@685.649307223651@627.824910965327@44.0414688103512@57.3828019161713
BR210@AMBTS@MIXTE@531.623682365306@620.651770270665@0@44.9213592237786
BR213@AMBTS@MIXTE@636.317725326293@631.682788843538@91.8687278622948@0.578228817569895
BR214@AMBTS@MIXTE@722.019104425207@726.506269275754@59.1496928506772@0.846038202395543
BR216@AMBTS@MIXTE@392.469327616458@385.531440160008@13.3138809864282@86.5925172781948
BR374@AMBTS@MIXTE@716.826528867899@591.368965419771@64.7618842170698@0.394159954344275
BR261@AMBTS@MIXTE@570.463487283872@415.759544466518@85.6217099921295@57.8707956343781
BR369@AMBTS@MIXTE@627.596122190279@220.616054721951@44.6473510046579@10
BR375@AMBTS@ADULTS@763.541073030048@228@23.7596518291714@2.51553501446422
BR115@AMBTS@MIXTE@670.219304298791@694.793944237802@67.7809455744147@78.4434702478549
BR149@AMBTS@MIXTE@793.263186306115@815.698001277406@25.8891843092291@70.8714822131438
BR201@AMBTS@MIXTE@706.926969612341@682.327684294649@72.0182117660147@66.3085016019086
BR360@AMBTS@MIXTE@684.806798644292@722.51097026109@83.4108124979134@2.49605935460703
BR367@AMBTS@MIXTE@567.869334202077@594.64012157986@0@0
BR370@AMBTS@MIXTE@759.26302328842@693.40133740215@82.1821498154066@62.6494279765964
BR176@AMBTS@ADULTS@510.988877884747@331@39.498891353549@24.1609341736587
BR218@SENSETS@ADULTS@766.705036196122@233@50.1333381366553@0
BR235@SENSETS@ADULTS@812.359231882995@0@5.85440540374567@0
BR268@AMBTS@ADULTS@710.473543524215@186.95151113011@30.2370616650501@18.6542197764684
BR316@AMBTS@ADULTS@667.798039468254@228@57.6140357690616@20.0705184116011
BR317@AMBTS@ADULTS@682.443354346511@0@36.2128519555761@30.7211963014909
BR318@AMBTS@ADULTS@695.266478178896@228@32.8356157292437@53.1005202481063
BR359@AMBTS@ADULTS@794.71399099482@385@19.4257043705832@42.5849012181813
BN008@AMBTS@NENS@0@799.302267216399@0@0
BN011@AMBTS@NENS@0@641.34948275228@0@0
BR122@AMBTS@MIXTE@751.154128734354@780.453479697684@63.7013374967975@34.5219268772711
BR123@AMBTS@MIXTE@543.634944186959@671.729177882372@97.7490098110725@82.1187903715434
BR182@AMBTS@MIXTE@633.505953237307@727.929696344478@71.6487290296414@65.1204939597809
BR183@AMBTS@MIXTE@689.55715367725@657.611782433785@83.1899728438886@69.1788943412158
BR184@AMBTS@MIXTE@752.676646839786@815.347896303353@33.9832270332756@85.7416636537495
BR265@AMBTS@MIXTE@597.649678272146@563.885620373017@69.5554112366138@10
BR266@AMBTS@MIXTE@630.413880410675@438.248060286582@69.1481950177056@4.32677850876598
BR288@AMBTS@MIXTE@470.690004116307@713.906878137955@79.5288096852429@66.8945628404911
BR289@AMBTS@MIXTE@575.126795228661@587.243784465659@85.6421592116099@61.9878223875317
BR292@AMBTS@MIXTE@516.084040212@785.703775397505@77.7804932407693@97.1478533649318
BR293@AMBTS@MIXTE@550.723225264857@698.735502260508@22.4471757414902@95.1069032157443
BR294@AMBTS@MIXTE@625.057625510464@581.07300393861@15.8740063781905@4.99136897259249
BR295@AMBTS@MIXTE@627.983881371089@742.174893586655@33.6107756211644@69.2016786559098
BR296@AMBTS@MIXTE@478.023674544406@770.93846842792@46.2601513485831@4.3052015713273
BR297@AMBTS@MIXTE@638.783153059701@669.13142755267@21.0059507800397@93.5327845684217
BR298@AMBTS@MIXTE@646.024274531498@760.394905502084@21.0917721763277@80.2340935452272
BR299@AMBTS@MIXTE@764.817153135674@526.4798269331@20.534039893883@67.1770394570528
BR365@AMBTS@MIXTE@395.844241469523@337.914168640343@79.9951078590866@85.0747056668958
BR373@AMBTS@MIXTE@615.580929119712@610.994611263074@6.89799909435881@91.8959111668179
BR009@AMBTS@MIXTE@666.98452675921@602.383833754657@74.7055939418047@33.6135901333942
BR152@AMBTS@MIXTE@691.256813180259@389.441363924719@33.7553319541398@61.8039509965386
BR154@AMBTS@MIXTE@388.718296517639@772.846625283852@39.8402430859507@69.3651924530388
BR156@AMBTS@MIXTE@754.540033360318@737.507628492076@23.5752426577519@83.9661954381915
BR157@AMBTS@MIXTE@562.544031510565@532.912157664739@35.4664835799353@72.9554870504975
BR158@AMBTS@MIXTE@727.761022431155@411.327797079072@41.1729313454854@57.186169115446
BR186@AMBTS@MIXTE@731.546930267527@644.5504566038@22.1865594886642@26.5633741619649
BR271@AMBTS@MIXTE@732.831002135545@530.876870481555@76.6077101226321@23.2748454060101
BR335@AMBTS@MIXTE@604.540510506403@456.722124304547@20.8318316797164@50.9004951385881
BR353@AMBTS@MIXTE@782.127043857269@786.895238538659@79.5004978729224@15.3530810017242
BR222@AMBTS@MIXTE@598.010279489388@806.666516353041@96.6010007445164@50.0897466831208
BR223@AMBTS@MIXTE@810.137513071075@772.47743392877@12.507820617683@88.0152960269761
BR224@AMBTS@MIXTE@729.133484191268@667.702773909887@91.199708197475@72.705615409282
BR225@AMBTS@MIXTE@735.52164766449@728.474917915207@84.8959313053077@82.9330116218647
BR226@AMBTS@MIXTE@529.390959040789@838.111192152997@81.4313749126438@79.3825817951043
BR227@AMBTS@MIXTE@726.799597612946@759.743340582661@0.885948786361159@97.6684945394425
BR151@AMBTS@MIXTE@654.863851996598@633.666348713236@90.9922481137951@74.8399839553198
BR273@AMBTS@MIXTE@685.931803499871@420.798995077538@50.8114929039824@44.6522406715971
BR275@AMBTS@MIXTE@516.88576944933@655.630477600445@94.094136723433@86.7514263198303
BR276@AMBTS@MIXTE@665.945753799377@545.115739435604@13.2784888144376@30.7855554789227
BR277@AMBTS@MIXTE@681.891374810282@734.213243262197@32.9450758452597@62.3669572703849
BR282@AMBTS@MIXTE@698.134659727942@869.030088038566@81.8059629116141@80.4470589391445
BR311@AMBTS@MIXTE@417.992781176743@709.737698940961@45.5763627749993@35.863289923487
BR342@AMBTS@MIXTE@696.403422402539@639.017377550629@73.0771024243226@75.9543962819912
BR362@AMBTS@ADULTS@704.526497151963@0@30@34.5433530083939
BR341@AMBTS@MIXTE@774.910596451581@721.715615331175@94.1684480253638@79.2704816261397
BR104@AMBTS@MIXTE@558.507363247226@774.34606171712@76.2281845828086@37.6425048874767
BR105@AMBTS@MIXTE@636.68263374811@586.667457887729@49.2807600053317@47.0961723525749
BR386@AMBTS@MIXTE@388.220382425963@628.409769054329@26.6109379037276@62.1170187516967
BR320@SENSETS@MIXTE@753.143773732758@656.959104198376@93.5472951691674@0
BR322@AMBTS@MIXTE@804.714419043394@702.188611727829@55.4551768162867@73.0236201359823
BR384@SENSEODO@ADULTS@623.678764743308@253@0@70.7302800363197
BR387@AMBTS@ADULTS@569.408627924645@0@20@53.8955982905308
BR089@SENSETS@MIXTE@778.116050380856@609.801743118691@50.3564416158516@0
BR095@SENSETS@MIXTE@688.424338688975@795.009075471515@72.4221353477367@0
BR121@AMBTS@MIXTE@592.074749964259@445.367328972825@32.1787626746236@55.403517160977
BR150@SENSETS@MIXTE@759.690434076705@757.34313708405@62.9636197007184@0
BR164@SENSETS@MIXTE@805.014603478133@794.215976241276@69.1881202520825@0
BR175@SENSETS@MIXTE@836.312994151538@658.851843947575@65.8557539017976@0
BR207@AMBTS@MIXTE@639.461632493033@748.107058146889@79.0821742254442@49.5203976901354
BR230@SENSETS@MIXTE@663.432824728228@642.242887746318@45.8596788379476@0
BR284@AMBTS@MIXTE@829.295758171173@817.21492634292@75.6955305613792@32.6244908857847
BR285@AMBTS@MIXTE@774.100578214894@743.261003831058@77.5933630116234@66.9005204368451
BR286@SENSETS@MIXTE@563.459303901571@858.767834645812@53.3970923706105@0
BR287@AMBTS@MIXTE@803.829242720067@610.544334109943@47.1021842444226@58.7522518740329
BR300@SENSETS@MIXTE@772.164473766996@679.431306395709@48.7235613566063@0
BR315@AMBTS@MIXTE@812.648751247813@797.710436100687@40.9577403766248@47.929988322712
BR348@AMBTS@MIXTE@728.703201289443@714.560795177522@86.429593404044@43.5330864299721
BR349@AMBTS@MIXTE@738.448068490852@698.003184538553@27.5139295722203@35.2020812793887
BR376@SENSETS@MIXTE@694.1984202687@550.40611935936@56.2094704089072@0
BR391@SENSETS@MIXTE@753.147392617387@650.8096417455@92.3469571621316@0
BR097@AMBTS@MIXTE@775.010430419333@706.350682660912@16.0090374991294@65.4635795263177
BR190@SENSETS@MIXTE@534.007575192593@787.113766844919@52.943260105318@0
BR191@SENSETS@MIXTE@611.784375574419@800.874174667402@37.4916120650752@0
BR192@SENSETS@MIXTE@729.467919639321@841.186487360921@83.5961282979202@0
BR193@SENSETS@MIXTE@810.468716102455@857.698557557062@86.431095911674@0
BR194@SENSETS@MIXTE@710.038488396792@736.399975653467@42.3968192837818@0
BR196@SENSETS@MIXTE@753.175852482709@731.283133695412@85.4201735208381@0
BR197@SENSETS@MIXTE@721.502188092552@771.561607362217@9.194652750158@0
BR198@SENSETS@MIXTE@838.906744544093@744.206290900911@86.9411940245049@0
BR249@SENSETSODO@MIXTE@778.72388283668@695.277015782091@0@0
BR344@SENSETS@MIXTE@842.239564191468@367.366287494052@29.9295015058584@0
BR363@SENSETS@MIXTE@563.419702539533@638.255819241107@25.5921401698327@0
BR392@SENSETS@MIXTE@723.840491897913@496.099939031995@55.3722230832054@0
BR088@SENSETS@MIXTE@674.847249445152@449.045714361796@47.7643404010288@0
BR131@SENSETS@MIXTE@619.866925234734@467.163229970274@59.1001524723182@0
BR132@SENSETS@MIXTE@495.459805218214@677.194967028832@44.1029815573109@0
BR228@SENSETS@MIXTE@735.583353283081@635.513542054151@56.5123840896377@0
BR229@SENSETS@MIXTE@657.267239574899@666.327916569398@53.1806552357444@0
BR269@SENSETS@MIXTE@716.598987059824@408.661959627825@36.8994710417604@0
BR337@SENSETS@MIXTE@833.854179515309@619.425669751966@38.1857696370306@0
BR338@SENSETS@MIXTE@521.024193130229@594.956926702244@27.8948563534583@0
BR011@AMBTS@MIXTE@803.188427621868@701.787751138592@92.1717132080487@82.7192491392975
BR082@AMBTS@MIXTE@723.943090690851@699.36046496621@31.2959985481586@72.1767380772148
BR096@AMBTS@MIXTE@562.869672959852@625.40495629211@44.8601663019575@77.5572952715043
BR098@AMBTS@MIXTE@649.259390042796@359.995502806134@54.0184564524103@81.036611047762
BR128@AMBTS@MIXTE@754.39222479207@885.305274473449@54.1403501361334@73.7020140196979
BR130@AMBTS@MIXTE@747.259983146561@850.498987014464@78.012482342944@76.7754111040656
BR146@AMBTS@MIXTE@720.133302675442@301.869936974702@63.3176307368234@79.4272553601054
BR148@AMBTS@MIXTE@727.151189592297@708.103112993812@83.9451622941888@91.4414022226822
BR159@AMBTS@MIXTE@517.106253800477@580.532053479104@79.6674643851402@62.8718734369091
BR167@AMBTS@MIXTE@642.452272931048@541.505848013777@53.8841489845085@73.4764919922195
BR200@AMBTS@MIXTE@582.307602455616@593.125735257391@72.709427988821@73.9878628725177
BR211@AMBTS@MIXTE@614.402968684568@689.686447972714@73.6205484168892@83.8041611116038
BR215@AMBTS@MIXTE@759.960852293487@708.243657188011@47.2185589904405@72.3748896905138
BR219@AMBTS@MIXTE@410.196632833675@445.971109099468@0@77.8983295182485
BR237@AMBTS@MIXTE@600.201094184529@598.594018053879@44.1221535424319@75.0792013218656
BR144@AMBTS@MIXTE@719.76984227942@785.037355814914@53.0602307939382@46.018955303638
BR185@AMBTS@MIXTE@656.28405628177@648.52874743989@68.414222328744@82.6885404710367
BR212@AMBTS@MIXTE@396.403552291216@372.819306692796@88.0363338065566@75.7114088078204
BR217@AMBTS@MIXTE@667.689778675452@746.837383053385@91.2062264430778@60.3310251771763
BR238@AMBTS@MIXTE@785.795085832772@500.75696180847@49.6333884902748@20.3366130165073
BR253@AMBTS@MIXTE@503.231671775343@600.204411424627@79.4558043809747@66.905248579918
BR254@AMBTS@MIXTE@622.794902248026@662.553759317239@66.066363225672@36.0993810862326
BR350@AMBTS@MIXTE@536.180676520674@552.994840482042@64.4598775396714@71.3174200619755
BR377@AMBTS@MIXTE@768.442734978152@667.911978199171@76.372058409386@69.1882464579194
BR169@AMBTS@MIXTE@690.620771505752@542.763781664474@68.713585356594@79.2042423685845
BR174@AMBTS@MIXTE@689.453379313808@768.265602488401@79.2494459526304@69.2096256702646
BR179@AMBTS@MIXTE@670.235887332557@559.608798916517@94.0360210917583@46.2494549068576
BR180@AMBTS@MIXTE@497.655907881912@715.743837051648@77.3581294934575@96.496141700901
BR233@AMBTS@MIXTE@435.077188922974@574.18314352093@50.6176697160643@38.1516384718239
BR259@AMBTS@MIXTE@765.880881766174@726.008973026716@97.466636849548@72.2123488350458
BR004@SENSETS@MIXTE@539.375448082931@457.781866737131@43.9223824817703@0
BR113@SENSETS@MIXTE@644.213153692321@411.842033846811@43.5714096571643@0
BR120@SENSETS@MIXTE@788.825170503372@604.095731916861@91.3603350131145@0
BR165@SENSETS@MIXTE@590.550569834494@363.566101758295@79.0445361490719@0
BR178@SENSETS@MIXTE@620.425755796378@468.546884467548@81.2624143426444@0
BR206@SENSETS@MIXTE@515.70482482841@647.525595958653@60.9874838871713@0
BR246@SENSETS@MIXTE@762.313640773297@767.958767642239@74.4252928128303@0
BR255@SENSETS@MIXTE@752.126137470192@503.665458578756@47.361057779069@0
BR256@SENSETS@MIXTE@713.464038007321@629.821923439076@84.2785704154759@0
BR260@SENSETS@MIXTE@587.453330141699@613.553951233823@81.0766475020534@0
BR328@SENSETS@MIXTE@621.445219943753@148.674298165033@63.7046461346829@0
