BR002@7.58333333333333
BR086@12.25
BR129@4
BR135@12.0833333333333
BR136@16.8333333333333
BR137@13.5833333333333
BR138@14.1666666666667
BR139@7.08333333333333
BR140@9
BR379@8.58333333333333
BR232@6
BR329@6
BR334@5
BR001@5.16666666666667
BR003@7.33333333333333
BR012@4.16666666666667
BR014@19.9166666666667
BR081@5.25
BR106@13.4166666666667
BR161@20.1666666666667
BR181@4
BR245@17.3333333333333
BR107@5.1175
BR162@13.3333333333333
BR166@8.07416666666667
BR239@9
BR240@16.3666666666667
BR241@19.4716666666667
BR243@8.51666666666666
BR244@9.875
BR262@11.075
BR263@14.7333333333333
BR339@13.8833333333333
BR352@6.75
BN016@0.569166666666667
BR087@6.41666666666667
BR112@4.16666666666667
BR118@10.5
BR163@9.645
BR303@6.9
BR304@16.3
BR305@13.9833333333333
BR306@11.4625
BN017@2.25
BR017@13.4166666666667
BR018@10.8333333333333
BR019@17.5833333333333
BR020@14
BR072@17.8333333333333
BR073@13.5
BR074@17
BR077@13.6083333333333
BR078@12.875
BR079@10
BR312@11.125
BR331@14.5833333333333
BN013@0
BN014@0.1
BR021@20.25
BR022@14.0833333333333
BR024@11.1666666666667
BR033@15
BR034@12.5833333333333
BR035@18.9166666666667
BR036@27.0833333333333
BR038@14.9166666666667
BR039@14.75
BR040@9.5
BR042@11.8333333333333
BR043@13.1666666666667
BN004@0
BR383@11.9166666666667
BN006@0
BN007@0
BN010@0
BN012@0
BR402@0
BR028@20
BR047@16
BR048@15.3333333333333
BR051@14
BR065@21.8333333333333
BR067@20.0833333333333
BR075@10.75
BR076@14
BR326@18
BN003@0
BN015@0
BR053@13
BR054@18.5833333333333
BR055@17.9166666666667
BR056@13.75
BR057@0
BR058@0
BR059@17
BR404@18.8333333333333
BR061@12.5
BR062@16.75
BR063@12
BR064@10
BR069@10
BR070@8
BR302@17.6666666666667
BR323@0
BR327@12
BN002@0
BN001@0
BR395@18.3333333333333
BR396@12.1666666666667
BR403@0
BR404@0
BR080@3.41666666666667
BR083@4.575
BR092@4.41666666666667
BR119@27.875
BR133@3.95
BR134@4.3
BR171@20.3583333333333
BR187@9.91666666666667
BR189@18.4166666666667
BR267@8.91666666666667
BR008@9.91666666666667
BR015@19.3333333333333
BR101@5.36666666666667
BR124@13.25
BR125@17.75
BR126@20.1666666666667
BR127@9.31666666666667
BR199@23.65
BR221@9
BR231@8.4
BR234@13.75
BR085@22.4333333333333
BR093@12.9666666666667
BR208@22.0833333333333
BR325@18.75
BR336@7.91666666666667
BR108@17.7166666666667
BR109@18
BR110@10.7166666666667
BR111@10
BR116@12
BR117@16.5
BR160@14.9166666666667
BR202@25.6666666666667
BR203@11.8333333333333
BR204@7
BR205@10.6666666666667
BR209@8.95
BR210@16.0833333333333
BR213@10.95
BR214@7
BR216@7.83333333333333
BR374@12.7833333333333
BR261@11.5558333333333
BR369@9.08333333333333
BR375@6
BR115@12.9166666666667
BR149@16
BR201@14.1166666666667
BR360@15.1666666666667
BR367@5.16666666666667
BR370@6.33333333333333
BR176@19.4991666666667
BR218@12.5833333333333
BR235@10.9166666666667
BR268@0
BR316@13.8333333333333
BR317@14.0366666666667
BR318@19
BR359@13.3433333333333
BN008@0
BN011@0.25
BR397@11.5
BR398@11.1666666666667
BR401@0
BR400@0
BR122@13.65
BR123@13.2833333333333
BR182@12.3833333333333
BR183@19.9
BR184@6.88333333333333
BR265@19.8633333333333
BR266@15.8833333333333
BR399@0
BR288@16.65
BR289@13.4
BR292@12.25
BR293@13.0833333333333
BR294@14.3333333333333
BR295@13.7166666666667
BR296@17.4808333333333
BR297@6.78333333333333
BR298@5.15
BR299@17.6191666666667
BR365@16.9
BR373@3.2
BR009@12.5833333333333
BR152@10.6666666666667
BR154@12.0833333333333
BR156@12
BR157@10.6666666666667
BR158@9
BR186@22
BR271@13.1666666666667
BR335@9.77916666666667
BR353@8
BR222@13.3333333333333
BR223@10.25
BR224@12.25
BR225@14.8333333333333
BR226@11.0833333333333
BR227@15.2741666666667
BR151@12.4741666666667
BR273@9.08333333333333
BR275@7.16666666666667
BR276@12
BR277@17.1666666666667
BR282@13
BR311@14.0833333333333
BR342@10.75
BR362@7.9
BR341@12.5833333333333
BR104@14.1666666666667
BR105@14.3333333333333
BR386@9.66666666666667
BR320@16.5833333333333
BR322@11.8333333333333
BR384@5.33333333333333
BR387@7
BR089@12.4166666666667
BR095@11.1666666666667
BR121@15.0375
BR150@8
BR164@20.8333333333333
BR175@8.75
BR207@18.5833333333333
BR230@14.7666666666667
BR284@17.1416666666667
BR285@17
BR286@16.8333333333333
BR287@10.8333333333333
BR300@8
BR315@19.7066666666667
BR348@18.75
BR349@14.75
BR376@9.91666666666667
BR391@8.65833333333333
BR097@16.0833333333333
BR190@14.0833333333333
BR191@12.75
BR192@14.75
BR193@11.75
BR194@9.04583333333333
BR196@12.75
BR197@21.5
BR198@7.16666666666667
BR249@6.16666666666667
BR344@9.16666666666667
BR363@8
BR392@8
BR088@4.58333333333333
BR131@8.08333333333333
BR132@15
BR228@4
BR229@5.91666666666667
BR269@7.33333333333333
BR337@9.75
BR338@10.5833333333333
BR011@8
BR082@17
BR096@3
BR098@7.5
BR128@10.0833333333333
BR130@6
BR146@15.0833333333333
BR148@16
BR159@4.83333333333333
BR167@7
BR200@5
BR211@12.5
BR215@9.16666666666667
BR219@10.3333333333333
BR237@6.66666666666667
BR144@13.5833333333333
BR185@4.41666666666667
BR212@5.16666666666667
BR217@5
BR238@14.8333333333333
BR253@8.25
BR254@12.4166666666667
BR350@18.25
BR377@8.03333333333333
BR169@5
BR174@8
BR179@5
BR180@5.5625
BR233@10.0833333333333
BR259@6.75
BR004@18.5833333333333
BR113@7.08333333333333
BR120@8.89
BR165@10.7683333333333
BR178@6.55083333333333
BR206@15.1666666666667
BR246@14
BR255@11.5
BR256@19.5833333333333
BR260@8
BR328@7
BN018@3
