H;24;20.1
H;25;20.05
H;26;20
H;27;19.95
H;28;19.9
H;29;19.85
H;30;19.8
H;31;19.77
H;32;19.73
H;33;19.7
H;34;19.67
H;35;19.63
H;36;19.6
H;37;19.57
H;38;19.53
H;39;19.5
H;40;19.47
H;41;19.43
H;42;19.4
H;43;19.38
H;44;19.37
H;45;19.35
H;46;19.33
H;47;19.32
H;48;19.3
H;49;19.3
H;50;19.3
H;51;19.3
H;52;19.3
H;53;19.3
H;54;19.3
H;55;19.3
H;56;19.3
H;57;19.3
H;58;19.3
H;59;19.3
H;60;19.3
H;61;19.33
H;62;19.37
H;63;19.4
H;64;19.43
H;65;19.47
H;66;19.5
H;67;19.55
H;68;19.6
H;69;19.65
H;70;19.7
H;71;19.75
H;72;19.8
H;73;19.87
H;74;19.93
H;75;20
H;76;20.07
H;77;20.13
H;78;20.2
H;79;20.27
H;80;20.33
H;81;20.4
H;82;20.47
H;83;20.53
H;84;20.6
H;85;20.68
H;86;20.77
H;87;20.85
H;88;20.93
H;89;21.02
H;90;21.1
H;91;21.18
H;92;21.27
H;93;21.35
H;94;21.43
H;95;21.52
H;96;21.6
H;97;21.7
H;98;21.8
H;99;21.9
H;100;22
H;101;22.1
H;102;22.2
H;103;22.3
H;104;22.4
H;105;22.5
H;106;22.6
H;107;22.7
H;108;22.8
H;109;22.9
H;110;23
H;111;23.1
H;112;23.2
H;113;23.3
H;114;23.4
H;115;23.5
H;116;23.6
H;117;23.7
H;118;23.8
H;119;23.9
H;120;24
H;121;24.1
H;122;24.2
H;123;24.3
H;124;24.4
H;125;24.5
H;126;24.6
H;127;24.68
H;128;24.77
H;129;24.85
H;130;24.93
H;131;25.02
H;132;25.1
H;133;25.18
H;134;25.27
H;135;25.35
H;136;25.43
H;137;25.52
H;138;25.6
H;139;25.67
H;140;25.73
H;141;25.8
H;142;25.87
H;143;25.93
H;144;26
H;145;26.07
H;146;26.13
H;147;26.2
H;148;26.27
H;149;26.33
H;150;26.4
H;151;26.47
H;152;26.53
H;153;26.6
H;154;26.67
H;155;26.73
H;156;26.8
H;157;26.87
H;158;26.93
H;159;27
H;160;27.07
H;161;27.13
H;162;27.2
H;163;27.27
H;164;27.33
H;165;27.4
H;166;27.47
H;167;27.53
H;168;27.6
H;169;27.67
H;170;27.73
H;171;27.8
H;172;27.87
H;173;27.93
H;174;28
H;175;28.05
H;176;28.1
H;177;28.15
H;178;28.2
H;179;28.25
H;180;28.3
H;181;28.35
H;182;28.4
H;183;28.45
H;184;28.5
H;185;28.55
H;186;28.6
H;187;28.65
H;188;28.7
H;189;28.75
H;190;28.8
H;191;28.85
H;192;28.9
H;193;28.93
H;194;28.97
H;195;29
H;196;29.03
H;197;29.07
H;198;29.1
H;199;29.15
H;200;29.2
H;201;29.25
H;202;29.3
H;203;29.35
H;204;29.4
H;205;29.45
H;206;29.5
H;207;29.55
H;208;29.6
H;209;29.65
H;210;29.7
H;211;29.75
H;212;29.8
H;213;29.85
H;214;29.9
H;215;29.95
H;216;30
D;24;20.1
D;25;20
D;26;19.9
D;27;19.8
D;28;19.7
D;29;19.6
D;30;19.5
D;31;19.48
D;32;19.47
D;33;19.45
D;34;19.43
D;35;19.42
D;36;19.4
D;37;19.37
D;38;19.33
D;39;19.3
D;40;19.27
D;41;19.23
D;42;19.2
D;43;19.18
D;44;19.17
D;45;19.15
D;46;19.13
D;47;19.12
D;48;19.1
D;49;19.1
D;50;19.1
D;51;19.1
D;52;19.1
D;53;19.1
D;54;19.1
D;55;19.12
D;56;19.13
D;57;19.15
D;58;19.17
D;59;19.18
D;60;19.2
D;61;19.22
D;62;19.23
D;63;19.25
D;64;19.27
D;65;19.28
D;66;19.3
D;67;19.37
D;68;19.43
D;69;19.5
D;70;19.57
D;71;19.63
D;72;19.7
D;73;19.77
D;74;19.83
D;75;19.9
D;76;19.97
D;77;20.03
D;78;20.1
D;79;20.17
D;80;20.23
D;81;20.3
D;82;20.37
D;83;20.43
D;84;20.5
D;85;20.58
D;86;20.67
D;87;20.75
D;88;20.83
D;89;20.92
D;90;21
D;91;21.1
D;92;21.2
D;93;21.3
D;94;21.4
D;95;21.5
D;96;21.6
D;97;21.7
D;98;21.8
D;99;21.9
D;100;22
D;101;22.1
D;102;22.2
D;103;22.3
D;104;22.4
D;105;22.5
D;106;22.6
D;107;22.7
D;108;22.8
D;109;22.92
D;110;23.03
D;111;23.15
D;112;23.27
D;113;23.38
D;114;23.5
D;115;23.6
D;116;23.7
D;117;23.8
D;118;23.9
D;119;24
D;120;24.1
D;121;24.22
D;122;24.33
D;123;24.45
D;124;24.57
D;125;24.68
D;126;24.8
D;127;24.9
D;128;25
D;129;25.1
D;130;25.2
D;131;25.3
D;132;25.4
D;133;25.52
D;134;25.63
D;135;25.75
D;136;25.87
D;137;25.98
D;138;26.1
D;139;26.2
D;140;26.3
D;141;26.4
D;142;26.5
D;143;26.6
D;144;26.7
D;145;26.78
D;146;26.87
D;147;26.95
D;148;27.03
D;149;27.12
D;150;27.2
D;151;27.3
D;152;27.4
D;153;27.5
D;154;27.6
D;155;27.7
D;156;27.8
D;157;27.87
D;158;27.93
D;159;28
D;160;28.07
D;161;28.13
D;162;28.2
D;163;28.27
D;164;28.33
D;165;28.4
D;166;28.47
D;167;28.53
D;168;28.6
D;169;28.65
D;170;28.7
D;171;28.75
D;172;28.8
D;173;28.85
D;174;28.9
D;175;28.93
D;176;28.97
D;177;29
D;178;29.03
D;179;29.07
D;180;29.1
D;181;29.13
D;182;29.17
D;183;29.2
D;184;29.23
D;185;29.27
D;186;29.3
D;187;29.32
D;188;29.33
D;189;29.35
D;190;29.37
D;191;29.38
D;192;29.4
D;193;29.43
D;194;29.47
D;195;29.5
D;196;29.53
D;197;29.57
D;198;29.6
D;199;29.62
D;200;29.63
D;201;29.65
D;202;29.67
D;203;29.68
D;204;29.7
D;205;29.72
D;206;29.73
D;207;29.75
D;208;29.77
D;209;29.78
D;210;29.8
D;211;29.83
D;212;29.87
D;213;29.9
D;214;29.93
D;215;29.97
D;216;30
