EQA0201@1@1
EQA0202@1@0
EQA0203@1@0
EQA0204@1@1
EQA0205@1@0
EQA0206@1@0
EQA0208@1@1
EQA0209@1@0
EQA0210@1@1
EQA0212@1@0
EQA0213@1@0
EQA0214@0@0
EQA0215@0@0
EQA0216@0@0
EQA0238@0@0
EQA0217@0@0
EQA0248@1@0
EQA0219@1@0
EQA0220@1@0
EQA0249@1@0
EQA0222@1@0
EQA0223@1@0
EQA0224@1@0
EQA0226@0@0
EQA0227@1@1
EQA0228@1@0
EQA0229@1@0
EQA0230@1@0
EQA0231@1@1
EQA0232@1@0
EQA0235@1@0
EQA0236@1@0
EQA0237@1@0
EQA0301@0@0
EQA0302@1@0
EQA0303@1@0
EQA0304@1@0
EQA0305@1@0
EQA0306@1@0
EQA0308@0@0
EQA0309@0@0
EQA0310@1@0
EQA0311@1@0
EQA0312@0@0
EQA0401@1@0
EQA0402@1@1
EQA0403@1@0
EQA0404@1@0
EQA0501@0@0
EQA0502@0@0
EQA0503@0@0
EQA0504@0@0
