'B15.0'@'VHA_DATA'
'B15.9'@'VHA_DATA'
'B15'@'VHA_DATA'
'C01-B15'@'VHA_DATA'
'C01-B15.0'@'VHA_DATA'
'C01-B15.9'@'VHA_DATA'
'B05.1'@'XARAMPIO_DATA'
'B05'@'XARAMPIO_DATA'
'B05.2'@'XARAMPIO_DATA'
'B05.3'@'XARAMPIO_DATA'
'B05.4'@'XARAMPIO_DATA'
'B05.8'@'XARAMPIO_DATA'
'B05.9'@'XARAMPIO_DATA'
'055-35'@'XARAMPIO_DATA'
'B05.0'@'XARAMPIO_DATA'
'C01-B05'@'XARAMPIO_DATA'
'C01-B05.0'@'XARAMPIO_DATA'
'C01-B05.1'@'XARAMPIO_DATA'
'C01-B05.2'@'XARAMPIO_DATA'
'C01-B05.3'@'XARAMPIO_DATA'
'C01-B05.4'@'XARAMPIO_DATA'
'C01-B05.8'@'XARAMPIO_DATA'
'C01-B05.81'@'XARAMPIO_DATA'
'C01-B05.89'@'XARAMPIO_DATA'
'C01-B05.9'@'XARAMPIO_DATA'
'B26.9'@'PAROTIDITIS_DATA'
'B26.0'@'PAROTIDITIS_DATA'
'B26.2'@'PAROTIDITIS_DATA'
'B26.3'@'PAROTIDITIS_DATA'
'B26.8'@'PAROTIDITIS_DATA'
'B26'@'PAROTIDITIS_DATA'
'072-21'@'PAROTIDITIS_DATA'
'C01-B26.89'@'PAROTIDITIS_DATA'
'C01-B26.9'@'PAROTIDITIS_DATA'
'C01-B26'@'PAROTIDITIS_DATA'
'C01-B26.0'@'PAROTIDITIS_DATA'
'C01-B26.1'@'PAROTIDITIS_DATA'
'C01-B26.2'@'PAROTIDITIS_DATA'
'C01-B26.3'@'PAROTIDITIS_DATA'
'C01-B26.8'@'PAROTIDITIS_DATA'
'C01-B26.81'@'PAROTIDITIS_DATA'
'C01-B26.82'@'PAROTIDITIS_DATA'
'C01-B26.83'@'PAROTIDITIS_DATA'
'C01-B26.84'@'PAROTIDITIS_DATA'
'C01-B26.85'@'PAROTIDITIS_DATA'
'B26.1'@'PAROTIDITIS_DATA'
'B06.0'@'RUBEOLA_DATA'
'P35.0'@'RUBEOLA_DATA'
'M01.4'@'RUBEOLA_DATA'
'B06.8'@'RUBEOLA_DATA'
'B06.9'@'RUBEOLA_DATA'
'C01-B06.00'@'RUBEOLA_DATA'
'C01-B06.01'@'RUBEOLA_DATA'
'C01-B06.02'@'RUBEOLA_DATA'
'C01-B06.09'@'RUBEOLA_DATA'
'C01-B06.8'@'RUBEOLA_DATA'
'C01-B06.81'@'RUBEOLA_DATA'
'C01-B06.82'@'RUBEOLA_DATA'
'C01-B06.89'@'RUBEOLA_DATA'
'C01-B06.9'@'RUBEOLA_DATA'
'C01-B06.0'@'RUBEOLA_DATA'
'C01-P35.0'@'RUBEOLA_DATA'
