
VVIRTUALS{A2112{B0005{DEN{ANUAL{TIPPROF1{DIM6SET{45016.000000000
VVIRTUALS{A2112{B0005{DEN{ANUAL{TIPPROF4{DIM6SET{26166.000000000
VVIRTUALS{A2112{B0005{NUM{ANUAL{TIPPROF1{DIM6SET{633.000000000
VVIRTUALS{A2112{B0005{NUM{ANUAL{TIPPROF4{DIM6SET{194.000000000
VVIRTUALS{A2112{B0024{DEN{ANUAL{TIPPROF1{DIM6SET{61459.000000000
VVIRTUALS{A2112{B0024{DEN{ANUAL{TIPPROF4{DIM6SET{38481.000000000
VVIRTUALS{A2112{B0024{NUM{ANUAL{TIPPROF1{DIM6SET{1044.000000000
VVIRTUALS{A2112{B0024{NUM{ANUAL{TIPPROF4{DIM6SET{96.000000000
VVIRTUALS{A2112{B0026{DEN{ANUAL{TIPPROF1{DIM6SET{83981.000000000
VVIRTUALS{A2112{B0026{DEN{ANUAL{TIPPROF4{DIM6SET{79983.000000000
VVIRTUALS{A2112{B0026{NUM{ANUAL{TIPPROF1{DIM6SET{3089.000000000
VVIRTUALS{A2112{B0026{NUM{ANUAL{TIPPROF4{DIM6SET{724.000000000
VVIRTUALS{A2112{B0117{DEN{ANUAL{TIPPROF1{DIM6SET{53982.000000000
VVIRTUALS{A2112{B0117{DEN{ANUAL{TIPPROF4{DIM6SET{36269.000000000
VVIRTUALS{A2112{B0117{NUM{ANUAL{TIPPROF1{DIM6SET{2162.000000000
VVIRTUALS{A2112{B0117{NUM{ANUAL{TIPPROF4{DIM6SET{600.000000000
VVIRTUALS{A2112{B0127{DEN{ANUAL{TIPPROF1{DIM6SET{38214.000000000
VVIRTUALS{A2112{B0127{DEN{ANUAL{TIPPROF4{DIM6SET{31598.000000000
VVIRTUALS{A2112{B0127{NUM{ANUAL{TIPPROF1{DIM6SET{759.000000000
VVIRTUALS{A2112{B0127{NUM{ANUAL{TIPPROF4{DIM6SET{89.000000000
VVIRTUALS{A2112{B0131{DEN{ANUAL{TIPPROF1{DIM6SET{23336.000000000
VVIRTUALS{A2112{B0131{DEN{ANUAL{TIPPROF4{DIM6SET{19166.000000000
VVIRTUALS{A2112{B0131{NUM{ANUAL{TIPPROF1{DIM6SET{325.000000000
VVIRTUALS{A2112{B0131{NUM{ANUAL{TIPPROF4{DIM6SET{50.000000000
VVIRTUALS{A2112{B0191{DEN{ANUAL{TIPPROF1{DIM6SET{76588.000000000
VVIRTUALS{A2112{B0191{DEN{ANUAL{TIPPROF4{DIM6SET{40731.000000000
VVIRTUALS{A2112{B0191{NUM{ANUAL{TIPPROF1{DIM6SET{2140.000000000
VVIRTUALS{A2112{B0191{NUM{ANUAL{TIPPROF4{DIM6SET{728.000000000
VVIRTUALS{A2112{B0192{DEN{ANUAL{TIPPROF1{DIM6SET{97717.000000000
VVIRTUALS{A2112{B0192{DEN{ANUAL{TIPPROF4{DIM6SET{33951.000000000
VVIRTUALS{A2112{B0192{NUM{ANUAL{TIPPROF1{DIM6SET{3931.000000000
VVIRTUALS{A2112{B0192{NUM{ANUAL{TIPPROF4{DIM6SET{561.000000000
VVIRTUALS{A2112{B0290{DEN{ANUAL{TIPPROF1{DIM6SET{38705.000000000
VVIRTUALS{A2112{B0290{DEN{ANUAL{TIPPROF4{DIM6SET{17531.000000000
VVIRTUALS{A2112{B0290{NUM{ANUAL{TIPPROF1{DIM6SET{1366.000000000
VVIRTUALS{A2112{B0290{NUM{ANUAL{TIPPROF4{DIM6SET{788.000000000
VVIRTUALS{A2112{B0292{DEN{ANUAL{TIPPROF1{DIM6SET{44502.000000000
VVIRTUALS{A2112{B0292{DEN{ANUAL{TIPPROF4{DIM6SET{35999.000000000
VVIRTUALS{A2112{B0292{NUM{ANUAL{TIPPROF1{DIM6SET{3912.000000000
VVIRTUALS{A2112{B0292{NUM{ANUAL{TIPPROF4{DIM6SET{926.000000000
VVIRTUALS{A2112{B0294{DEN{ANUAL{TIPPROF1{DIM6SET{73288.000000000
VVIRTUALS{A2112{B0294{DEN{ANUAL{TIPPROF4{DIM6SET{41874.000000000
VVIRTUALS{A2112{B0294{NUM{ANUAL{TIPPROF1{DIM6SET{4394.000000000
VVIRTUALS{A2112{B0294{NUM{ANUAL{TIPPROF4{DIM6SET{1125.000000000
VVIRTUALS{A2112{B0297{DEN{ANUAL{TIPPROF1{DIM6SET{49342.000000000
VVIRTUALS{A2112{B0297{DEN{ANUAL{TIPPROF4{DIM6SET{33318.000000000
VVIRTUALS{A2112{B0297{NUM{ANUAL{TIPPROF1{DIM6SET{1524.000000000
VVIRTUALS{A2112{B0297{NUM{ANUAL{TIPPROF4{DIM6SET{675.000000000
VVIRTUALS{A2112{B0299{DEN{ANUAL{TIPPROF1{DIM6SET{78076.000000000
VVIRTUALS{A2112{B0299{DEN{ANUAL{TIPPROF4{DIM6SET{45916.000000000
VVIRTUALS{A2112{B0299{NUM{ANUAL{TIPPROF1{DIM6SET{774.000000000
VVIRTUALS{A2112{B0299{NUM{ANUAL{TIPPROF4{DIM6SET{188.000000000
VVIRTUALS{A2112{B0301{DEN{ANUAL{TIPPROF1{DIM6SET{63959.000000000
VVIRTUALS{A2112{B0301{DEN{ANUAL{TIPPROF4{DIM6SET{39628.000000000
VVIRTUALS{A2112{B0301{NUM{ANUAL{TIPPROF1{DIM6SET{8047.000000000
VVIRTUALS{A2112{B0301{NUM{ANUAL{TIPPROF4{DIM6SET{2120.000000000
VVIRTUALS{A2112{B0355{DEN{ANUAL{TIPPROF1{DIM6SET{111585.000000000
VVIRTUALS{A2112{B0355{DEN{ANUAL{TIPPROF4{DIM6SET{57287.000000000
VVIRTUALS{A2112{B0355{NUM{ANUAL{TIPPROF1{DIM6SET{1930.000000000
VVIRTUALS{A2112{B0355{NUM{ANUAL{TIPPROF4{DIM6SET{1131.000000000
VVIRTUALS{A2112{B0382{DEN{ANUAL{TIPPROF1{DIM6SET{81411.000000000
VVIRTUALS{A2112{B0382{DEN{ANUAL{TIPPROF4{DIM6SET{38414.000000000
VVIRTUALS{A2112{B0382{NUM{ANUAL{TIPPROF1{DIM6SET{2756.000000000
VVIRTUALS{A2112{B0382{NUM{ANUAL{TIPPROF4{DIM6SET{436.000000000
VVIRTUALS{A2112{B0383{DEN{ANUAL{TIPPROF1{DIM6SET{64653.000000000
VVIRTUALS{A2112{B0383{DEN{ANUAL{TIPPROF4{DIM6SET{26267.000000000
VVIRTUALS{A2112{B0383{NUM{ANUAL{TIPPROF1{DIM6SET{2569.000000000
VVIRTUALS{A2112{B0383{NUM{ANUAL{TIPPROF4{DIM6SET{581.000000000
VVIRTUALS{A2112{B0460{DEN{ANUAL{TIPPROF1{DIM6SET{103627.000000000
VVIRTUALS{A2112{B0460{DEN{ANUAL{TIPPROF4{DIM6SET{61981.000000000
VVIRTUALS{A2112{B0460{NUM{ANUAL{TIPPROF1{DIM6SET{7054.000000000
VVIRTUALS{A2112{B0460{NUM{ANUAL{TIPPROF4{DIM6SET{2490.000000000
VVIRTUALS{A2112{B0462{DEN{ANUAL{TIPPROF1{DIM6SET{99003.000000000
VVIRTUALS{A2112{B0462{DEN{ANUAL{TIPPROF4{DIM6SET{67914.000000000
VVIRTUALS{A2112{B0462{NUM{ANUAL{TIPPROF1{DIM6SET{8111.000000000
VVIRTUALS{A2112{B0462{NUM{ANUAL{TIPPROF4{DIM6SET{2455.000000000
VVIRTUALS{A2112{B0464{DEN{ANUAL{TIPPROF1{DIM6SET{77219.000000000
VVIRTUALS{A2112{B0464{DEN{ANUAL{TIPPROF4{DIM6SET{37621.000000000
VVIRTUALS{A2112{B0464{NUM{ANUAL{TIPPROF1{DIM6SET{14517.000000000
VVIRTUALS{A2112{B0464{NUM{ANUAL{TIPPROF4{DIM6SET{3585.000000000
VVIRTUALS{A2112{B0465{DEN{ANUAL{TIPPROF1{DIM6SET{76181.000000000
VVIRTUALS{A2112{B0465{DEN{ANUAL{TIPPROF4{DIM6SET{44254.000000000
VVIRTUALS{A2112{B0465{NUM{ANUAL{TIPPROF1{DIM6SET{6885.000000000
VVIRTUALS{A2112{B0465{NUM{ANUAL{TIPPROF4{DIM6SET{906.000000000
VVIRTUALS{A2112{B0466{DEN{ANUAL{TIPPROF1{DIM6SET{86590.000000000
VVIRTUALS{A2112{B0466{DEN{ANUAL{TIPPROF4{DIM6SET{23069.000000000
VVIRTUALS{A2112{B0466{NUM{ANUAL{TIPPROF1{DIM6SET{15876.000000000
VVIRTUALS{A2112{B0466{NUM{ANUAL{TIPPROF4{DIM6SET{3487.000000000
VVIRTUALS{A2112{B0467{DEN{ANUAL{TIPPROF1{DIM6SET{83692.000000000
VVIRTUALS{A2112{B0467{DEN{ANUAL{TIPPROF4{DIM6SET{48151.000000000
VVIRTUALS{A2112{B0467{NUM{ANUAL{TIPPROF1{DIM6SET{5879.000000000
VVIRTUALS{A2112{B0467{NUM{ANUAL{TIPPROF4{DIM6SET{1018.000000000
VVIRTUALS{A2112{B0479{DEN{ANUAL{TIPPROF1{DIM6SET{35957.000000000
VVIRTUALS{A2112{B0479{DEN{ANUAL{TIPPROF4{DIM6SET{21822.000000000
VVIRTUALS{A2112{B0479{NUM{ANUAL{TIPPROF1{DIM6SET{9981.000000000
VVIRTUALS{A2112{B0479{NUM{ANUAL{TIPPROF4{DIM6SET{2795.000000000
VVIRTUALS{A2112{B0480{DEN{ANUAL{TIPPROF1{DIM6SET{53993.000000000
VVIRTUALS{A2112{B0480{DEN{ANUAL{TIPPROF4{DIM6SET{21661.000000000
VVIRTUALS{A2112{B0480{NUM{ANUAL{TIPPROF1{DIM6SET{16101.000000000
VVIRTUALS{A2112{B0480{NUM{ANUAL{TIPPROF4{DIM6SET{3567.000000000
VVIRTUALS{A2112{B0484{DEN{ANUAL{TIPPROF1{DIM6SET{53206.000000000
VVIRTUALS{A2112{B0484{DEN{ANUAL{TIPPROF4{DIM6SET{30800.000000000
VVIRTUALS{A2112{B0484{NUM{ANUAL{TIPPROF1{DIM6SET{3578.000000000
VVIRTUALS{A2112{B0484{NUM{ANUAL{TIPPROF4{DIM6SET{715.000000000
VVIRTUALS{A2112{B0598{DEN{ANUAL{TIPPROF1{DIM6SET{70825.000000000
VVIRTUALS{A2112{B0598{DEN{ANUAL{TIPPROF4{DIM6SET{37909.000000000
VVIRTUALS{A2112{B0598{NUM{ANUAL{TIPPROF1{DIM6SET{2763.000000000
VVIRTUALS{A2112{B0598{NUM{ANUAL{TIPPROF4{DIM6SET{104.000000000
VVIRTUALS{A2112{B0695{DEN{ANUAL{TIPPROF1{DIM6SET{47205.000000000
VVIRTUALS{A2112{B0695{DEN{ANUAL{TIPPROF4{DIM6SET{24116.000000000
VVIRTUALS{A2112{B0695{NUM{ANUAL{TIPPROF1{DIM6SET{2239.000000000
VVIRTUALS{A2112{B0695{NUM{ANUAL{TIPPROF4{DIM6SET{427.000000000
VVIRTUALS{A2112{B0697{DEN{ANUAL{TIPPROF1{DIM6SET{82489.000000000
VVIRTUALS{A2112{B0697{DEN{ANUAL{TIPPROF4{DIM6SET{50274.000000000
VVIRTUALS{A2112{B0697{NUM{ANUAL{TIPPROF1{DIM6SET{697.000000000
VVIRTUALS{A2112{B0697{NUM{ANUAL{TIPPROF4{DIM6SET{784.000000000
VVIRTUALS{A2112{B0701{DEN{ANUAL{TIPPROF1{DIM6SET{130787.000000000
VVIRTUALS{A2112{B0701{DEN{ANUAL{TIPPROF4{DIM6SET{52788.000000000
VVIRTUALS{A2112{B0701{NUM{ANUAL{TIPPROF1{DIM6SET{3871.000000000
VVIRTUALS{A2112{B0701{NUM{ANUAL{TIPPROF4{DIM6SET{926.000000000
VVIRTUALS{A2112{B0702{DEN{ANUAL{TIPPROF1{DIM6SET{96921.000000000
VVIRTUALS{A2112{B0702{DEN{ANUAL{TIPPROF4{DIM6SET{51513.000000000
VVIRTUALS{A2112{B0702{NUM{ANUAL{TIPPROF1{DIM6SET{719.000000000
VVIRTUALS{A2112{B0702{NUM{ANUAL{TIPPROF4{DIM6SET{153.000000000
VVIRTUALS{A2112{B0703{DEN{ANUAL{TIPPROF1{DIM6SET{146563.000000000
VVIRTUALS{A2112{B0703{DEN{ANUAL{TIPPROF4{DIM6SET{87194.000000000
VVIRTUALS{A2112{B0703{NUM{ANUAL{TIPPROF1{DIM6SET{1703.000000000
VVIRTUALS{A2112{B0703{NUM{ANUAL{TIPPROF4{DIM6SET{487.000000000
VVIRTUALS{A2112{B0915{DEN{ANUAL{TIPPROF1{DIM6SET{151911.000000000
VVIRTUALS{A2112{B0915{DEN{ANUAL{TIPPROF4{DIM6SET{105657.000000000
VVIRTUALS{A2112{B0915{NUM{ANUAL{TIPPROF1{DIM6SET{345.000000000
VVIRTUALS{A2112{B0915{NUM{ANUAL{TIPPROF4{DIM6SET{666.000000000
VVIRTUALS{A2112{B1004{DEN{ANUAL{TIPPROF1{DIM6SET{117994.000000000
VVIRTUALS{A2112{B1004{DEN{ANUAL{TIPPROF4{DIM6SET{54952.000000000
VVIRTUALS{A2112{B1004{NUM{ANUAL{TIPPROF1{DIM6SET{8299.000000000
VVIRTUALS{A2112{B1004{NUM{ANUAL{TIPPROF4{DIM6SET{1561.000000000
VVIRTUALS{A2112{B1077{DEN{ANUAL{TIPPROF1{DIM6SET{62403.000000000
VVIRTUALS{A2112{B1077{DEN{ANUAL{TIPPROF4{DIM6SET{26779.000000000
VVIRTUALS{A2112{B1077{NUM{ANUAL{TIPPROF1{DIM6SET{2860.000000000
VVIRTUALS{A2112{B1077{NUM{ANUAL{TIPPROF4{DIM6SET{808.000000000
VVIRTUALS{A2112{B1121{DEN{ANUAL{TIPPROF1{DIM6SET{26286.000000000
VVIRTUALS{A2112{B1121{DEN{ANUAL{TIPPROF4{DIM6SET{20192.000000000
VVIRTUALS{A2112{B1121{NUM{ANUAL{TIPPROF1{DIM6SET{723.000000000
VVIRTUALS{A2112{B1121{NUM{ANUAL{TIPPROF4{DIM6SET{176.000000000
VVIRTUALS{A2112{B1273{DEN{ANUAL{TIPPROF1{DIM6SET{108901.000000000
VVIRTUALS{A2112{B1273{DEN{ANUAL{TIPPROF4{DIM6SET{51803.000000000
VVIRTUALS{A2112{B1273{NUM{ANUAL{TIPPROF1{DIM6SET{3931.000000000
VVIRTUALS{A2112{B1273{NUM{ANUAL{TIPPROF4{DIM6SET{1092.000000000
VVIRTUALS{A2112{B1321{DEN{ANUAL{TIPPROF1{DIM6SET{7033.000000000
VVIRTUALS{A2112{B1321{DEN{ANUAL{TIPPROF4{DIM6SET{7591.000000000
VVIRTUALS{A2112{B1321{NUM{ANUAL{TIPPROF4{DIM6SET{1.000000000
VVIRTUALS{A2112{B1322{DEN{ANUAL{TIPPROF1{DIM6SET{62535.000000000
VVIRTUALS{A2112{B1322{DEN{ANUAL{TIPPROF4{DIM6SET{53610.000000000
VVIRTUALS{A2112{B1322{NUM{ANUAL{TIPPROF1{DIM6SET{2193.000000000
VVIRTUALS{A2112{B1322{NUM{ANUAL{TIPPROF4{DIM6SET{670.000000000
VVIRTUALS{A2112{B1325{DEN{ANUAL{TIPPROF1{DIM6SET{67372.000000000
VVIRTUALS{A2112{B1325{DEN{ANUAL{TIPPROF4{DIM6SET{41693.000000000
VVIRTUALS{A2112{B1325{NUM{ANUAL{TIPPROF1{DIM6SET{1805.000000000
VVIRTUALS{A2112{B1325{NUM{ANUAL{TIPPROF4{DIM6SET{748.000000000
VVIRTUALS{A2112{B1329{DEN{ANUAL{TIPPROF1{DIM6SET{55860.000000000
VVIRTUALS{A2112{B1329{DEN{ANUAL{TIPPROF4{DIM6SET{39924.000000000
VVIRTUALS{A2112{B1329{NUM{ANUAL{TIPPROF1{DIM6SET{1928.000000000
VVIRTUALS{A2112{B1329{NUM{ANUAL{TIPPROF4{DIM6SET{618.000000000
VVIRTUALS{A2112{B1330{DEN{ANUAL{TIPPROF1{DIM6SET{151735.000000000
VVIRTUALS{A2112{B1330{DEN{ANUAL{TIPPROF4{DIM6SET{58913.000000000
VVIRTUALS{A2112{B1330{NUM{ANUAL{TIPPROF1{DIM6SET{11263.000000000
VVIRTUALS{A2112{B1330{NUM{ANUAL{TIPPROF4{DIM6SET{1337.000000000
VVIRTUALS{A2112{B1485{DEN{ANUAL{TIPPROF1{DIM6SET{29108.000000000
VVIRTUALS{A2112{B1485{DEN{ANUAL{TIPPROF4{DIM6SET{20226.000000000
VVIRTUALS{A2112{B1485{NUM{ANUAL{TIPPROF1{DIM6SET{1173.000000000
VVIRTUALS{A2112{B1485{NUM{ANUAL{TIPPROF4{DIM6SET{275.000000000
VVIRTUALS{A2112{B1790{DEN{ANUAL{TIPPROF1{DIM6SET{114394.000000000
VVIRTUALS{A2112{B1790{DEN{ANUAL{TIPPROF4{DIM6SET{52803.000000000
VVIRTUALS{A2112{B1790{NUM{ANUAL{TIPPROF1{DIM6SET{1995.000000000
VVIRTUALS{A2112{B1790{NUM{ANUAL{TIPPROF4{DIM6SET{563.000000000
VVIRTUALS{A2112{B1791{DEN{ANUAL{TIPPROF1{DIM6SET{65705.000000000
VVIRTUALS{A2112{B1791{DEN{ANUAL{TIPPROF4{DIM6SET{42050.000000000
VVIRTUALS{A2112{B1791{NUM{ANUAL{TIPPROF1{DIM6SET{3245.000000000
VVIRTUALS{A2112{B1791{NUM{ANUAL{TIPPROF4{DIM6SET{826.000000000
VVIRTUALS{A2112{B1796{DEN{ANUAL{TIPPROF1{DIM6SET{63835.000000000
VVIRTUALS{A2112{B1796{DEN{ANUAL{TIPPROF4{DIM6SET{46597.000000000
VVIRTUALS{A2112{B1796{NUM{ANUAL{TIPPROF1{DIM6SET{3849.000000000
VVIRTUALS{A2112{B1796{NUM{ANUAL{TIPPROF4{DIM6SET{995.000000000
VVIRTUALS{A2112{B1883{DEN{ANUAL{TIPPROF1{DIM6SET{29575.000000000
VVIRTUALS{A2112{B1883{DEN{ANUAL{TIPPROF4{DIM6SET{21094.000000000
VVIRTUALS{A2112{B1883{NUM{ANUAL{TIPPROF1{DIM6SET{654.000000000
VVIRTUALS{A2112{B1883{NUM{ANUAL{TIPPROF4{DIM6SET{114.000000000
VVIRTUALS{A2112{B1886{DEN{ANUAL{TIPPROF1{DIM6SET{131704.000000000
VVIRTUALS{A2112{B1886{DEN{ANUAL{TIPPROF4{DIM6SET{73085.000000000
VVIRTUALS{A2112{B1886{NUM{ANUAL{TIPPROF1{DIM6SET{6034.000000000
VVIRTUALS{A2112{B1886{NUM{ANUAL{TIPPROF4{DIM6SET{1736.000000000
VVIRTUALS{A2112{B1919{DEN{ANUAL{TIPPROF1{DIM6SET{58677.000000000
VVIRTUALS{A2112{B1919{DEN{ANUAL{TIPPROF4{DIM6SET{36723.000000000
VVIRTUALS{A2112{B1919{NUM{ANUAL{TIPPROF1{DIM6SET{726.000000000
VVIRTUALS{A2112{B1919{NUM{ANUAL{TIPPROF4{DIM6SET{335.000000000
VVIRTUALS{A2112{B1928{DEN{ANUAL{TIPPROF1{DIM6SET{30644.000000000
VVIRTUALS{A2112{B1928{DEN{ANUAL{TIPPROF4{DIM6SET{21844.000000000
VVIRTUALS{A2112{B1928{NUM{ANUAL{TIPPROF1{DIM6SET{999.000000000
VVIRTUALS{A2112{B1928{NUM{ANUAL{TIPPROF4{DIM6SET{230.000000000
VVIRTUALS{A2112{B1929{DEN{ANUAL{TIPPROF1{DIM6SET{106955.000000000
VVIRTUALS{A2112{B1929{DEN{ANUAL{TIPPROF4{DIM6SET{58795.000000000
VVIRTUALS{A2112{B1929{NUM{ANUAL{TIPPROF1{DIM6SET{5793.000000000
VVIRTUALS{A2112{B1929{NUM{ANUAL{TIPPROF4{DIM6SET{1325.000000000
VVIRTUALS{A2112{B2000{DEN{ANUAL{TIPPROF1{DIM6SET{36482.000000000
VVIRTUALS{A2112{B2000{DEN{ANUAL{TIPPROF4{DIM6SET{18506.000000000
VVIRTUALS{A2112{B2000{NUM{ANUAL{TIPPROF1{DIM6SET{2848.000000000
VVIRTUALS{A2112{B2000{NUM{ANUAL{TIPPROF4{DIM6SET{652.000000000
VVIRTUALS{A2112{B2038{DEN{ANUAL{TIPPROF1{DIM6SET{78028.000000000
VVIRTUALS{A2112{B2038{DEN{ANUAL{TIPPROF4{DIM6SET{50656.000000000
VVIRTUALS{A2112{B2038{NUM{ANUAL{TIPPROF1{DIM6SET{2170.000000000
VVIRTUALS{A2112{B2038{NUM{ANUAL{TIPPROF4{DIM6SET{1720.000000000
VVIRTUALS{A2112{B2791{DEN{ANUAL{TIPPROF1{DIM6SET{36513.000000000
VVIRTUALS{A2112{B2791{DEN{ANUAL{TIPPROF4{DIM6SET{23732.000000000
VVIRTUALS{A2112{B2791{NUM{ANUAL{TIPPROF1{DIM6SET{768.000000000
VVIRTUALS{A2112{B2791{NUM{ANUAL{TIPPROF4{DIM6SET{122.000000000
VVIRTUALS{A2112{B3913{DEN{ANUAL{TIPPROF1{DIM6SET{68065.000000000
VVIRTUALS{A2112{B3913{DEN{ANUAL{TIPPROF4{DIM6SET{35530.000000000
VVIRTUALS{A2112{B3913{NUM{ANUAL{TIPPROF1{DIM6SET{4116.000000000
VVIRTUALS{A2112{B3913{NUM{ANUAL{TIPPROF4{DIM6SET{471.000000000
VVIRTUALS{A2112{B4276{DEN{ANUAL{TIPPROF1{DIM6SET{41831.000000000
VVIRTUALS{A2112{B4276{DEN{ANUAL{TIPPROF4{DIM6SET{24076.000000000
VVIRTUALS{A2112{B4276{NUM{ANUAL{TIPPROF1{DIM6SET{657.000000000
VVIRTUALS{A2112{B4276{NUM{ANUAL{TIPPROF4{DIM6SET{80.000000000
VVIRTUALS{A2112{B4863{DEN{ANUAL{TIPPROF1{DIM6SET{48246.000000000
VVIRTUALS{A2112{B4863{DEN{ANUAL{TIPPROF4{DIM6SET{27005.000000000
VVIRTUALS{A2112{B4863{NUM{ANUAL{TIPPROF1{DIM6SET{1062.000000000
VVIRTUALS{A2112{B4863{NUM{ANUAL{TIPPROF4{DIM6SET{253.000000000
VVIRTUALS{A2112{B6156{DEN{ANUAL{TIPPROF1{DIM6SET{80379.000000000
VVIRTUALS{A2112{B6156{DEN{ANUAL{TIPPROF4{DIM6SET{68730.000000000
VVIRTUALS{A2112{B6156{NUM{ANUAL{TIPPROF1{DIM6SET{4431.000000000
VVIRTUALS{A2112{B6156{NUM{ANUAL{TIPPROF4{DIM6SET{101.000000000
VVIRTUALS{A2112{B6175{DEN{ANUAL{TIPPROF1{DIM6SET{50891.000000000
VVIRTUALS{A2112{B6175{DEN{ANUAL{TIPPROF4{DIM6SET{41534.000000000
VVIRTUALS{A2112{B6175{NUM{ANUAL{TIPPROF1{DIM6SET{6965.000000000
VVIRTUALS{A2112{B6175{NUM{ANUAL{TIPPROF4{DIM6SET{2166.000000000
VVIRTUALS{A2112{BR001{DEN{ANUAL{TIPPROF1{DIM6SET{24782.000000000
VVIRTUALS{A2112{BR001{DEN{ANUAL{TIPPROF4{DIM6SET{27162.000000000
VVIRTUALS{A2112{BR001{NUM{ANUAL{TIPPROF1{DIM6SET{892.000000000
VVIRTUALS{A2112{BR001{NUM{ANUAL{TIPPROF4{DIM6SET{242.000000000
VVIRTUALS{A2112{BR002{DEN{ANUAL{TIPPROF1{DIM6SET{43789.000000000
VVIRTUALS{A2112{BR002{DEN{ANUAL{TIPPROF4{DIM6SET{43838.000000000
VVIRTUALS{A2112{BR002{NUM{ANUAL{TIPPROF1{DIM6SET{859.000000000
VVIRTUALS{A2112{BR002{NUM{ANUAL{TIPPROF4{DIM6SET{251.000000000
VVIRTUALS{A2112{BR003{DEN{ANUAL{TIPPROF1{DIM6SET{46151.000000000
VVIRTUALS{A2112{BR003{DEN{ANUAL{TIPPROF4{DIM6SET{47708.000000000
VVIRTUALS{A2112{BR003{NUM{ANUAL{TIPPROF1{DIM6SET{1460.000000000
VVIRTUALS{A2112{BR003{NUM{ANUAL{TIPPROF4{DIM6SET{213.000000000
VVIRTUALS{A2112{BR004{DEN{ANUAL{TIPPROF1{DIM6SET{120925.000000000
VVIRTUALS{A2112{BR004{DEN{ANUAL{TIPPROF4{DIM6SET{71326.000000000
VVIRTUALS{A2112{BR004{NUM{ANUAL{TIPPROF1{DIM6SET{5974.000000000
VVIRTUALS{A2112{BR004{NUM{ANUAL{TIPPROF4{DIM6SET{1519.000000000
VVIRTUALS{A2112{BR008{DEN{ANUAL{TIPPROF1{DIM6SET{50333.000000000
VVIRTUALS{A2112{BR008{DEN{ANUAL{TIPPROF4{DIM6SET{49375.000000000
VVIRTUALS{A2112{BR008{NUM{ANUAL{TIPPROF1{DIM6SET{1305.000000000
VVIRTUALS{A2112{BR008{NUM{ANUAL{TIPPROF4{DIM6SET{269.000000000
VVIRTUALS{A2112{BR009{DEN{ANUAL{TIPPROF1{DIM6SET{87415.000000000
VVIRTUALS{A2112{BR009{DEN{ANUAL{TIPPROF4{DIM6SET{68797.000000000
VVIRTUALS{A2112{BR009{NUM{ANUAL{TIPPROF1{DIM6SET{1953.000000000
VVIRTUALS{A2112{BR009{NUM{ANUAL{TIPPROF4{DIM6SET{1757.000000000
VVIRTUALS{A2112{BR011{DEN{ANUAL{TIPPROF1{DIM6SET{40225.000000000
VVIRTUALS{A2112{BR011{DEN{ANUAL{TIPPROF4{DIM6SET{44811.000000000
VVIRTUALS{A2112{BR011{NUM{ANUAL{TIPPROF1{DIM6SET{1689.000000000
VVIRTUALS{A2112{BR011{NUM{ANUAL{TIPPROF4{DIM6SET{426.000000000
VVIRTUALS{A2112{BR012{DEN{ANUAL{TIPPROF1{DIM6SET{14509.000000000
VVIRTUALS{A2112{BR012{DEN{ANUAL{TIPPROF4{DIM6SET{15303.000000000
VVIRTUALS{A2112{BR012{NUM{ANUAL{TIPPROF1{DIM6SET{584.000000000
VVIRTUALS{A2112{BR012{NUM{ANUAL{TIPPROF4{DIM6SET{52.000000000
VVIRTUALS{A2112{BR014{DEN{ANUAL{TIPPROF1{DIM6SET{119528.000000000
VVIRTUALS{A2112{BR014{DEN{ANUAL{TIPPROF4{DIM6SET{105704.000000000
VVIRTUALS{A2112{BR014{NUM{ANUAL{TIPPROF1{DIM6SET{4520.000000000
VVIRTUALS{A2112{BR014{NUM{ANUAL{TIPPROF4{DIM6SET{1240.000000000
VVIRTUALS{A2112{BR015{DEN{ANUAL{TIPPROF1{DIM6SET{116537.000000000
VVIRTUALS{A2112{BR015{DEN{ANUAL{TIPPROF4{DIM6SET{91148.000000000
VVIRTUALS{A2112{BR015{NUM{ANUAL{TIPPROF1{DIM6SET{5438.000000000
VVIRTUALS{A2112{BR015{NUM{ANUAL{TIPPROF4{DIM6SET{1541.000000000
VVIRTUALS{A2112{BR017{DEN{ANUAL{TIPPROF1{DIM6SET{83605.000000000
VVIRTUALS{A2112{BR017{DEN{ANUAL{TIPPROF4{DIM6SET{42992.000000000
VVIRTUALS{A2112{BR017{NUM{ANUAL{TIPPROF1{DIM6SET{4005.000000000
VVIRTUALS{A2112{BR017{NUM{ANUAL{TIPPROF4{DIM6SET{1502.000000000
VVIRTUALS{A2112{BR018{DEN{ANUAL{TIPPROF1{DIM6SET{60195.000000000
VVIRTUALS{A2112{BR018{DEN{ANUAL{TIPPROF4{DIM6SET{28996.000000000
VVIRTUALS{A2112{BR018{NUM{ANUAL{TIPPROF1{DIM6SET{1380.000000000
VVIRTUALS{A2112{BR018{NUM{ANUAL{TIPPROF4{DIM6SET{713.000000000
VVIRTUALS{A2112{BR019{DEN{ANUAL{TIPPROF1{DIM6SET{99236.000000000
VVIRTUALS{A2112{BR019{DEN{ANUAL{TIPPROF4{DIM6SET{52058.000000000
VVIRTUALS{A2112{BR019{NUM{ANUAL{TIPPROF1{DIM6SET{1870.000000000
VVIRTUALS{A2112{BR019{NUM{ANUAL{TIPPROF4{DIM6SET{497.000000000
VVIRTUALS{A2112{BR020{DEN{ANUAL{TIPPROF1{DIM6SET{78529.000000000
VVIRTUALS{A2112{BR020{DEN{ANUAL{TIPPROF4{DIM6SET{42163.000000000
VVIRTUALS{A2112{BR020{NUM{ANUAL{TIPPROF1{DIM6SET{914.000000000
VVIRTUALS{A2112{BR020{NUM{ANUAL{TIPPROF4{DIM6SET{648.000000000
VVIRTUALS{A2112{BR021{DEN{ANUAL{TIPPROF1{DIM6SET{118673.000000000
VVIRTUALS{A2112{BR021{DEN{ANUAL{TIPPROF4{DIM6SET{76774.000000000
VVIRTUALS{A2112{BR021{NUM{ANUAL{TIPPROF1{DIM6SET{8384.000000000
VVIRTUALS{A2112{BR021{NUM{ANUAL{TIPPROF4{DIM6SET{2348.000000000
VVIRTUALS{A2112{BR022{DEN{ANUAL{TIPPROF1{DIM6SET{101905.000000000
VVIRTUALS{A2112{BR022{DEN{ANUAL{TIPPROF4{DIM6SET{61626.000000000
VVIRTUALS{A2112{BR022{NUM{ANUAL{TIPPROF1{DIM6SET{7269.000000000
VVIRTUALS{A2112{BR022{NUM{ANUAL{TIPPROF4{DIM6SET{3066.000000000
VVIRTUALS{A2112{BR024{DEN{ANUAL{TIPPROF1{DIM6SET{63983.000000000
VVIRTUALS{A2112{BR024{DEN{ANUAL{TIPPROF4{DIM6SET{34444.000000000
VVIRTUALS{A2112{BR024{NUM{ANUAL{TIPPROF1{DIM6SET{5465.000000000
VVIRTUALS{A2112{BR024{NUM{ANUAL{TIPPROF4{DIM6SET{1392.000000000
VVIRTUALS{A2112{BR028{DEN{ANUAL{TIPPROF1{DIM6SET{111922.000000000
VVIRTUALS{A2112{BR028{DEN{ANUAL{TIPPROF4{DIM6SET{62721.000000000
VVIRTUALS{A2112{BR028{NUM{ANUAL{TIPPROF1{DIM6SET{7292.000000000
VVIRTUALS{A2112{BR028{NUM{ANUAL{TIPPROF4{DIM6SET{2187.000000000
VVIRTUALS{A2112{BR033{DEN{ANUAL{TIPPROF1{DIM6SET{89047.000000000
VVIRTUALS{A2112{BR033{DEN{ANUAL{TIPPROF4{DIM6SET{43376.000000000
VVIRTUALS{A2112{BR033{NUM{ANUAL{TIPPROF1{DIM6SET{8923.000000000
VVIRTUALS{A2112{BR033{NUM{ANUAL{TIPPROF4{DIM6SET{2416.000000000
VVIRTUALS{A2112{BR034{DEN{ANUAL{TIPPROF1{DIM6SET{73626.000000000
VVIRTUALS{A2112{BR034{DEN{ANUAL{TIPPROF4{DIM6SET{52461.000000000
VVIRTUALS{A2112{BR034{NUM{ANUAL{TIPPROF1{DIM6SET{3595.000000000
VVIRTUALS{A2112{BR034{NUM{ANUAL{TIPPROF4{DIM6SET{786.000000000
VVIRTUALS{A2112{BR035{DEN{ANUAL{TIPPROF1{DIM6SET{130031.000000000
VVIRTUALS{A2112{BR035{DEN{ANUAL{TIPPROF4{DIM6SET{64932.000000000
VVIRTUALS{A2112{BR035{NUM{ANUAL{TIPPROF1{DIM6SET{11192.000000000
VVIRTUALS{A2112{BR035{NUM{ANUAL{TIPPROF4{DIM6SET{2575.000000000
VVIRTUALS{A2112{BR036{DEN{ANUAL{TIPPROF1{DIM6SET{92640.000000000
VVIRTUALS{A2112{BR036{DEN{ANUAL{TIPPROF4{DIM6SET{70968.000000000
VVIRTUALS{A2112{BR036{NUM{ANUAL{TIPPROF1{DIM6SET{4406.000000000
VVIRTUALS{A2112{BR036{NUM{ANUAL{TIPPROF4{DIM6SET{1649.000000000
VVIRTUALS{A2112{BR038{DEN{ANUAL{TIPPROF1{DIM6SET{109414.000000000
VVIRTUALS{A2112{BR038{DEN{ANUAL{TIPPROF4{DIM6SET{48014.000000000
VVIRTUALS{A2112{BR038{NUM{ANUAL{TIPPROF1{DIM6SET{9721.000000000
VVIRTUALS{A2112{BR038{NUM{ANUAL{TIPPROF4{DIM6SET{1637.000000000
VVIRTUALS{A2112{BR039{DEN{ANUAL{TIPPROF1{DIM6SET{79418.000000000
VVIRTUALS{A2112{BR039{DEN{ANUAL{TIPPROF4{DIM6SET{67754.000000000
VVIRTUALS{A2112{BR039{NUM{ANUAL{TIPPROF1{DIM6SET{8468.000000000
VVIRTUALS{A2112{BR039{NUM{ANUAL{TIPPROF4{DIM6SET{2607.000000000
VVIRTUALS{A2112{BR040{DEN{ANUAL{TIPPROF1{DIM6SET{39449.000000000
VVIRTUALS{A2112{BR040{DEN{ANUAL{TIPPROF4{DIM6SET{29280.000000000
VVIRTUALS{A2112{BR040{NUM{ANUAL{TIPPROF1{DIM6SET{5345.000000000
VVIRTUALS{A2112{BR040{NUM{ANUAL{TIPPROF4{DIM6SET{2009.000000000
VVIRTUALS{A2112{BR042{DEN{ANUAL{TIPPROF1{DIM6SET{54633.000000000
VVIRTUALS{A2112{BR042{DEN{ANUAL{TIPPROF4{DIM6SET{25273.000000000
VVIRTUALS{A2112{BR042{NUM{ANUAL{TIPPROF1{DIM6SET{5335.000000000
VVIRTUALS{A2112{BR042{NUM{ANUAL{TIPPROF4{DIM6SET{2380.000000000
VVIRTUALS{A2112{BR043{DEN{ANUAL{TIPPROF1{DIM6SET{86083.000000000
VVIRTUALS{A2112{BR043{DEN{ANUAL{TIPPROF4{DIM6SET{52089.000000000
VVIRTUALS{A2112{BR043{NUM{ANUAL{TIPPROF1{DIM6SET{5879.000000000
VVIRTUALS{A2112{BR043{NUM{ANUAL{TIPPROF4{DIM6SET{3306.000000000
VVIRTUALS{A2112{BR047{DEN{ANUAL{TIPPROF1{DIM6SET{82309.000000000
VVIRTUALS{A2112{BR047{DEN{ANUAL{TIPPROF4{DIM6SET{53032.000000000
VVIRTUALS{A2112{BR047{NUM{ANUAL{TIPPROF1{DIM6SET{6890.000000000
VVIRTUALS{A2112{BR047{NUM{ANUAL{TIPPROF4{DIM6SET{2112.000000000
VVIRTUALS{A2112{BR048{DEN{ANUAL{TIPPROF1{DIM6SET{79305.000000000
VVIRTUALS{A2112{BR048{DEN{ANUAL{TIPPROF4{DIM6SET{42309.000000000
VVIRTUALS{A2112{BR048{NUM{ANUAL{TIPPROF1{DIM6SET{6030.000000000
VVIRTUALS{A2112{BR048{NUM{ANUAL{TIPPROF4{DIM6SET{2352.000000000
VVIRTUALS{A2112{BR051{DEN{ANUAL{TIPPROF1{DIM6SET{77823.000000000
VVIRTUALS{A2112{BR051{DEN{ANUAL{TIPPROF4{DIM6SET{49425.000000000
VVIRTUALS{A2112{BR051{NUM{ANUAL{TIPPROF1{DIM6SET{5418.000000000
VVIRTUALS{A2112{BR051{NUM{ANUAL{TIPPROF4{DIM6SET{2406.000000000
VVIRTUALS{A2112{BR053{DEN{ANUAL{TIPPROF1{DIM6SET{72789.000000000
VVIRTUALS{A2112{BR053{DEN{ANUAL{TIPPROF4{DIM6SET{39148.000000000
VVIRTUALS{A2112{BR053{NUM{ANUAL{TIPPROF1{DIM6SET{1957.000000000
VVIRTUALS{A2112{BR053{NUM{ANUAL{TIPPROF4{DIM6SET{869.000000000
VVIRTUALS{A2112{BR054{DEN{ANUAL{TIPPROF1{DIM6SET{89657.000000000
VVIRTUALS{A2112{BR054{DEN{ANUAL{TIPPROF4{DIM6SET{46852.000000000
VVIRTUALS{A2112{BR054{NUM{ANUAL{TIPPROF1{DIM6SET{3775.000000000
VVIRTUALS{A2112{BR054{NUM{ANUAL{TIPPROF4{DIM6SET{2202.000000000
VVIRTUALS{A2112{BR055{DEN{ANUAL{TIPPROF1{DIM6SET{103235.000000000
VVIRTUALS{A2112{BR055{DEN{ANUAL{TIPPROF4{DIM6SET{82999.000000000
VVIRTUALS{A2112{BR055{NUM{ANUAL{TIPPROF1{DIM6SET{1850.000000000
VVIRTUALS{A2112{BR055{NUM{ANUAL{TIPPROF4{DIM6SET{658.000000000
VVIRTUALS{A2112{BR056{DEN{ANUAL{TIPPROF1{DIM6SET{53250.000000000
VVIRTUALS{A2112{BR056{DEN{ANUAL{TIPPROF4{DIM6SET{22156.000000000
VVIRTUALS{A2112{BR056{NUM{ANUAL{TIPPROF1{DIM6SET{2515.000000000
VVIRTUALS{A2112{BR056{NUM{ANUAL{TIPPROF4{DIM6SET{1308.000000000
VVIRTUALS{A2112{BR059{DEN{ANUAL{TIPPROF1{DIM6SET{77563.000000000
VVIRTUALS{A2112{BR059{DEN{ANUAL{TIPPROF4{DIM6SET{58242.000000000
VVIRTUALS{A2112{BR059{NUM{ANUAL{TIPPROF1{DIM6SET{5137.000000000
VVIRTUALS{A2112{BR059{NUM{ANUAL{TIPPROF4{DIM6SET{1517.000000000
VVIRTUALS{A2112{BR062{DEN{ANUAL{TIPPROF1{DIM6SET{109106.000000000
VVIRTUALS{A2112{BR062{DEN{ANUAL{TIPPROF4{DIM6SET{65266.000000000
VVIRTUALS{A2112{BR062{NUM{ANUAL{TIPPROF1{DIM6SET{10442.000000000
VVIRTUALS{A2112{BR062{NUM{ANUAL{TIPPROF4{DIM6SET{1793.000000000
VVIRTUALS{A2112{BR063{DEN{ANUAL{TIPPROF1{DIM6SET{73002.000000000
VVIRTUALS{A2112{BR063{DEN{ANUAL{TIPPROF4{DIM6SET{61091.000000000
VVIRTUALS{A2112{BR063{NUM{ANUAL{TIPPROF1{DIM6SET{1798.000000000
VVIRTUALS{A2112{BR063{NUM{ANUAL{TIPPROF4{DIM6SET{893.000000000
VVIRTUALS{A2112{BR064{DEN{ANUAL{TIPPROF1{DIM6SET{77000.000000000
VVIRTUALS{A2112{BR064{DEN{ANUAL{TIPPROF4{DIM6SET{54248.000000000
VVIRTUALS{A2112{BR064{NUM{ANUAL{TIPPROF1{DIM6SET{4595.000000000
VVIRTUALS{A2112{BR064{NUM{ANUAL{TIPPROF4{DIM6SET{795.000000000
VVIRTUALS{A2112{BR065{DEN{ANUAL{TIPPROF1{DIM6SET{137730.000000000
VVIRTUALS{A2112{BR065{DEN{ANUAL{TIPPROF4{DIM6SET{81903.000000000
VVIRTUALS{A2112{BR065{NUM{ANUAL{TIPPROF1{DIM6SET{5967.000000000
VVIRTUALS{A2112{BR065{NUM{ANUAL{TIPPROF4{DIM6SET{3460.000000000
VVIRTUALS{A2112{BR067{DEN{ANUAL{TIPPROF1{DIM6SET{111188.000000000
VVIRTUALS{A2112{BR067{DEN{ANUAL{TIPPROF4{DIM6SET{62650.000000000
VVIRTUALS{A2112{BR067{NUM{ANUAL{TIPPROF1{DIM6SET{13255.000000000
VVIRTUALS{A2112{BR067{NUM{ANUAL{TIPPROF4{DIM6SET{2496.000000000
VVIRTUALS{A2112{BR069{DEN{ANUAL{TIPPROF1{DIM6SET{74100.000000000
VVIRTUALS{A2112{BR069{DEN{ANUAL{TIPPROF4{DIM6SET{37559.000000000
VVIRTUALS{A2112{BR069{NUM{ANUAL{TIPPROF1{DIM6SET{2584.000000000
VVIRTUALS{A2112{BR069{NUM{ANUAL{TIPPROF4{DIM6SET{459.000000000
VVIRTUALS{A2112{BR070{DEN{ANUAL{TIPPROF1{DIM6SET{54640.000000000
VVIRTUALS{A2112{BR070{DEN{ANUAL{TIPPROF4{DIM6SET{22480.000000000
VVIRTUALS{A2112{BR070{NUM{ANUAL{TIPPROF1{DIM6SET{1371.000000000
VVIRTUALS{A2112{BR070{NUM{ANUAL{TIPPROF4{DIM6SET{170.000000000
VVIRTUALS{A2112{BR072{DEN{ANUAL{TIPPROF1{DIM6SET{96523.000000000
VVIRTUALS{A2112{BR072{DEN{ANUAL{TIPPROF4{DIM6SET{60317.000000000
VVIRTUALS{A2112{BR072{NUM{ANUAL{TIPPROF1{DIM6SET{5139.000000000
VVIRTUALS{A2112{BR072{NUM{ANUAL{TIPPROF4{DIM6SET{1829.000000000
VVIRTUALS{A2112{BR073{DEN{ANUAL{TIPPROF1{DIM6SET{83935.000000000
VVIRTUALS{A2112{BR073{DEN{ANUAL{TIPPROF4{DIM6SET{49034.000000000
VVIRTUALS{A2112{BR073{NUM{ANUAL{TIPPROF1{DIM6SET{2975.000000000
VVIRTUALS{A2112{BR073{NUM{ANUAL{TIPPROF4{DIM6SET{2037.000000000
VVIRTUALS{A2112{BR074{DEN{ANUAL{TIPPROF1{DIM6SET{98690.000000000
VVIRTUALS{A2112{BR074{DEN{ANUAL{TIPPROF4{DIM6SET{58671.000000000
VVIRTUALS{A2112{BR074{NUM{ANUAL{TIPPROF1{DIM6SET{3032.000000000
VVIRTUALS{A2112{BR074{NUM{ANUAL{TIPPROF4{DIM6SET{888.000000000
VVIRTUALS{A2112{BR075{DEN{ANUAL{TIPPROF1{DIM6SET{55449.000000000
VVIRTUALS{A2112{BR075{DEN{ANUAL{TIPPROF4{DIM6SET{34020.000000000
VVIRTUALS{A2112{BR075{NUM{ANUAL{TIPPROF1{DIM6SET{3648.000000000
VVIRTUALS{A2112{BR075{NUM{ANUAL{TIPPROF4{DIM6SET{1187.000000000
VVIRTUALS{A2112{BR076{DEN{ANUAL{TIPPROF1{DIM6SET{86281.000000000
VVIRTUALS{A2112{BR076{DEN{ANUAL{TIPPROF4{DIM6SET{51589.000000000
VVIRTUALS{A2112{BR076{NUM{ANUAL{TIPPROF1{DIM6SET{7180.000000000
VVIRTUALS{A2112{BR076{NUM{ANUAL{TIPPROF4{DIM6SET{1673.000000000
VVIRTUALS{A2112{BR077{DEN{ANUAL{TIPPROF1{DIM6SET{106172.000000000
VVIRTUALS{A2112{BR077{DEN{ANUAL{TIPPROF4{DIM6SET{58338.000000000
VVIRTUALS{A2112{BR077{NUM{ANUAL{TIPPROF1{DIM6SET{10682.000000000
VVIRTUALS{A2112{BR077{NUM{ANUAL{TIPPROF4{DIM6SET{1803.000000000
VVIRTUALS{A2112{BR078{DEN{ANUAL{TIPPROF1{DIM6SET{55023.000000000
VVIRTUALS{A2112{BR078{DEN{ANUAL{TIPPROF4{DIM6SET{32462.000000000
VVIRTUALS{A2112{BR078{NUM{ANUAL{TIPPROF1{DIM6SET{3672.000000000
VVIRTUALS{A2112{BR078{NUM{ANUAL{TIPPROF4{DIM6SET{1332.000000000
VVIRTUALS{A2112{BR079{DEN{ANUAL{TIPPROF1{DIM6SET{68693.000000000
VVIRTUALS{A2112{BR079{DEN{ANUAL{TIPPROF4{DIM6SET{50162.000000000
VVIRTUALS{A2112{BR079{NUM{ANUAL{TIPPROF1{DIM6SET{1922.000000000
VVIRTUALS{A2112{BR079{NUM{ANUAL{TIPPROF4{DIM6SET{676.000000000
VVIRTUALS{A2112{BR080{DEN{ANUAL{TIPPROF1{DIM6SET{19185.000000000
VVIRTUALS{A2112{BR080{DEN{ANUAL{TIPPROF4{DIM6SET{17559.000000000
VVIRTUALS{A2112{BR080{NUM{ANUAL{TIPPROF1{DIM6SET{587.000000000
VVIRTUALS{A2112{BR080{NUM{ANUAL{TIPPROF4{DIM6SET{50.000000000
VVIRTUALS{A2112{BR081{DEN{ANUAL{TIPPROF1{DIM6SET{35372.000000000
VVIRTUALS{A2112{BR081{DEN{ANUAL{TIPPROF4{DIM6SET{29499.000000000
VVIRTUALS{A2112{BR081{NUM{ANUAL{TIPPROF1{DIM6SET{1185.000000000
VVIRTUALS{A2112{BR081{NUM{ANUAL{TIPPROF4{DIM6SET{167.000000000
VVIRTUALS{A2112{BR082{DEN{ANUAL{TIPPROF1{DIM6SET{81866.000000000
VVIRTUALS{A2112{BR082{DEN{ANUAL{TIPPROF4{DIM6SET{67525.000000000
VVIRTUALS{A2112{BR082{NUM{ANUAL{TIPPROF1{DIM6SET{1995.000000000
VVIRTUALS{A2112{BR082{NUM{ANUAL{TIPPROF4{DIM6SET{518.000000000
VVIRTUALS{A2112{BR083{DEN{ANUAL{TIPPROF1{DIM6SET{24781.000000000
VVIRTUALS{A2112{BR083{DEN{ANUAL{TIPPROF4{DIM6SET{18713.000000000
VVIRTUALS{A2112{BR083{NUM{ANUAL{TIPPROF1{DIM6SET{360.000000000
VVIRTUALS{A2112{BR083{NUM{ANUAL{TIPPROF4{DIM6SET{43.000000000
VVIRTUALS{A2112{BR085{DEN{ANUAL{TIPPROF1{DIM6SET{161476.000000000
VVIRTUALS{A2112{BR085{DEN{ANUAL{TIPPROF4{DIM6SET{108260.000000000
VVIRTUALS{A2112{BR085{NUM{ANUAL{TIPPROF1{DIM6SET{3396.000000000
VVIRTUALS{A2112{BR085{NUM{ANUAL{TIPPROF4{DIM6SET{1798.000000000
VVIRTUALS{A2112{BR086{DEN{ANUAL{TIPPROF1{DIM6SET{72497.000000000
VVIRTUALS{A2112{BR086{DEN{ANUAL{TIPPROF4{DIM6SET{53529.000000000
VVIRTUALS{A2112{BR086{NUM{ANUAL{TIPPROF1{DIM6SET{3768.000000000
VVIRTUALS{A2112{BR086{NUM{ANUAL{TIPPROF4{DIM6SET{278.000000000
VVIRTUALS{A2112{BR087{DEN{ANUAL{TIPPROF1{DIM6SET{32214.000000000
VVIRTUALS{A2112{BR087{DEN{ANUAL{TIPPROF4{DIM6SET{17018.000000000
VVIRTUALS{A2112{BR087{NUM{ANUAL{TIPPROF1{DIM6SET{1528.000000000
VVIRTUALS{A2112{BR087{NUM{ANUAL{TIPPROF4{DIM6SET{277.000000000
VVIRTUALS{A2112{BR088{DEN{ANUAL{TIPPROF1{DIM6SET{16535.000000000
VVIRTUALS{A2112{BR088{DEN{ANUAL{TIPPROF4{DIM6SET{18493.000000000
VVIRTUALS{A2112{BR088{NUM{ANUAL{TIPPROF1{DIM6SET{318.000000000
VVIRTUALS{A2112{BR088{NUM{ANUAL{TIPPROF4{DIM6SET{113.000000000
VVIRTUALS{A2112{BR089{DEN{ANUAL{TIPPROF1{DIM6SET{91934.000000000
VVIRTUALS{A2112{BR089{DEN{ANUAL{TIPPROF4{DIM6SET{81359.000000000
VVIRTUALS{A2112{BR089{NUM{ANUAL{TIPPROF1{DIM6SET{6320.000000000
VVIRTUALS{A2112{BR089{NUM{ANUAL{TIPPROF4{DIM6SET{1981.000000000
VVIRTUALS{A2112{BR092{DEN{ANUAL{TIPPROF1{DIM6SET{15295.000000000
VVIRTUALS{A2112{BR092{DEN{ANUAL{TIPPROF4{DIM6SET{12943.000000000
VVIRTUALS{A2112{BR092{NUM{ANUAL{TIPPROF1{DIM6SET{322.000000000
VVIRTUALS{A2112{BR092{NUM{ANUAL{TIPPROF4{DIM6SET{72.000000000
VVIRTUALS{A2112{BR093{DEN{ANUAL{TIPPROF1{DIM6SET{87198.000000000
VVIRTUALS{A2112{BR093{DEN{ANUAL{TIPPROF4{DIM6SET{83844.000000000
VVIRTUALS{A2112{BR093{NUM{ANUAL{TIPPROF1{DIM6SET{5613.000000000
VVIRTUALS{A2112{BR093{NUM{ANUAL{TIPPROF4{DIM6SET{931.000000000
VVIRTUALS{A2112{BR095{DEN{ANUAL{TIPPROF1{DIM6SET{72320.000000000
VVIRTUALS{A2112{BR095{DEN{ANUAL{TIPPROF4{DIM6SET{80558.000000000
VVIRTUALS{A2112{BR095{NUM{ANUAL{TIPPROF1{DIM6SET{2312.000000000
VVIRTUALS{A2112{BR095{NUM{ANUAL{TIPPROF4{DIM6SET{571.000000000
VVIRTUALS{A2112{BR096{DEN{ANUAL{TIPPROF1{DIM6SET{17928.000000000
VVIRTUALS{A2112{BR096{DEN{ANUAL{TIPPROF4{DIM6SET{17925.000000000
VVIRTUALS{A2112{BR096{NUM{ANUAL{TIPPROF1{DIM6SET{1230.000000000
VVIRTUALS{A2112{BR096{NUM{ANUAL{TIPPROF4{DIM6SET{168.000000000
VVIRTUALS{A2112{BR097{DEN{ANUAL{TIPPROF1{DIM6SET{100075.000000000
VVIRTUALS{A2112{BR097{DEN{ANUAL{TIPPROF4{DIM6SET{72278.000000000
VVIRTUALS{A2112{BR097{NUM{ANUAL{TIPPROF1{DIM6SET{3850.000000000
VVIRTUALS{A2112{BR097{NUM{ANUAL{TIPPROF4{DIM6SET{878.000000000
VVIRTUALS{A2112{BR098{DEN{ANUAL{TIPPROF1{DIM6SET{48313.000000000
VVIRTUALS{A2112{BR098{DEN{ANUAL{TIPPROF4{DIM6SET{39121.000000000
VVIRTUALS{A2112{BR098{NUM{ANUAL{TIPPROF1{DIM6SET{2071.000000000
VVIRTUALS{A2112{BR098{NUM{ANUAL{TIPPROF4{DIM6SET{400.000000000
VVIRTUALS{A2112{BR101{DEN{ANUAL{TIPPROF1{DIM6SET{38740.000000000
VVIRTUALS{A2112{BR101{DEN{ANUAL{TIPPROF4{DIM6SET{27141.000000000
VVIRTUALS{A2112{BR101{NUM{ANUAL{TIPPROF1{DIM6SET{1457.000000000
VVIRTUALS{A2112{BR101{NUM{ANUAL{TIPPROF4{DIM6SET{239.000000000
VVIRTUALS{A2112{BR104{DEN{ANUAL{TIPPROF1{DIM6SET{121421.000000000
VVIRTUALS{A2112{BR104{DEN{ANUAL{TIPPROF4{DIM6SET{64963.000000000
VVIRTUALS{A2112{BR104{NUM{ANUAL{TIPPROF1{DIM6SET{3383.000000000
VVIRTUALS{A2112{BR104{NUM{ANUAL{TIPPROF4{DIM6SET{851.000000000
VVIRTUALS{A2112{BR105{DEN{ANUAL{TIPPROF1{DIM6SET{94284.000000000
VVIRTUALS{A2112{BR105{DEN{ANUAL{TIPPROF4{DIM6SET{59914.000000000
VVIRTUALS{A2112{BR105{NUM{ANUAL{TIPPROF1{DIM6SET{3517.000000000
VVIRTUALS{A2112{BR105{NUM{ANUAL{TIPPROF4{DIM6SET{1738.000000000
VVIRTUALS{A2112{BR106{DEN{ANUAL{TIPPROF1{DIM6SET{72983.000000000
VVIRTUALS{A2112{BR106{DEN{ANUAL{TIPPROF4{DIM6SET{87364.000000000
VVIRTUALS{A2112{BR106{NUM{ANUAL{TIPPROF1{DIM6SET{1799.000000000
VVIRTUALS{A2112{BR106{NUM{ANUAL{TIPPROF4{DIM6SET{725.000000000
VVIRTUALS{A2112{BR107{DEN{ANUAL{TIPPROF1{DIM6SET{30425.000000000
VVIRTUALS{A2112{BR107{DEN{ANUAL{TIPPROF4{DIM6SET{20485.000000000
VVIRTUALS{A2112{BR107{NUM{ANUAL{TIPPROF1{DIM6SET{1394.000000000
VVIRTUALS{A2112{BR107{NUM{ANUAL{TIPPROF4{DIM6SET{263.000000000
VVIRTUALS{A2112{BR108{DEN{ANUAL{TIPPROF1{DIM6SET{110209.000000000
VVIRTUALS{A2112{BR108{DEN{ANUAL{TIPPROF4{DIM6SET{57958.000000000
VVIRTUALS{A2112{BR108{NUM{ANUAL{TIPPROF1{DIM6SET{8491.000000000
VVIRTUALS{A2112{BR108{NUM{ANUAL{TIPPROF4{DIM6SET{980.000000000
VVIRTUALS{A2112{BR109{DEN{ANUAL{TIPPROF1{DIM6SET{92742.000000000
VVIRTUALS{A2112{BR109{DEN{ANUAL{TIPPROF4{DIM6SET{49580.000000000
VVIRTUALS{A2112{BR109{NUM{ANUAL{TIPPROF1{DIM6SET{2529.000000000
VVIRTUALS{A2112{BR109{NUM{ANUAL{TIPPROF4{DIM6SET{1195.000000000
VVIRTUALS{A2112{BR110{DEN{ANUAL{TIPPROF1{DIM6SET{48514.000000000
VVIRTUALS{A2112{BR110{DEN{ANUAL{TIPPROF4{DIM6SET{35724.000000000
VVIRTUALS{A2112{BR110{NUM{ANUAL{TIPPROF1{DIM6SET{2003.000000000
VVIRTUALS{A2112{BR110{NUM{ANUAL{TIPPROF4{DIM6SET{650.000000000
VVIRTUALS{A2112{BR111{DEN{ANUAL{TIPPROF1{DIM6SET{64877.000000000
VVIRTUALS{A2112{BR111{DEN{ANUAL{TIPPROF4{DIM6SET{38062.000000000
VVIRTUALS{A2112{BR111{NUM{ANUAL{TIPPROF1{DIM6SET{1489.000000000
VVIRTUALS{A2112{BR111{NUM{ANUAL{TIPPROF4{DIM6SET{1053.000000000
VVIRTUALS{A2112{BR112{DEN{ANUAL{TIPPROF1{DIM6SET{12129.000000000
VVIRTUALS{A2112{BR112{DEN{ANUAL{TIPPROF4{DIM6SET{9633.000000000
VVIRTUALS{A2112{BR112{NUM{ANUAL{TIPPROF1{DIM6SET{552.000000000
VVIRTUALS{A2112{BR112{NUM{ANUAL{TIPPROF4{DIM6SET{130.000000000
VVIRTUALS{A2112{BR113{DEN{ANUAL{TIPPROF1{DIM6SET{73524.000000000
VVIRTUALS{A2112{BR113{DEN{ANUAL{TIPPROF4{DIM6SET{37912.000000000
VVIRTUALS{A2112{BR113{NUM{ANUAL{TIPPROF1{DIM6SET{948.000000000
VVIRTUALS{A2112{BR113{NUM{ANUAL{TIPPROF4{DIM6SET{173.000000000
VVIRTUALS{A2112{BR115{DEN{ANUAL{TIPPROF1{DIM6SET{87564.000000000
VVIRTUALS{A2112{BR115{DEN{ANUAL{TIPPROF4{DIM6SET{46640.000000000
VVIRTUALS{A2112{BR115{NUM{ANUAL{TIPPROF1{DIM6SET{3127.000000000
VVIRTUALS{A2112{BR115{NUM{ANUAL{TIPPROF4{DIM6SET{1925.000000000
VVIRTUALS{A2112{BR116{DEN{ANUAL{TIPPROF1{DIM6SET{70317.000000000
VVIRTUALS{A2112{BR116{DEN{ANUAL{TIPPROF4{DIM6SET{42434.000000000
VVIRTUALS{A2112{BR116{NUM{ANUAL{TIPPROF1{DIM6SET{3229.000000000
VVIRTUALS{A2112{BR116{NUM{ANUAL{TIPPROF4{DIM6SET{1514.000000000
VVIRTUALS{A2112{BR117{DEN{ANUAL{TIPPROF1{DIM6SET{113060.000000000
VVIRTUALS{A2112{BR117{DEN{ANUAL{TIPPROF4{DIM6SET{61436.000000000
VVIRTUALS{A2112{BR117{NUM{ANUAL{TIPPROF1{DIM6SET{9291.000000000
VVIRTUALS{A2112{BR117{NUM{ANUAL{TIPPROF4{DIM6SET{2452.000000000
VVIRTUALS{A2112{BR118{DEN{ANUAL{TIPPROF1{DIM6SET{40967.000000000
VVIRTUALS{A2112{BR118{DEN{ANUAL{TIPPROF4{DIM6SET{22714.000000000
VVIRTUALS{A2112{BR118{NUM{ANUAL{TIPPROF1{DIM6SET{1183.000000000
VVIRTUALS{A2112{BR118{NUM{ANUAL{TIPPROF4{DIM6SET{127.000000000
VVIRTUALS{A2112{BR119{DEN{ANUAL{TIPPROF1{DIM6SET{136557.000000000
VVIRTUALS{A2112{BR119{DEN{ANUAL{TIPPROF4{DIM6SET{142489.000000000
VVIRTUALS{A2112{BR119{NUM{ANUAL{TIPPROF1{DIM6SET{3294.000000000
VVIRTUALS{A2112{BR119{NUM{ANUAL{TIPPROF4{DIM6SET{3317.000000000
VVIRTUALS{A2112{BR120{DEN{ANUAL{TIPPROF1{DIM6SET{45297.000000000
VVIRTUALS{A2112{BR120{DEN{ANUAL{TIPPROF4{DIM6SET{28735.000000000
VVIRTUALS{A2112{BR120{NUM{ANUAL{TIPPROF1{DIM6SET{1424.000000000
VVIRTUALS{A2112{BR120{NUM{ANUAL{TIPPROF4{DIM6SET{147.000000000
VVIRTUALS{A2112{BR121{DEN{ANUAL{TIPPROF1{DIM6SET{98204.000000000
VVIRTUALS{A2112{BR121{DEN{ANUAL{TIPPROF4{DIM6SET{69206.000000000
VVIRTUALS{A2112{BR121{NUM{ANUAL{TIPPROF1{DIM6SET{3709.000000000
VVIRTUALS{A2112{BR121{NUM{ANUAL{TIPPROF4{DIM6SET{1141.000000000
VVIRTUALS{A2112{BR122{DEN{ANUAL{TIPPROF1{DIM6SET{76382.000000000
VVIRTUALS{A2112{BR122{DEN{ANUAL{TIPPROF4{DIM6SET{51399.000000000
VVIRTUALS{A2112{BR122{NUM{ANUAL{TIPPROF1{DIM6SET{1331.000000000
VVIRTUALS{A2112{BR122{NUM{ANUAL{TIPPROF4{DIM6SET{271.000000000
VVIRTUALS{A2112{BR123{DEN{ANUAL{TIPPROF1{DIM6SET{87010.000000000
VVIRTUALS{A2112{BR123{DEN{ANUAL{TIPPROF4{DIM6SET{54323.000000000
VVIRTUALS{A2112{BR123{NUM{ANUAL{TIPPROF1{DIM6SET{632.000000000
VVIRTUALS{A2112{BR123{NUM{ANUAL{TIPPROF4{DIM6SET{544.000000000
VVIRTUALS{A2112{BR124{DEN{ANUAL{TIPPROF1{DIM6SET{67637.000000000
VVIRTUALS{A2112{BR124{DEN{ANUAL{TIPPROF4{DIM6SET{67092.000000000
VVIRTUALS{A2112{BR124{NUM{ANUAL{TIPPROF1{DIM6SET{4355.000000000
VVIRTUALS{A2112{BR124{NUM{ANUAL{TIPPROF4{DIM6SET{2251.000000000
VVIRTUALS{A2112{BR125{DEN{ANUAL{TIPPROF1{DIM6SET{105261.000000000
VVIRTUALS{A2112{BR125{DEN{ANUAL{TIPPROF4{DIM6SET{91730.000000000
VVIRTUALS{A2112{BR125{NUM{ANUAL{TIPPROF1{DIM6SET{4053.000000000
VVIRTUALS{A2112{BR125{NUM{ANUAL{TIPPROF4{DIM6SET{1270.000000000
VVIRTUALS{A2112{BR126{DEN{ANUAL{TIPPROF1{DIM6SET{126788.000000000
VVIRTUALS{A2112{BR126{DEN{ANUAL{TIPPROF4{DIM6SET{111795.000000000
VVIRTUALS{A2112{BR126{NUM{ANUAL{TIPPROF1{DIM6SET{8806.000000000
VVIRTUALS{A2112{BR126{NUM{ANUAL{TIPPROF4{DIM6SET{2064.000000000
VVIRTUALS{A2112{BR127{DEN{ANUAL{TIPPROF1{DIM6SET{73326.000000000
VVIRTUALS{A2112{BR127{DEN{ANUAL{TIPPROF4{DIM6SET{54540.000000000
VVIRTUALS{A2112{BR127{NUM{ANUAL{TIPPROF1{DIM6SET{4649.000000000
VVIRTUALS{A2112{BR127{NUM{ANUAL{TIPPROF4{DIM6SET{685.000000000
VVIRTUALS{A2112{BR128{DEN{ANUAL{TIPPROF1{DIM6SET{61035.000000000
VVIRTUALS{A2112{BR128{DEN{ANUAL{TIPPROF4{DIM6SET{52837.000000000
VVIRTUALS{A2112{BR128{NUM{ANUAL{TIPPROF1{DIM6SET{2977.000000000
VVIRTUALS{A2112{BR128{NUM{ANUAL{TIPPROF4{DIM6SET{393.000000000
VVIRTUALS{A2112{BR129{DEN{ANUAL{TIPPROF1{DIM6SET{14338.000000000
VVIRTUALS{A2112{BR129{DEN{ANUAL{TIPPROF4{DIM6SET{13008.000000000
VVIRTUALS{A2112{BR129{NUM{ANUAL{TIPPROF1{DIM6SET{95.000000000
VVIRTUALS{A2112{BR129{NUM{ANUAL{TIPPROF4{DIM6SET{14.000000000
VVIRTUALS{A2112{BR130{DEN{ANUAL{TIPPROF1{DIM6SET{22603.000000000
VVIRTUALS{A2112{BR130{DEN{ANUAL{TIPPROF4{DIM6SET{21882.000000000
VVIRTUALS{A2112{BR130{NUM{ANUAL{TIPPROF1{DIM6SET{255.000000000
VVIRTUALS{A2112{BR130{NUM{ANUAL{TIPPROF4{DIM6SET{30.000000000
VVIRTUALS{A2112{BR131{DEN{ANUAL{TIPPROF1{DIM6SET{35810.000000000
VVIRTUALS{A2112{BR131{DEN{ANUAL{TIPPROF4{DIM6SET{24109.000000000
VVIRTUALS{A2112{BR131{NUM{ANUAL{TIPPROF1{DIM6SET{2574.000000000
VVIRTUALS{A2112{BR131{NUM{ANUAL{TIPPROF4{DIM6SET{652.000000000
VVIRTUALS{A2112{BR132{DEN{ANUAL{TIPPROF1{DIM6SET{71041.000000000
VVIRTUALS{A2112{BR132{DEN{ANUAL{TIPPROF4{DIM6SET{62912.000000000
VVIRTUALS{A2112{BR132{NUM{ANUAL{TIPPROF1{DIM6SET{1146.000000000
VVIRTUALS{A2112{BR132{NUM{ANUAL{TIPPROF4{DIM6SET{851.000000000
VVIRTUALS{A2112{BR133{DEN{ANUAL{TIPPROF1{DIM6SET{26601.000000000
VVIRTUALS{A2112{BR133{DEN{ANUAL{TIPPROF4{DIM6SET{23782.000000000
VVIRTUALS{A2112{BR133{NUM{ANUAL{TIPPROF1{DIM6SET{472.000000000
VVIRTUALS{A2112{BR133{NUM{ANUAL{TIPPROF4{DIM6SET{43.000000000
VVIRTUALS{A2112{BR134{DEN{ANUAL{TIPPROF1{DIM6SET{28466.000000000
VVIRTUALS{A2112{BR134{DEN{ANUAL{TIPPROF4{DIM6SET{24865.000000000
VVIRTUALS{A2112{BR134{NUM{ANUAL{TIPPROF1{DIM6SET{349.000000000
VVIRTUALS{A2112{BR134{NUM{ANUAL{TIPPROF4{DIM6SET{70.000000000
VVIRTUALS{A2112{BR135{DEN{ANUAL{TIPPROF1{DIM6SET{65445.000000000
VVIRTUALS{A2112{BR135{DEN{ANUAL{TIPPROF4{DIM6SET{56261.000000000
VVIRTUALS{A2112{BR135{NUM{ANUAL{TIPPROF1{DIM6SET{1452.000000000
VVIRTUALS{A2112{BR135{NUM{ANUAL{TIPPROF4{DIM6SET{497.000000000
VVIRTUALS{A2112{BR136{DEN{ANUAL{TIPPROF1{DIM6SET{88864.000000000
VVIRTUALS{A2112{BR136{DEN{ANUAL{TIPPROF4{DIM6SET{95162.000000000
VVIRTUALS{A2112{BR136{NUM{ANUAL{TIPPROF1{DIM6SET{4159.000000000
VVIRTUALS{A2112{BR136{NUM{ANUAL{TIPPROF4{DIM6SET{1669.000000000
VVIRTUALS{A2112{BR137{DEN{ANUAL{TIPPROF1{DIM6SET{95215.000000000
VVIRTUALS{A2112{BR137{DEN{ANUAL{TIPPROF4{DIM6SET{77106.000000000
VVIRTUALS{A2112{BR137{NUM{ANUAL{TIPPROF1{DIM6SET{9228.000000000
VVIRTUALS{A2112{BR137{NUM{ANUAL{TIPPROF4{DIM6SET{2154.000000000
VVIRTUALS{A2112{BR138{DEN{ANUAL{TIPPROF1{DIM6SET{97291.000000000
VVIRTUALS{A2112{BR138{DEN{ANUAL{TIPPROF4{DIM6SET{90735.000000000
VVIRTUALS{A2112{BR138{NUM{ANUAL{TIPPROF1{DIM6SET{5585.000000000
VVIRTUALS{A2112{BR138{NUM{ANUAL{TIPPROF4{DIM6SET{1493.000000000
VVIRTUALS{A2112{BR139{DEN{ANUAL{TIPPROF1{DIM6SET{50972.000000000
VVIRTUALS{A2112{BR139{DEN{ANUAL{TIPPROF4{DIM6SET{57321.000000000
VVIRTUALS{A2112{BR139{NUM{ANUAL{TIPPROF1{DIM6SET{1035.000000000
VVIRTUALS{A2112{BR139{NUM{ANUAL{TIPPROF4{DIM6SET{1064.000000000
VVIRTUALS{A2112{BR140{DEN{ANUAL{TIPPROF1{DIM6SET{58778.000000000
VVIRTUALS{A2112{BR140{DEN{ANUAL{TIPPROF4{DIM6SET{50032.000000000
VVIRTUALS{A2112{BR140{NUM{ANUAL{TIPPROF1{DIM6SET{1641.000000000
VVIRTUALS{A2112{BR140{NUM{ANUAL{TIPPROF4{DIM6SET{344.000000000
VVIRTUALS{A2112{BR144{DEN{ANUAL{TIPPROF1{DIM6SET{78945.000000000
VVIRTUALS{A2112{BR144{DEN{ANUAL{TIPPROF4{DIM6SET{55426.000000000
VVIRTUALS{A2112{BR144{NUM{ANUAL{TIPPROF1{DIM6SET{1040.000000000
VVIRTUALS{A2112{BR144{NUM{ANUAL{TIPPROF4{DIM6SET{475.000000000
VVIRTUALS{A2112{BR146{DEN{ANUAL{TIPPROF1{DIM6SET{83092.000000000
VVIRTUALS{A2112{BR146{DEN{ANUAL{TIPPROF4{DIM6SET{67232.000000000
VVIRTUALS{A2112{BR146{NUM{ANUAL{TIPPROF1{DIM6SET{7614.000000000
VVIRTUALS{A2112{BR146{NUM{ANUAL{TIPPROF4{DIM6SET{3275.000000000
VVIRTUALS{A2112{BR148{DEN{ANUAL{TIPPROF1{DIM6SET{101227.000000000
VVIRTUALS{A2112{BR148{DEN{ANUAL{TIPPROF4{DIM6SET{67744.000000000
VVIRTUALS{A2112{BR148{NUM{ANUAL{TIPPROF1{DIM6SET{8602.000000000
VVIRTUALS{A2112{BR148{NUM{ANUAL{TIPPROF4{DIM6SET{1867.000000000
VVIRTUALS{A2112{BR149{DEN{ANUAL{TIPPROF1{DIM6SET{111278.000000000
VVIRTUALS{A2112{BR149{DEN{ANUAL{TIPPROF4{DIM6SET{47374.000000000
VVIRTUALS{A2112{BR149{NUM{ANUAL{TIPPROF1{DIM6SET{5465.000000000
VVIRTUALS{A2112{BR149{NUM{ANUAL{TIPPROF4{DIM6SET{1613.000000000
VVIRTUALS{A2112{BR150{DEN{ANUAL{TIPPROF1{DIM6SET{65995.000000000
VVIRTUALS{A2112{BR150{DEN{ANUAL{TIPPROF4{DIM6SET{48253.000000000
VVIRTUALS{A2112{BR150{NUM{ANUAL{TIPPROF1{DIM6SET{2980.000000000
VVIRTUALS{A2112{BR150{NUM{ANUAL{TIPPROF4{DIM6SET{375.000000000
VVIRTUALS{A2112{BR151{DEN{ANUAL{TIPPROF1{DIM6SET{92110.000000000
VVIRTUALS{A2112{BR151{DEN{ANUAL{TIPPROF4{DIM6SET{67270.000000000
VVIRTUALS{A2112{BR151{NUM{ANUAL{TIPPROF1{DIM6SET{9680.000000000
VVIRTUALS{A2112{BR151{NUM{ANUAL{TIPPROF4{DIM6SET{2958.000000000
VVIRTUALS{A2112{BR152{DEN{ANUAL{TIPPROF1{DIM6SET{60622.000000000
VVIRTUALS{A2112{BR152{DEN{ANUAL{TIPPROF4{DIM6SET{37972.000000000
VVIRTUALS{A2112{BR152{NUM{ANUAL{TIPPROF1{DIM6SET{3306.000000000
VVIRTUALS{A2112{BR152{NUM{ANUAL{TIPPROF4{DIM6SET{896.000000000
VVIRTUALS{A2112{BR154{DEN{ANUAL{TIPPROF1{DIM6SET{63609.000000000
VVIRTUALS{A2112{BR154{DEN{ANUAL{TIPPROF4{DIM6SET{51959.000000000
VVIRTUALS{A2112{BR154{NUM{ANUAL{TIPPROF1{DIM6SET{2278.000000000
VVIRTUALS{A2112{BR154{NUM{ANUAL{TIPPROF4{DIM6SET{468.000000000
VVIRTUALS{A2112{BR156{DEN{ANUAL{TIPPROF1{DIM6SET{81188.000000000
VVIRTUALS{A2112{BR156{DEN{ANUAL{TIPPROF4{DIM6SET{48660.000000000
VVIRTUALS{A2112{BR156{NUM{ANUAL{TIPPROF1{DIM6SET{1403.000000000
VVIRTUALS{A2112{BR156{NUM{ANUAL{TIPPROF4{DIM6SET{217.000000000
VVIRTUALS{A2112{BR157{DEN{ANUAL{TIPPROF1{DIM6SET{58519.000000000
VVIRTUALS{A2112{BR157{DEN{ANUAL{TIPPROF4{DIM6SET{38477.000000000
VVIRTUALS{A2112{BR157{NUM{ANUAL{TIPPROF1{DIM6SET{1059.000000000
VVIRTUALS{A2112{BR157{NUM{ANUAL{TIPPROF4{DIM6SET{1072.000000000
VVIRTUALS{A2112{BR158{DEN{ANUAL{TIPPROF1{DIM6SET{70648.000000000
VVIRTUALS{A2112{BR158{DEN{ANUAL{TIPPROF4{DIM6SET{52972.000000000
VVIRTUALS{A2112{BR158{NUM{ANUAL{TIPPROF1{DIM6SET{2501.000000000
VVIRTUALS{A2112{BR158{NUM{ANUAL{TIPPROF4{DIM6SET{711.000000000
VVIRTUALS{A2112{BR159{DEN{ANUAL{TIPPROF1{DIM6SET{41822.000000000
VVIRTUALS{A2112{BR159{DEN{ANUAL{TIPPROF4{DIM6SET{30075.000000000
VVIRTUALS{A2112{BR159{NUM{ANUAL{TIPPROF1{DIM6SET{1517.000000000
VVIRTUALS{A2112{BR159{NUM{ANUAL{TIPPROF4{DIM6SET{325.000000000
VVIRTUALS{A2112{BR160{DEN{ANUAL{TIPPROF1{DIM6SET{107708.000000000
VVIRTUALS{A2112{BR160{DEN{ANUAL{TIPPROF4{DIM6SET{42429.000000000
VVIRTUALS{A2112{BR160{NUM{ANUAL{TIPPROF1{DIM6SET{12176.000000000
VVIRTUALS{A2112{BR160{NUM{ANUAL{TIPPROF4{DIM6SET{1541.000000000
VVIRTUALS{A2112{BR161{DEN{ANUAL{TIPPROF1{DIM6SET{144953.000000000
VVIRTUALS{A2112{BR161{DEN{ANUAL{TIPPROF4{DIM6SET{136053.000000000
VVIRTUALS{A2112{BR161{NUM{ANUAL{TIPPROF1{DIM6SET{7330.000000000
VVIRTUALS{A2112{BR161{NUM{ANUAL{TIPPROF4{DIM6SET{1713.000000000
VVIRTUALS{A2112{BR162{DEN{ANUAL{TIPPROF1{DIM6SET{77975.000000000
VVIRTUALS{A2112{BR162{DEN{ANUAL{TIPPROF4{DIM6SET{49969.000000000
VVIRTUALS{A2112{BR162{NUM{ANUAL{TIPPROF1{DIM6SET{2850.000000000
VVIRTUALS{A2112{BR162{NUM{ANUAL{TIPPROF4{DIM6SET{273.000000000
VVIRTUALS{A2112{BR163{DEN{ANUAL{TIPPROF1{DIM6SET{54098.000000000
VVIRTUALS{A2112{BR163{DEN{ANUAL{TIPPROF4{DIM6SET{38258.000000000
VVIRTUALS{A2112{BR163{NUM{ANUAL{TIPPROF1{DIM6SET{2638.000000000
VVIRTUALS{A2112{BR163{NUM{ANUAL{TIPPROF4{DIM6SET{604.000000000
VVIRTUALS{A2112{BR164{DEN{ANUAL{TIPPROF1{DIM6SET{128519.000000000
VVIRTUALS{A2112{BR164{DEN{ANUAL{TIPPROF4{DIM6SET{107762.000000000
VVIRTUALS{A2112{BR164{NUM{ANUAL{TIPPROF1{DIM6SET{5254.000000000
VVIRTUALS{A2112{BR164{NUM{ANUAL{TIPPROF4{DIM6SET{1220.000000000
VVIRTUALS{A2112{BR165{DEN{ANUAL{TIPPROF1{DIM6SET{69804.000000000
VVIRTUALS{A2112{BR165{DEN{ANUAL{TIPPROF4{DIM6SET{45372.000000000
VVIRTUALS{A2112{BR165{NUM{ANUAL{TIPPROF1{DIM6SET{2650.000000000
VVIRTUALS{A2112{BR165{NUM{ANUAL{TIPPROF4{DIM6SET{408.000000000
VVIRTUALS{A2112{BR166{DEN{ANUAL{TIPPROF1{DIM6SET{48439.000000000
VVIRTUALS{A2112{BR166{DEN{ANUAL{TIPPROF4{DIM6SET{31613.000000000
VVIRTUALS{A2112{BR166{NUM{ANUAL{TIPPROF1{DIM6SET{1794.000000000
VVIRTUALS{A2112{BR166{NUM{ANUAL{TIPPROF4{DIM6SET{599.000000000
VVIRTUALS{A2112{BR167{DEN{ANUAL{TIPPROF1{DIM6SET{37520.000000000
VVIRTUALS{A2112{BR167{DEN{ANUAL{TIPPROF4{DIM6SET{37694.000000000
VVIRTUALS{A2112{BR167{NUM{ANUAL{TIPPROF1{DIM6SET{1921.000000000
VVIRTUALS{A2112{BR167{NUM{ANUAL{TIPPROF4{DIM6SET{753.000000000
VVIRTUALS{A2112{BR169{DEN{ANUAL{TIPPROF1{DIM6SET{25147.000000000
VVIRTUALS{A2112{BR169{DEN{ANUAL{TIPPROF4{DIM6SET{13273.000000000
VVIRTUALS{A2112{BR169{NUM{ANUAL{TIPPROF1{DIM6SET{488.000000000
VVIRTUALS{A2112{BR169{NUM{ANUAL{TIPPROF4{DIM6SET{70.000000000
VVIRTUALS{A2112{BR171{DEN{ANUAL{TIPPROF1{DIM6SET{148029.000000000
VVIRTUALS{A2112{BR171{DEN{ANUAL{TIPPROF4{DIM6SET{131112.000000000
VVIRTUALS{A2112{BR171{NUM{ANUAL{TIPPROF1{DIM6SET{9065.000000000
VVIRTUALS{A2112{BR171{NUM{ANUAL{TIPPROF4{DIM6SET{2462.000000000
VVIRTUALS{A2112{BR174{DEN{ANUAL{TIPPROF1{DIM6SET{32378.000000000
VVIRTUALS{A2112{BR174{DEN{ANUAL{TIPPROF4{DIM6SET{21851.000000000
VVIRTUALS{A2112{BR174{NUM{ANUAL{TIPPROF1{DIM6SET{436.000000000
VVIRTUALS{A2112{BR174{NUM{ANUAL{TIPPROF4{DIM6SET{51.000000000
VVIRTUALS{A2112{BR175{DEN{ANUAL{TIPPROF1{DIM6SET{70480.000000000
VVIRTUALS{A2112{BR175{DEN{ANUAL{TIPPROF4{DIM6SET{50074.000000000
VVIRTUALS{A2112{BR175{NUM{ANUAL{TIPPROF1{DIM6SET{1722.000000000
VVIRTUALS{A2112{BR175{NUM{ANUAL{TIPPROF4{DIM6SET{1198.000000000
VVIRTUALS{A2112{BR176{DEN{ANUAL{TIPPROF1{DIM6SET{126392.000000000
VVIRTUALS{A2112{BR176{DEN{ANUAL{TIPPROF4{DIM6SET{78563.000000000
VVIRTUALS{A2112{BR176{NUM{ANUAL{TIPPROF1{DIM6SET{3321.000000000
VVIRTUALS{A2112{BR176{NUM{ANUAL{TIPPROF4{DIM6SET{925.000000000
VVIRTUALS{A2112{BR178{DEN{ANUAL{TIPPROF1{DIM6SET{41762.000000000
VVIRTUALS{A2112{BR178{DEN{ANUAL{TIPPROF4{DIM6SET{26575.000000000
VVIRTUALS{A2112{BR178{NUM{ANUAL{TIPPROF1{DIM6SET{2462.000000000
VVIRTUALS{A2112{BR178{NUM{ANUAL{TIPPROF4{DIM6SET{303.000000000
VVIRTUALS{A2112{BR179{DEN{ANUAL{TIPPROF1{DIM6SET{24862.000000000
VVIRTUALS{A2112{BR179{DEN{ANUAL{TIPPROF4{DIM6SET{23946.000000000
VVIRTUALS{A2112{BR179{NUM{ANUAL{TIPPROF1{DIM6SET{630.000000000
VVIRTUALS{A2112{BR179{NUM{ANUAL{TIPPROF4{DIM6SET{129.000000000
VVIRTUALS{A2112{BR180{DEN{ANUAL{TIPPROF1{DIM6SET{17367.000000000
VVIRTUALS{A2112{BR180{DEN{ANUAL{TIPPROF4{DIM6SET{15001.000000000
VVIRTUALS{A2112{BR180{NUM{ANUAL{TIPPROF1{DIM6SET{111.000000000
VVIRTUALS{A2112{BR180{NUM{ANUAL{TIPPROF4{DIM6SET{15.000000000
VVIRTUALS{A2112{BR181{DEN{ANUAL{TIPPROF1{DIM6SET{16274.000000000
VVIRTUALS{A2112{BR181{DEN{ANUAL{TIPPROF4{DIM6SET{14931.000000000
VVIRTUALS{A2112{BR181{NUM{ANUAL{TIPPROF1{DIM6SET{384.000000000
VVIRTUALS{A2112{BR181{NUM{ANUAL{TIPPROF4{DIM6SET{52.000000000
VVIRTUALS{A2112{BR182{DEN{ANUAL{TIPPROF1{DIM6SET{68115.000000000
VVIRTUALS{A2112{BR182{DEN{ANUAL{TIPPROF4{DIM6SET{31556.000000000
VVIRTUALS{A2112{BR182{NUM{ANUAL{TIPPROF1{DIM6SET{783.000000000
VVIRTUALS{A2112{BR182{NUM{ANUAL{TIPPROF4{DIM6SET{411.000000000
VVIRTUALS{A2112{BR183{DEN{ANUAL{TIPPROF1{DIM6SET{109810.000000000
VVIRTUALS{A2112{BR183{DEN{ANUAL{TIPPROF4{DIM6SET{57419.000000000
VVIRTUALS{A2112{BR183{NUM{ANUAL{TIPPROF1{DIM6SET{6007.000000000
VVIRTUALS{A2112{BR183{NUM{ANUAL{TIPPROF4{DIM6SET{1126.000000000
VVIRTUALS{A2112{BR184{DEN{ANUAL{TIPPROF1{DIM6SET{37221.000000000
VVIRTUALS{A2112{BR184{DEN{ANUAL{TIPPROF4{DIM6SET{24495.000000000
VVIRTUALS{A2112{BR184{NUM{ANUAL{TIPPROF1{DIM6SET{1877.000000000
VVIRTUALS{A2112{BR184{NUM{ANUAL{TIPPROF4{DIM6SET{426.000000000
VVIRTUALS{A2112{BR185{DEN{ANUAL{TIPPROF1{DIM6SET{26391.000000000
VVIRTUALS{A2112{BR185{DEN{ANUAL{TIPPROF4{DIM6SET{20890.000000000
VVIRTUALS{A2112{BR185{NUM{ANUAL{TIPPROF1{DIM6SET{667.000000000
VVIRTUALS{A2112{BR185{NUM{ANUAL{TIPPROF4{DIM6SET{99.000000000
VVIRTUALS{A2112{BR186{DEN{ANUAL{TIPPROF1{DIM6SET{130890.000000000
VVIRTUALS{A2112{BR186{DEN{ANUAL{TIPPROF4{DIM6SET{106751.000000000
VVIRTUALS{A2112{BR186{NUM{ANUAL{TIPPROF1{DIM6SET{4999.000000000
VVIRTUALS{A2112{BR186{NUM{ANUAL{TIPPROF4{DIM6SET{2662.000000000
VVIRTUALS{A2112{BR187{DEN{ANUAL{TIPPROF1{DIM6SET{61088.000000000
VVIRTUALS{A2112{BR187{DEN{ANUAL{TIPPROF4{DIM6SET{48285.000000000
VVIRTUALS{A2112{BR187{NUM{ANUAL{TIPPROF1{DIM6SET{806.000000000
VVIRTUALS{A2112{BR187{NUM{ANUAL{TIPPROF4{DIM6SET{230.000000000
VVIRTUALS{A2112{BR189{DEN{ANUAL{TIPPROF1{DIM6SET{119291.000000000
VVIRTUALS{A2112{BR189{DEN{ANUAL{TIPPROF4{DIM6SET{92632.000000000
VVIRTUALS{A2112{BR189{NUM{ANUAL{TIPPROF1{DIM6SET{6899.000000000
VVIRTUALS{A2112{BR189{NUM{ANUAL{TIPPROF4{DIM6SET{1947.000000000
VVIRTUALS{A2112{BR190{DEN{ANUAL{TIPPROF1{DIM6SET{97438.000000000
VVIRTUALS{A2112{BR190{DEN{ANUAL{TIPPROF4{DIM6SET{70430.000000000
VVIRTUALS{A2112{BR190{NUM{ANUAL{TIPPROF1{DIM6SET{8319.000000000
VVIRTUALS{A2112{BR190{NUM{ANUAL{TIPPROF4{DIM6SET{2133.000000000
VVIRTUALS{A2112{BR191{DEN{ANUAL{TIPPROF1{DIM6SET{77766.000000000
VVIRTUALS{A2112{BR191{DEN{ANUAL{TIPPROF4{DIM6SET{60246.000000000
VVIRTUALS{A2112{BR191{NUM{ANUAL{TIPPROF1{DIM6SET{3567.000000000
VVIRTUALS{A2112{BR191{NUM{ANUAL{TIPPROF4{DIM6SET{1411.000000000
VVIRTUALS{A2112{BR192{DEN{ANUAL{TIPPROF1{DIM6SET{67474.000000000
VVIRTUALS{A2112{BR192{DEN{ANUAL{TIPPROF4{DIM6SET{53450.000000000
VVIRTUALS{A2112{BR192{NUM{ANUAL{TIPPROF1{DIM6SET{1973.000000000
VVIRTUALS{A2112{BR192{NUM{ANUAL{TIPPROF4{DIM6SET{1099.000000000
VVIRTUALS{A2112{BR193{DEN{ANUAL{TIPPROF1{DIM6SET{96813.000000000
VVIRTUALS{A2112{BR193{DEN{ANUAL{TIPPROF4{DIM6SET{63104.000000000
VVIRTUALS{A2112{BR193{NUM{ANUAL{TIPPROF1{DIM6SET{5291.000000000
VVIRTUALS{A2112{BR193{NUM{ANUAL{TIPPROF4{DIM6SET{866.000000000
VVIRTUALS{A2112{BR194{DEN{ANUAL{TIPPROF1{DIM6SET{61939.000000000
VVIRTUALS{A2112{BR194{DEN{ANUAL{TIPPROF4{DIM6SET{59226.000000000
VVIRTUALS{A2112{BR194{NUM{ANUAL{TIPPROF1{DIM6SET{2215.000000000
VVIRTUALS{A2112{BR194{NUM{ANUAL{TIPPROF4{DIM6SET{1330.000000000
VVIRTUALS{A2112{BR196{DEN{ANUAL{TIPPROF1{DIM6SET{65418.000000000
VVIRTUALS{A2112{BR196{DEN{ANUAL{TIPPROF4{DIM6SET{42445.000000000
VVIRTUALS{A2112{BR196{NUM{ANUAL{TIPPROF1{DIM6SET{2654.000000000
VVIRTUALS{A2112{BR196{NUM{ANUAL{TIPPROF4{DIM6SET{962.000000000
VVIRTUALS{A2112{BR197{DEN{ANUAL{TIPPROF1{DIM6SET{120812.000000000
VVIRTUALS{A2112{BR197{DEN{ANUAL{TIPPROF4{DIM6SET{88703.000000000
VVIRTUALS{A2112{BR197{NUM{ANUAL{TIPPROF1{DIM6SET{3925.000000000
VVIRTUALS{A2112{BR197{NUM{ANUAL{TIPPROF4{DIM6SET{1434.000000000
VVIRTUALS{A2112{BR198{DEN{ANUAL{TIPPROF1{DIM6SET{43324.000000000
VVIRTUALS{A2112{BR198{DEN{ANUAL{TIPPROF4{DIM6SET{27237.000000000
VVIRTUALS{A2112{BR198{NUM{ANUAL{TIPPROF1{DIM6SET{1072.000000000
VVIRTUALS{A2112{BR198{NUM{ANUAL{TIPPROF4{DIM6SET{264.000000000
VVIRTUALS{A2112{BR199{DEN{ANUAL{TIPPROF1{DIM6SET{158937.000000000
VVIRTUALS{A2112{BR199{DEN{ANUAL{TIPPROF4{DIM6SET{127430.000000000
VVIRTUALS{A2112{BR199{NUM{ANUAL{TIPPROF1{DIM6SET{7739.000000000
VVIRTUALS{A2112{BR199{NUM{ANUAL{TIPPROF4{DIM6SET{1522.000000000
VVIRTUALS{A2112{BR200{DEN{ANUAL{TIPPROF1{DIM6SET{20152.000000000
VVIRTUALS{A2112{BR200{DEN{ANUAL{TIPPROF4{DIM6SET{27392.000000000
VVIRTUALS{A2112{BR200{NUM{ANUAL{TIPPROF1{DIM6SET{849.000000000
VVIRTUALS{A2112{BR200{NUM{ANUAL{TIPPROF4{DIM6SET{286.000000000
VVIRTUALS{A2112{BR201{DEN{ANUAL{TIPPROF1{DIM6SET{92591.000000000
VVIRTUALS{A2112{BR201{DEN{ANUAL{TIPPROF4{DIM6SET{61780.000000000
VVIRTUALS{A2112{BR201{NUM{ANUAL{TIPPROF1{DIM6SET{9022.000000000
VVIRTUALS{A2112{BR201{NUM{ANUAL{TIPPROF4{DIM6SET{1639.000000000
VVIRTUALS{A2112{BR202{DEN{ANUAL{TIPPROF1{DIM6SET{125760.000000000
VVIRTUALS{A2112{BR202{DEN{ANUAL{TIPPROF4{DIM6SET{66399.000000000
VVIRTUALS{A2112{BR202{NUM{ANUAL{TIPPROF1{DIM6SET{19759.000000000
VVIRTUALS{A2112{BR202{NUM{ANUAL{TIPPROF4{DIM6SET{5903.000000000
VVIRTUALS{A2112{BR203{DEN{ANUAL{TIPPROF1{DIM6SET{90186.000000000
VVIRTUALS{A2112{BR203{DEN{ANUAL{TIPPROF4{DIM6SET{58811.000000000
VVIRTUALS{A2112{BR203{NUM{ANUAL{TIPPROF1{DIM6SET{8486.000000000
VVIRTUALS{A2112{BR203{NUM{ANUAL{TIPPROF4{DIM6SET{1483.000000000
VVIRTUALS{A2112{BR204{DEN{ANUAL{TIPPROF1{DIM6SET{53231.000000000
VVIRTUALS{A2112{BR204{DEN{ANUAL{TIPPROF4{DIM6SET{31930.000000000
VVIRTUALS{A2112{BR204{NUM{ANUAL{TIPPROF1{DIM6SET{3609.000000000
VVIRTUALS{A2112{BR204{NUM{ANUAL{TIPPROF4{DIM6SET{636.000000000
VVIRTUALS{A2112{BR205{DEN{ANUAL{TIPPROF1{DIM6SET{77620.000000000
VVIRTUALS{A2112{BR205{DEN{ANUAL{TIPPROF4{DIM6SET{40601.000000000
VVIRTUALS{A2112{BR205{NUM{ANUAL{TIPPROF1{DIM6SET{4021.000000000
VVIRTUALS{A2112{BR205{NUM{ANUAL{TIPPROF4{DIM6SET{1023.000000000
VVIRTUALS{A2112{BR206{DEN{ANUAL{TIPPROF1{DIM6SET{114371.000000000
VVIRTUALS{A2112{BR206{DEN{ANUAL{TIPPROF4{DIM6SET{61194.000000000
VVIRTUALS{A2112{BR206{NUM{ANUAL{TIPPROF1{DIM6SET{4617.000000000
VVIRTUALS{A2112{BR206{NUM{ANUAL{TIPPROF4{DIM6SET{206.000000000
VVIRTUALS{A2112{BR207{DEN{ANUAL{TIPPROF1{DIM6SET{126057.000000000
VVIRTUALS{A2112{BR207{DEN{ANUAL{TIPPROF4{DIM6SET{120757.000000000
VVIRTUALS{A2112{BR207{NUM{ANUAL{TIPPROF1{DIM6SET{12139.000000000
VVIRTUALS{A2112{BR207{NUM{ANUAL{TIPPROF4{DIM6SET{3692.000000000
VVIRTUALS{A2112{BR208{DEN{ANUAL{TIPPROF1{DIM6SET{126659.000000000
VVIRTUALS{A2112{BR208{DEN{ANUAL{TIPPROF4{DIM6SET{101407.000000000
VVIRTUALS{A2112{BR208{NUM{ANUAL{TIPPROF1{DIM6SET{2115.000000000
VVIRTUALS{A2112{BR208{NUM{ANUAL{TIPPROF4{DIM6SET{1015.000000000
VVIRTUALS{A2112{BR209{DEN{ANUAL{TIPPROF1{DIM6SET{58112.000000000
VVIRTUALS{A2112{BR209{DEN{ANUAL{TIPPROF4{DIM6SET{32261.000000000
VVIRTUALS{A2112{BR209{NUM{ANUAL{TIPPROF1{DIM6SET{5084.000000000
VVIRTUALS{A2112{BR209{NUM{ANUAL{TIPPROF4{DIM6SET{784.000000000
VVIRTUALS{A2112{BR210{DEN{ANUAL{TIPPROF1{DIM6SET{105603.000000000
VVIRTUALS{A2112{BR210{DEN{ANUAL{TIPPROF4{DIM6SET{61202.000000000
VVIRTUALS{A2112{BR210{NUM{ANUAL{TIPPROF1{DIM6SET{6139.000000000
VVIRTUALS{A2112{BR210{NUM{ANUAL{TIPPROF4{DIM6SET{1938.000000000
VVIRTUALS{A2112{BR211{DEN{ANUAL{TIPPROF1{DIM6SET{87927.000000000
VVIRTUALS{A2112{BR211{DEN{ANUAL{TIPPROF4{DIM6SET{53946.000000000
VVIRTUALS{A2112{BR211{NUM{ANUAL{TIPPROF1{DIM6SET{5192.000000000
VVIRTUALS{A2112{BR211{NUM{ANUAL{TIPPROF4{DIM6SET{1428.000000000
VVIRTUALS{A2112{BR212{DEN{ANUAL{TIPPROF1{DIM6SET{27624.000000000
VVIRTUALS{A2112{BR212{DEN{ANUAL{TIPPROF4{DIM6SET{19055.000000000
VVIRTUALS{A2112{BR212{NUM{ANUAL{TIPPROF1{DIM6SET{311.000000000
VVIRTUALS{A2112{BR212{NUM{ANUAL{TIPPROF4{DIM6SET{125.000000000
VVIRTUALS{A2112{BR213{DEN{ANUAL{TIPPROF1{DIM6SET{60907.000000000
VVIRTUALS{A2112{BR213{DEN{ANUAL{TIPPROF4{DIM6SET{47021.000000000
VVIRTUALS{A2112{BR213{NUM{ANUAL{TIPPROF1{DIM6SET{9205.000000000
VVIRTUALS{A2112{BR213{NUM{ANUAL{TIPPROF4{DIM6SET{1882.000000000
VVIRTUALS{A2112{BR214{DEN{ANUAL{TIPPROF1{DIM6SET{70889.000000000
VVIRTUALS{A2112{BR214{DEN{ANUAL{TIPPROF4{DIM6SET{26645.000000000
VVIRTUALS{A2112{BR214{NUM{ANUAL{TIPPROF1{DIM6SET{1999.000000000
VVIRTUALS{A2112{BR214{NUM{ANUAL{TIPPROF4{DIM6SET{428.000000000
VVIRTUALS{A2112{BR215{DEN{ANUAL{TIPPROF1{DIM6SET{45191.000000000
VVIRTUALS{A2112{BR215{DEN{ANUAL{TIPPROF4{DIM6SET{37936.000000000
VVIRTUALS{A2112{BR215{NUM{ANUAL{TIPPROF1{DIM6SET{3155.000000000
VVIRTUALS{A2112{BR215{NUM{ANUAL{TIPPROF4{DIM6SET{710.000000000
VVIRTUALS{A2112{BR216{DEN{ANUAL{TIPPROF1{DIM6SET{53660.000000000
VVIRTUALS{A2112{BR216{DEN{ANUAL{TIPPROF4{DIM6SET{31669.000000000
VVIRTUALS{A2112{BR216{NUM{ANUAL{TIPPROF1{DIM6SET{5165.000000000
VVIRTUALS{A2112{BR216{NUM{ANUAL{TIPPROF4{DIM6SET{1632.000000000
VVIRTUALS{A2112{BR217{DEN{ANUAL{TIPPROF1{DIM6SET{20349.000000000
VVIRTUALS{A2112{BR217{DEN{ANUAL{TIPPROF4{DIM6SET{20525.000000000
VVIRTUALS{A2112{BR217{NUM{ANUAL{TIPPROF1{DIM6SET{345.000000000
VVIRTUALS{A2112{BR217{NUM{ANUAL{TIPPROF4{DIM6SET{135.000000000
VVIRTUALS{A2112{BR218{DEN{ANUAL{TIPPROF1{DIM6SET{88702.000000000
VVIRTUALS{A2112{BR218{DEN{ANUAL{TIPPROF4{DIM6SET{47877.000000000
VVIRTUALS{A2112{BR218{NUM{ANUAL{TIPPROF1{DIM6SET{7123.000000000
VVIRTUALS{A2112{BR218{NUM{ANUAL{TIPPROF4{DIM6SET{1259.000000000
VVIRTUALS{A2112{BR219{DEN{ANUAL{TIPPROF1{DIM6SET{54724.000000000
VVIRTUALS{A2112{BR219{DEN{ANUAL{TIPPROF4{DIM6SET{54850.000000000
VVIRTUALS{A2112{BR219{NUM{ANUAL{TIPPROF1{DIM6SET{2706.000000000
VVIRTUALS{A2112{BR219{NUM{ANUAL{TIPPROF4{DIM6SET{663.000000000
VVIRTUALS{A2112{BR221{DEN{ANUAL{TIPPROF1{DIM6SET{65183.000000000
VVIRTUALS{A2112{BR221{DEN{ANUAL{TIPPROF4{DIM6SET{51531.000000000
VVIRTUALS{A2112{BR221{NUM{ANUAL{TIPPROF1{DIM6SET{3561.000000000
VVIRTUALS{A2112{BR221{NUM{ANUAL{TIPPROF4{DIM6SET{866.000000000
VVIRTUALS{A2112{BR222{DEN{ANUAL{TIPPROF1{DIM6SET{85674.000000000
VVIRTUALS{A2112{BR222{DEN{ANUAL{TIPPROF4{DIM6SET{59297.000000000
VVIRTUALS{A2112{BR222{NUM{ANUAL{TIPPROF1{DIM6SET{1703.000000000
VVIRTUALS{A2112{BR222{NUM{ANUAL{TIPPROF4{DIM6SET{725.000000000
VVIRTUALS{A2112{BR223{DEN{ANUAL{TIPPROF1{DIM6SET{63556.000000000
VVIRTUALS{A2112{BR223{DEN{ANUAL{TIPPROF4{DIM6SET{48642.000000000
VVIRTUALS{A2112{BR223{NUM{ANUAL{TIPPROF1{DIM6SET{2460.000000000
VVIRTUALS{A2112{BR223{NUM{ANUAL{TIPPROF4{DIM6SET{586.000000000
VVIRTUALS{A2112{BR224{DEN{ANUAL{TIPPROF1{DIM6SET{71519.000000000
VVIRTUALS{A2112{BR224{DEN{ANUAL{TIPPROF4{DIM6SET{70350.000000000
VVIRTUALS{A2112{BR224{NUM{ANUAL{TIPPROF1{DIM6SET{3140.000000000
VVIRTUALS{A2112{BR224{NUM{ANUAL{TIPPROF4{DIM6SET{821.000000000
VVIRTUALS{A2112{BR225{DEN{ANUAL{TIPPROF1{DIM6SET{96903.000000000
VVIRTUALS{A2112{BR225{DEN{ANUAL{TIPPROF4{DIM6SET{64218.000000000
VVIRTUALS{A2112{BR225{NUM{ANUAL{TIPPROF1{DIM6SET{1363.000000000
VVIRTUALS{A2112{BR225{NUM{ANUAL{TIPPROF4{DIM6SET{364.000000000
VVIRTUALS{A2112{BR226{DEN{ANUAL{TIPPROF1{DIM6SET{61702.000000000
VVIRTUALS{A2112{BR226{DEN{ANUAL{TIPPROF4{DIM6SET{35742.000000000
VVIRTUALS{A2112{BR226{NUM{ANUAL{TIPPROF1{DIM6SET{374.000000000
VVIRTUALS{A2112{BR226{NUM{ANUAL{TIPPROF4{DIM6SET{406.000000000
VVIRTUALS{A2112{BR227{DEN{ANUAL{TIPPROF1{DIM6SET{66686.000000000
VVIRTUALS{A2112{BR227{DEN{ANUAL{TIPPROF4{DIM6SET{52637.000000000
VVIRTUALS{A2112{BR227{NUM{ANUAL{TIPPROF1{DIM6SET{540.000000000
VVIRTUALS{A2112{BR227{NUM{ANUAL{TIPPROF4{DIM6SET{247.000000000
VVIRTUALS{A2112{BR228{DEN{ANUAL{TIPPROF1{DIM6SET{7632.000000000
VVIRTUALS{A2112{BR228{DEN{ANUAL{TIPPROF4{DIM6SET{8348.000000000
VVIRTUALS{A2112{BR228{NUM{ANUAL{TIPPROF1{DIM6SET{233.000000000
VVIRTUALS{A2112{BR228{NUM{ANUAL{TIPPROF4{DIM6SET{32.000000000
VVIRTUALS{A2112{BR229{DEN{ANUAL{TIPPROF1{DIM6SET{38404.000000000
VVIRTUALS{A2112{BR229{DEN{ANUAL{TIPPROF4{DIM6SET{24828.000000000
VVIRTUALS{A2112{BR229{NUM{ANUAL{TIPPROF1{DIM6SET{1787.000000000
VVIRTUALS{A2112{BR229{NUM{ANUAL{TIPPROF4{DIM6SET{339.000000000
VVIRTUALS{A2112{BR230{DEN{ANUAL{TIPPROF1{DIM6SET{90543.000000000
VVIRTUALS{A2112{BR230{DEN{ANUAL{TIPPROF4{DIM6SET{58005.000000000
VVIRTUALS{A2112{BR230{NUM{ANUAL{TIPPROF1{DIM6SET{1518.000000000
VVIRTUALS{A2112{BR230{NUM{ANUAL{TIPPROF4{DIM6SET{1707.000000000
VVIRTUALS{A2112{BR231{DEN{ANUAL{TIPPROF1{DIM6SET{58919.000000000
VVIRTUALS{A2112{BR231{DEN{ANUAL{TIPPROF4{DIM6SET{49579.000000000
VVIRTUALS{A2112{BR231{NUM{ANUAL{TIPPROF1{DIM6SET{2410.000000000
VVIRTUALS{A2112{BR231{NUM{ANUAL{TIPPROF4{DIM6SET{803.000000000
VVIRTUALS{A2112{BR232{DEN{ANUAL{TIPPROF1{DIM6SET{30844.000000000
VVIRTUALS{A2112{BR232{DEN{ANUAL{TIPPROF4{DIM6SET{27670.000000000
VVIRTUALS{A2112{BR232{NUM{ANUAL{TIPPROF1{DIM6SET{569.000000000
VVIRTUALS{A2112{BR232{NUM{ANUAL{TIPPROF4{DIM6SET{65.000000000
VVIRTUALS{A2112{BR233{DEN{ANUAL{TIPPROF1{DIM6SET{73271.000000000
VVIRTUALS{A2112{BR233{DEN{ANUAL{TIPPROF4{DIM6SET{54518.000000000
VVIRTUALS{A2112{BR233{NUM{ANUAL{TIPPROF1{DIM6SET{3260.000000000
VVIRTUALS{A2112{BR233{NUM{ANUAL{TIPPROF4{DIM6SET{612.000000000
VVIRTUALS{A2112{BR234{DEN{ANUAL{TIPPROF1{DIM6SET{94862.000000000
VVIRTUALS{A2112{BR234{DEN{ANUAL{TIPPROF4{DIM6SET{81299.000000000
VVIRTUALS{A2112{BR234{NUM{ANUAL{TIPPROF1{DIM6SET{6524.000000000
VVIRTUALS{A2112{BR234{NUM{ANUAL{TIPPROF4{DIM6SET{1392.000000000
VVIRTUALS{A2112{BR235{DEN{ANUAL{TIPPROF1{DIM6SET{79151.000000000
VVIRTUALS{A2112{BR235{DEN{ANUAL{TIPPROF4{DIM6SET{57740.000000000
VVIRTUALS{A2112{BR235{NUM{ANUAL{TIPPROF1{DIM6SET{13951.000000000
VVIRTUALS{A2112{BR235{NUM{ANUAL{TIPPROF4{DIM6SET{4082.000000000
VVIRTUALS{A2112{BR237{DEN{ANUAL{TIPPROF1{DIM6SET{44352.000000000
VVIRTUALS{A2112{BR237{DEN{ANUAL{TIPPROF4{DIM6SET{35666.000000000
VVIRTUALS{A2112{BR237{NUM{ANUAL{TIPPROF1{DIM6SET{1034.000000000
VVIRTUALS{A2112{BR237{NUM{ANUAL{TIPPROF4{DIM6SET{204.000000000
VVIRTUALS{A2112{BR238{DEN{ANUAL{TIPPROF1{DIM6SET{76643.000000000
VVIRTUALS{A2112{BR238{DEN{ANUAL{TIPPROF4{DIM6SET{52158.000000000
VVIRTUALS{A2112{BR238{NUM{ANUAL{TIPPROF1{DIM6SET{3226.000000000
VVIRTUALS{A2112{BR238{NUM{ANUAL{TIPPROF4{DIM6SET{427.000000000
VVIRTUALS{A2112{BR239{DEN{ANUAL{TIPPROF1{DIM6SET{63991.000000000
VVIRTUALS{A2112{BR239{DEN{ANUAL{TIPPROF4{DIM6SET{33899.000000000
VVIRTUALS{A2112{BR239{NUM{ANUAL{TIPPROF1{DIM6SET{1983.000000000
VVIRTUALS{A2112{BR239{NUM{ANUAL{TIPPROF4{DIM6SET{533.000000000
VVIRTUALS{A2112{BR240{DEN{ANUAL{TIPPROF1{DIM6SET{108609.000000000
VVIRTUALS{A2112{BR240{DEN{ANUAL{TIPPROF4{DIM6SET{72137.000000000
VVIRTUALS{A2112{BR240{NUM{ANUAL{TIPPROF1{DIM6SET{1708.000000000
VVIRTUALS{A2112{BR240{NUM{ANUAL{TIPPROF4{DIM6SET{1537.000000000
VVIRTUALS{A2112{BR241{DEN{ANUAL{TIPPROF1{DIM6SET{110873.000000000
VVIRTUALS{A2112{BR241{DEN{ANUAL{TIPPROF4{DIM6SET{61313.000000000
VVIRTUALS{A2112{BR241{NUM{ANUAL{TIPPROF1{DIM6SET{3302.000000000
VVIRTUALS{A2112{BR241{NUM{ANUAL{TIPPROF4{DIM6SET{1807.000000000
VVIRTUALS{A2112{BR243{DEN{ANUAL{TIPPROF1{DIM6SET{66220.000000000
VVIRTUALS{A2112{BR243{DEN{ANUAL{TIPPROF4{DIM6SET{38423.000000000
VVIRTUALS{A2112{BR243{NUM{ANUAL{TIPPROF1{DIM6SET{3410.000000000
VVIRTUALS{A2112{BR243{NUM{ANUAL{TIPPROF4{DIM6SET{552.000000000
VVIRTUALS{A2112{BR244{DEN{ANUAL{TIPPROF1{DIM6SET{54259.000000000
VVIRTUALS{A2112{BR244{DEN{ANUAL{TIPPROF4{DIM6SET{26724.000000000
VVIRTUALS{A2112{BR244{NUM{ANUAL{TIPPROF1{DIM6SET{1952.000000000
VVIRTUALS{A2112{BR244{NUM{ANUAL{TIPPROF4{DIM6SET{383.000000000
VVIRTUALS{A2112{BR245{DEN{ANUAL{TIPPROF1{DIM6SET{82120.000000000
VVIRTUALS{A2112{BR245{DEN{ANUAL{TIPPROF4{DIM6SET{96705.000000000
VVIRTUALS{A2112{BR245{NUM{ANUAL{TIPPROF1{DIM6SET{3007.000000000
VVIRTUALS{A2112{BR245{NUM{ANUAL{TIPPROF4{DIM6SET{2145.000000000
VVIRTUALS{A2112{BR246{DEN{ANUAL{TIPPROF1{DIM6SET{63521.000000000
VVIRTUALS{A2112{BR246{DEN{ANUAL{TIPPROF4{DIM6SET{44285.000000000
VVIRTUALS{A2112{BR246{NUM{ANUAL{TIPPROF1{DIM6SET{4117.000000000
VVIRTUALS{A2112{BR246{NUM{ANUAL{TIPPROF4{DIM6SET{591.000000000
VVIRTUALS{A2112{BR249{DEN{ANUAL{TIPPROF1{DIM6SET{51947.000000000
VVIRTUALS{A2112{BR249{DEN{ANUAL{TIPPROF4{DIM6SET{35305.000000000
VVIRTUALS{A2112{BR249{NUM{ANUAL{TIPPROF1{DIM6SET{2332.000000000
VVIRTUALS{A2112{BR249{NUM{ANUAL{TIPPROF4{DIM6SET{417.000000000
VVIRTUALS{A2112{BR253{DEN{ANUAL{TIPPROF1{DIM6SET{45597.000000000
VVIRTUALS{A2112{BR253{DEN{ANUAL{TIPPROF4{DIM6SET{40603.000000000
VVIRTUALS{A2112{BR253{NUM{ANUAL{TIPPROF1{DIM6SET{1218.000000000
VVIRTUALS{A2112{BR253{NUM{ANUAL{TIPPROF4{DIM6SET{406.000000000
VVIRTUALS{A2112{BR254{DEN{ANUAL{TIPPROF1{DIM6SET{84160.000000000
VVIRTUALS{A2112{BR254{DEN{ANUAL{TIPPROF4{DIM6SET{62711.000000000
VVIRTUALS{A2112{BR254{NUM{ANUAL{TIPPROF1{DIM6SET{3261.000000000
VVIRTUALS{A2112{BR254{NUM{ANUAL{TIPPROF4{DIM6SET{838.000000000
VVIRTUALS{A2112{BR255{DEN{ANUAL{TIPPROF1{DIM6SET{77606.000000000
VVIRTUALS{A2112{BR255{DEN{ANUAL{TIPPROF4{DIM6SET{50637.000000000
VVIRTUALS{A2112{BR255{NUM{ANUAL{TIPPROF1{DIM6SET{4236.000000000
VVIRTUALS{A2112{BR255{NUM{ANUAL{TIPPROF4{DIM6SET{1262.000000000
VVIRTUALS{A2112{BR256{DEN{ANUAL{TIPPROF1{DIM6SET{116520.000000000
VVIRTUALS{A2112{BR256{DEN{ANUAL{TIPPROF4{DIM6SET{66467.000000000
VVIRTUALS{A2112{BR256{NUM{ANUAL{TIPPROF1{DIM6SET{5675.000000000
VVIRTUALS{A2112{BR256{NUM{ANUAL{TIPPROF4{DIM6SET{1323.000000000
VVIRTUALS{A2112{BR259{DEN{ANUAL{TIPPROF1{DIM6SET{43466.000000000
VVIRTUALS{A2112{BR259{DEN{ANUAL{TIPPROF4{DIM6SET{30080.000000000
VVIRTUALS{A2112{BR259{NUM{ANUAL{TIPPROF1{DIM6SET{1008.000000000
VVIRTUALS{A2112{BR259{NUM{ANUAL{TIPPROF4{DIM6SET{104.000000000
VVIRTUALS{A2112{BR260{DEN{ANUAL{TIPPROF1{DIM6SET{52447.000000000
VVIRTUALS{A2112{BR260{DEN{ANUAL{TIPPROF4{DIM6SET{33498.000000000
VVIRTUALS{A2112{BR260{NUM{ANUAL{TIPPROF1{DIM6SET{1318.000000000
VVIRTUALS{A2112{BR260{NUM{ANUAL{TIPPROF4{DIM6SET{195.000000000
VVIRTUALS{A2112{BR261{DEN{ANUAL{TIPPROF1{DIM6SET{65787.000000000
VVIRTUALS{A2112{BR261{DEN{ANUAL{TIPPROF4{DIM6SET{38556.000000000
VVIRTUALS{A2112{BR261{NUM{ANUAL{TIPPROF1{DIM6SET{765.000000000
VVIRTUALS{A2112{BR261{NUM{ANUAL{TIPPROF4{DIM6SET{636.000000000
VVIRTUALS{A2112{BR262{DEN{ANUAL{TIPPROF1{DIM6SET{62728.000000000
VVIRTUALS{A2112{BR262{DEN{ANUAL{TIPPROF4{DIM6SET{32851.000000000
VVIRTUALS{A2112{BR262{NUM{ANUAL{TIPPROF1{DIM6SET{1892.000000000
VVIRTUALS{A2112{BR262{NUM{ANUAL{TIPPROF4{DIM6SET{257.000000000
VVIRTUALS{A2112{BR263{DEN{ANUAL{TIPPROF1{DIM6SET{117593.000000000
VVIRTUALS{A2112{BR263{DEN{ANUAL{TIPPROF4{DIM6SET{59593.000000000
VVIRTUALS{A2112{BR263{NUM{ANUAL{TIPPROF1{DIM6SET{10709.000000000
VVIRTUALS{A2112{BR263{NUM{ANUAL{TIPPROF4{DIM6SET{1966.000000000
VVIRTUALS{A2112{BR265{DEN{ANUAL{TIPPROF1{DIM6SET{76554.000000000
VVIRTUALS{A2112{BR265{DEN{ANUAL{TIPPROF4{DIM6SET{48123.000000000
VVIRTUALS{A2112{BR265{NUM{ANUAL{TIPPROF1{DIM6SET{4586.000000000
VVIRTUALS{A2112{BR265{NUM{ANUAL{TIPPROF4{DIM6SET{2199.000000000
VVIRTUALS{A2112{BR266{DEN{ANUAL{TIPPROF1{DIM6SET{91272.000000000
VVIRTUALS{A2112{BR266{DEN{ANUAL{TIPPROF4{DIM6SET{50577.000000000
VVIRTUALS{A2112{BR266{NUM{ANUAL{TIPPROF1{DIM6SET{6022.000000000
VVIRTUALS{A2112{BR266{NUM{ANUAL{TIPPROF4{DIM6SET{711.000000000
VVIRTUALS{A2112{BR267{DEN{ANUAL{TIPPROF1{DIM6SET{56154.000000000
VVIRTUALS{A2112{BR267{DEN{ANUAL{TIPPROF4{DIM6SET{41869.000000000
VVIRTUALS{A2112{BR267{NUM{ANUAL{TIPPROF1{DIM6SET{2241.000000000
VVIRTUALS{A2112{BR267{NUM{ANUAL{TIPPROF4{DIM6SET{309.000000000
VVIRTUALS{A2112{BR269{DEN{ANUAL{TIPPROF1{DIM6SET{50305.000000000
VVIRTUALS{A2112{BR269{DEN{ANUAL{TIPPROF4{DIM6SET{21941.000000000
VVIRTUALS{A2112{BR269{NUM{ANUAL{TIPPROF1{DIM6SET{1027.000000000
VVIRTUALS{A2112{BR269{NUM{ANUAL{TIPPROF4{DIM6SET{261.000000000
VVIRTUALS{A2112{BR271{DEN{ANUAL{TIPPROF1{DIM6SET{75048.000000000
VVIRTUALS{A2112{BR271{DEN{ANUAL{TIPPROF4{DIM6SET{48757.000000000
VVIRTUALS{A2112{BR271{NUM{ANUAL{TIPPROF1{DIM6SET{2270.000000000
VVIRTUALS{A2112{BR271{NUM{ANUAL{TIPPROF4{DIM6SET{912.000000000
VVIRTUALS{A2112{BR273{DEN{ANUAL{TIPPROF1{DIM6SET{59732.000000000
VVIRTUALS{A2112{BR273{DEN{ANUAL{TIPPROF4{DIM6SET{47822.000000000
VVIRTUALS{A2112{BR273{NUM{ANUAL{TIPPROF1{DIM6SET{3038.000000000
VVIRTUALS{A2112{BR273{NUM{ANUAL{TIPPROF4{DIM6SET{1518.000000000
VVIRTUALS{A2112{BR275{DEN{ANUAL{TIPPROF1{DIM6SET{37512.000000000
VVIRTUALS{A2112{BR275{DEN{ANUAL{TIPPROF4{DIM6SET{28926.000000000
VVIRTUALS{A2112{BR275{NUM{ANUAL{TIPPROF1{DIM6SET{1683.000000000
VVIRTUALS{A2112{BR275{NUM{ANUAL{TIPPROF4{DIM6SET{509.000000000
VVIRTUALS{A2112{BR276{DEN{ANUAL{TIPPROF1{DIM6SET{66872.000000000
VVIRTUALS{A2112{BR276{DEN{ANUAL{TIPPROF4{DIM6SET{47703.000000000
VVIRTUALS{A2112{BR276{NUM{ANUAL{TIPPROF1{DIM6SET{1674.000000000
VVIRTUALS{A2112{BR276{NUM{ANUAL{TIPPROF4{DIM6SET{320.000000000
VVIRTUALS{A2112{BR277{DEN{ANUAL{TIPPROF1{DIM6SET{114947.000000000
VVIRTUALS{A2112{BR277{DEN{ANUAL{TIPPROF4{DIM6SET{73205.000000000
VVIRTUALS{A2112{BR277{NUM{ANUAL{TIPPROF1{DIM6SET{1449.000000000
VVIRTUALS{A2112{BR277{NUM{ANUAL{TIPPROF4{DIM6SET{4.000000000
VVIRTUALS{A2112{BR282{DEN{ANUAL{TIPPROF1{DIM6SET{74417.000000000
VVIRTUALS{A2112{BR282{DEN{ANUAL{TIPPROF4{DIM6SET{61766.000000000
VVIRTUALS{A2112{BR282{NUM{ANUAL{TIPPROF1{DIM6SET{2352.000000000
VVIRTUALS{A2112{BR282{NUM{ANUAL{TIPPROF4{DIM6SET{718.000000000
VVIRTUALS{A2112{BR284{DEN{ANUAL{TIPPROF1{DIM6SET{92633.000000000
VVIRTUALS{A2112{BR284{DEN{ANUAL{TIPPROF4{DIM6SET{58356.000000000
VVIRTUALS{A2112{BR284{NUM{ANUAL{TIPPROF1{DIM6SET{2852.000000000
VVIRTUALS{A2112{BR284{NUM{ANUAL{TIPPROF4{DIM6SET{343.000000000
VVIRTUALS{A2112{BR285{DEN{ANUAL{TIPPROF1{DIM6SET{102974.000000000
VVIRTUALS{A2112{BR285{DEN{ANUAL{TIPPROF4{DIM6SET{83542.000000000
VVIRTUALS{A2112{BR285{NUM{ANUAL{TIPPROF1{DIM6SET{3610.000000000
VVIRTUALS{A2112{BR285{NUM{ANUAL{TIPPROF4{DIM6SET{1690.000000000
VVIRTUALS{A2112{BR286{DEN{ANUAL{TIPPROF1{DIM6SET{103166.000000000
VVIRTUALS{A2112{BR286{DEN{ANUAL{TIPPROF4{DIM6SET{71185.000000000
VVIRTUALS{A2112{BR286{NUM{ANUAL{TIPPROF1{DIM6SET{2271.000000000
VVIRTUALS{A2112{BR286{NUM{ANUAL{TIPPROF4{DIM6SET{1478.000000000
VVIRTUALS{A2112{BR287{DEN{ANUAL{TIPPROF1{DIM6SET{63727.000000000
VVIRTUALS{A2112{BR287{DEN{ANUAL{TIPPROF4{DIM6SET{47374.000000000
VVIRTUALS{A2112{BR287{NUM{ANUAL{TIPPROF1{DIM6SET{1262.000000000
VVIRTUALS{A2112{BR287{NUM{ANUAL{TIPPROF4{DIM6SET{611.000000000
VVIRTUALS{A2112{BR288{DEN{ANUAL{TIPPROF1{DIM6SET{104873.000000000
VVIRTUALS{A2112{BR288{DEN{ANUAL{TIPPROF4{DIM6SET{71911.000000000
VVIRTUALS{A2112{BR288{NUM{ANUAL{TIPPROF1{DIM6SET{7574.000000000
VVIRTUALS{A2112{BR288{NUM{ANUAL{TIPPROF4{DIM6SET{2838.000000000
VVIRTUALS{A2112{BR289{DEN{ANUAL{TIPPROF1{DIM6SET{82369.000000000
VVIRTUALS{A2112{BR289{DEN{ANUAL{TIPPROF4{DIM6SET{45474.000000000
VVIRTUALS{A2112{BR289{NUM{ANUAL{TIPPROF1{DIM6SET{2045.000000000
VVIRTUALS{A2112{BR289{NUM{ANUAL{TIPPROF4{DIM6SET{787.000000000
VVIRTUALS{A2112{BR292{DEN{ANUAL{TIPPROF1{DIM6SET{75889.000000000
VVIRTUALS{A2112{BR292{DEN{ANUAL{TIPPROF4{DIM6SET{42615.000000000
VVIRTUALS{A2112{BR292{NUM{ANUAL{TIPPROF1{DIM6SET{9006.000000000
VVIRTUALS{A2112{BR292{NUM{ANUAL{TIPPROF4{DIM6SET{1009.000000000
VVIRTUALS{A2112{BR293{DEN{ANUAL{TIPPROF1{DIM6SET{116191.000000000
VVIRTUALS{A2112{BR293{DEN{ANUAL{TIPPROF4{DIM6SET{54733.000000000
VVIRTUALS{A2112{BR293{NUM{ANUAL{TIPPROF1{DIM6SET{14999.000000000
VVIRTUALS{A2112{BR293{NUM{ANUAL{TIPPROF4{DIM6SET{2387.000000000
VVIRTUALS{A2112{BR294{DEN{ANUAL{TIPPROF1{DIM6SET{86998.000000000
VVIRTUALS{A2112{BR294{DEN{ANUAL{TIPPROF4{DIM6SET{44828.000000000
VVIRTUALS{A2112{BR294{NUM{ANUAL{TIPPROF1{DIM6SET{3514.000000000
VVIRTUALS{A2112{BR294{NUM{ANUAL{TIPPROF4{DIM6SET{708.000000000
VVIRTUALS{A2112{BR295{DEN{ANUAL{TIPPROF1{DIM6SET{98630.000000000
VVIRTUALS{A2112{BR295{DEN{ANUAL{TIPPROF4{DIM6SET{45714.000000000
VVIRTUALS{A2112{BR295{NUM{ANUAL{TIPPROF1{DIM6SET{4228.000000000
VVIRTUALS{A2112{BR295{NUM{ANUAL{TIPPROF4{DIM6SET{755.000000000
VVIRTUALS{A2112{BR296{DEN{ANUAL{TIPPROF1{DIM6SET{105492.000000000
VVIRTUALS{A2112{BR296{DEN{ANUAL{TIPPROF4{DIM6SET{68454.000000000
VVIRTUALS{A2112{BR296{NUM{ANUAL{TIPPROF1{DIM6SET{3266.000000000
VVIRTUALS{A2112{BR296{NUM{ANUAL{TIPPROF4{DIM6SET{530.000000000
VVIRTUALS{A2112{BR297{DEN{ANUAL{TIPPROF1{DIM6SET{45890.000000000
VVIRTUALS{A2112{BR297{DEN{ANUAL{TIPPROF4{DIM6SET{26177.000000000
VVIRTUALS{A2112{BR297{NUM{ANUAL{TIPPROF1{DIM6SET{1673.000000000
VVIRTUALS{A2112{BR297{NUM{ANUAL{TIPPROF4{DIM6SET{261.000000000
VVIRTUALS{A2112{BR298{DEN{ANUAL{TIPPROF1{DIM6SET{33109.000000000
VVIRTUALS{A2112{BR298{DEN{ANUAL{TIPPROF4{DIM6SET{19925.000000000
VVIRTUALS{A2112{BR298{NUM{ANUAL{TIPPROF1{DIM6SET{1791.000000000
VVIRTUALS{A2112{BR298{NUM{ANUAL{TIPPROF4{DIM6SET{405.000000000
VVIRTUALS{A2112{BR299{DEN{ANUAL{TIPPROF1{DIM6SET{123197.000000000
VVIRTUALS{A2112{BR299{DEN{ANUAL{TIPPROF4{DIM6SET{56685.000000000
VVIRTUALS{A2112{BR299{NUM{ANUAL{TIPPROF1{DIM6SET{11611.000000000
VVIRTUALS{A2112{BR299{NUM{ANUAL{TIPPROF4{DIM6SET{1371.000000000
VVIRTUALS{A2112{BR300{DEN{ANUAL{TIPPROF1{DIM6SET{54306.000000000
VVIRTUALS{A2112{BR300{DEN{ANUAL{TIPPROF4{DIM6SET{44783.000000000
VVIRTUALS{A2112{BR300{NUM{ANUAL{TIPPROF1{DIM6SET{1102.000000000
VVIRTUALS{A2112{BR300{NUM{ANUAL{TIPPROF4{DIM6SET{256.000000000
VVIRTUALS{A2112{BR302{DEN{ANUAL{TIPPROF1{DIM6SET{125830.000000000
VVIRTUALS{A2112{BR302{DEN{ANUAL{TIPPROF4{DIM6SET{63731.000000000
VVIRTUALS{A2112{BR302{NUM{ANUAL{TIPPROF1{DIM6SET{17303.000000000
VVIRTUALS{A2112{BR302{NUM{ANUAL{TIPPROF4{DIM6SET{733.000000000
VVIRTUALS{A2112{BR303{DEN{ANUAL{TIPPROF1{DIM6SET{47020.000000000
VVIRTUALS{A2112{BR303{DEN{ANUAL{TIPPROF4{DIM6SET{24475.000000000
VVIRTUALS{A2112{BR303{NUM{ANUAL{TIPPROF1{DIM6SET{3247.000000000
VVIRTUALS{A2112{BR303{NUM{ANUAL{TIPPROF4{DIM6SET{1351.000000000
VVIRTUALS{A2112{BR304{DEN{ANUAL{TIPPROF1{DIM6SET{94411.000000000
VVIRTUALS{A2112{BR304{DEN{ANUAL{TIPPROF4{DIM6SET{61869.000000000
VVIRTUALS{A2112{BR304{NUM{ANUAL{TIPPROF1{DIM6SET{9284.000000000
VVIRTUALS{A2112{BR304{NUM{ANUAL{TIPPROF4{DIM6SET{3422.000000000
VVIRTUALS{A2112{BR305{DEN{ANUAL{TIPPROF1{DIM6SET{64963.000000000
VVIRTUALS{A2112{BR305{DEN{ANUAL{TIPPROF4{DIM6SET{45806.000000000
VVIRTUALS{A2112{BR305{NUM{ANUAL{TIPPROF1{DIM6SET{1336.000000000
VVIRTUALS{A2112{BR305{NUM{ANUAL{TIPPROF4{DIM6SET{2539.000000000
VVIRTUALS{A2112{BR306{DEN{ANUAL{TIPPROF1{DIM6SET{71302.000000000
VVIRTUALS{A2112{BR306{DEN{ANUAL{TIPPROF4{DIM6SET{40995.000000000
VVIRTUALS{A2112{BR306{NUM{ANUAL{TIPPROF1{DIM6SET{7636.000000000
VVIRTUALS{A2112{BR306{NUM{ANUAL{TIPPROF4{DIM6SET{1492.000000000
VVIRTUALS{A2112{BR311{DEN{ANUAL{TIPPROF1{DIM6SET{82083.000000000
VVIRTUALS{A2112{BR311{DEN{ANUAL{TIPPROF4{DIM6SET{68562.000000000
VVIRTUALS{A2112{BR311{NUM{ANUAL{TIPPROF1{DIM6SET{981.000000000
VVIRTUALS{A2112{BR311{NUM{ANUAL{TIPPROF4{DIM6SET{352.000000000
VVIRTUALS{A2112{BR312{DEN{ANUAL{TIPPROF1{DIM6SET{75547.000000000
VVIRTUALS{A2112{BR312{DEN{ANUAL{TIPPROF4{DIM6SET{41153.000000000
VVIRTUALS{A2112{BR312{NUM{ANUAL{TIPPROF1{DIM6SET{1473.000000000
VVIRTUALS{A2112{BR312{NUM{ANUAL{TIPPROF4{DIM6SET{703.000000000
VVIRTUALS{A2112{BR315{DEN{ANUAL{TIPPROF1{DIM6SET{115596.000000000
VVIRTUALS{A2112{BR315{DEN{ANUAL{TIPPROF4{DIM6SET{111212.000000000
VVIRTUALS{A2112{BR315{NUM{ANUAL{TIPPROF1{DIM6SET{6095.000000000
VVIRTUALS{A2112{BR315{NUM{ANUAL{TIPPROF4{DIM6SET{1460.000000000
VVIRTUALS{A2112{BR316{DEN{ANUAL{TIPPROF1{DIM6SET{77124.000000000
VVIRTUALS{A2112{BR316{DEN{ANUAL{TIPPROF4{DIM6SET{51607.000000000
VVIRTUALS{A2112{BR316{NUM{ANUAL{TIPPROF1{DIM6SET{5157.000000000
VVIRTUALS{A2112{BR316{NUM{ANUAL{TIPPROF4{DIM6SET{1268.000000000
VVIRTUALS{A2112{BR317{DEN{ANUAL{TIPPROF1{DIM6SET{78215.000000000
VVIRTUALS{A2112{BR317{DEN{ANUAL{TIPPROF4{DIM6SET{52655.000000000
VVIRTUALS{A2112{BR317{NUM{ANUAL{TIPPROF1{DIM6SET{6680.000000000
VVIRTUALS{A2112{BR317{NUM{ANUAL{TIPPROF4{DIM6SET{1729.000000000
VVIRTUALS{A2112{BR320{DEN{ANUAL{TIPPROF1{DIM6SET{105371.000000000
VVIRTUALS{A2112{BR320{DEN{ANUAL{TIPPROF4{DIM6SET{77537.000000000
VVIRTUALS{A2112{BR320{NUM{ANUAL{TIPPROF1{DIM6SET{1225.000000000
VVIRTUALS{A2112{BR320{NUM{ANUAL{TIPPROF4{DIM6SET{958.000000000
VVIRTUALS{A2112{BR322{DEN{ANUAL{TIPPROF1{DIM6SET{72686.000000000
VVIRTUALS{A2112{BR322{DEN{ANUAL{TIPPROF4{DIM6SET{50839.000000000
VVIRTUALS{A2112{BR322{NUM{ANUAL{TIPPROF1{DIM6SET{1340.000000000
VVIRTUALS{A2112{BR322{NUM{ANUAL{TIPPROF4{DIM6SET{9.000000000
VVIRTUALS{A2112{BR325{DEN{ANUAL{TIPPROF1{DIM6SET{142100.000000000
VVIRTUALS{A2112{BR325{DEN{ANUAL{TIPPROF4{DIM6SET{93594.000000000
VVIRTUALS{A2112{BR325{NUM{ANUAL{TIPPROF1{DIM6SET{3367.000000000
VVIRTUALS{A2112{BR325{NUM{ANUAL{TIPPROF4{DIM6SET{760.000000000
VVIRTUALS{A2112{BR326{DEN{ANUAL{TIPPROF1{DIM6SET{99750.000000000
VVIRTUALS{A2112{BR326{DEN{ANUAL{TIPPROF4{DIM6SET{56967.000000000
VVIRTUALS{A2112{BR326{NUM{ANUAL{TIPPROF1{DIM6SET{3116.000000000
VVIRTUALS{A2112{BR326{NUM{ANUAL{TIPPROF4{DIM6SET{2614.000000000
VVIRTUALS{A2112{BR327{DEN{ANUAL{TIPPROF1{DIM6SET{70008.000000000
VVIRTUALS{A2112{BR327{DEN{ANUAL{TIPPROF4{DIM6SET{53651.000000000
VVIRTUALS{A2112{BR327{NUM{ANUAL{TIPPROF1{DIM6SET{1821.000000000
VVIRTUALS{A2112{BR327{NUM{ANUAL{TIPPROF4{DIM6SET{363.000000000
VVIRTUALS{A2112{BR328{DEN{ANUAL{TIPPROF1{DIM6SET{51769.000000000
VVIRTUALS{A2112{BR328{DEN{ANUAL{TIPPROF4{DIM6SET{31585.000000000
VVIRTUALS{A2112{BR328{NUM{ANUAL{TIPPROF1{DIM6SET{3093.000000000
VVIRTUALS{A2112{BR328{NUM{ANUAL{TIPPROF4{DIM6SET{274.000000000
VVIRTUALS{A2112{BR329{DEN{ANUAL{TIPPROF1{DIM6SET{32626.000000000
VVIRTUALS{A2112{BR329{DEN{ANUAL{TIPPROF4{DIM6SET{26967.000000000
VVIRTUALS{A2112{BR329{NUM{ANUAL{TIPPROF1{DIM6SET{778.000000000
VVIRTUALS{A2112{BR329{NUM{ANUAL{TIPPROF4{DIM6SET{150.000000000
VVIRTUALS{A2112{BR331{DEN{ANUAL{TIPPROF1{DIM6SET{90059.000000000
VVIRTUALS{A2112{BR331{DEN{ANUAL{TIPPROF4{DIM6SET{48341.000000000
VVIRTUALS{A2112{BR331{NUM{ANUAL{TIPPROF1{DIM6SET{3780.000000000
VVIRTUALS{A2112{BR331{NUM{ANUAL{TIPPROF4{DIM6SET{1685.000000000
VVIRTUALS{A2112{BR334{DEN{ANUAL{TIPPROF1{DIM6SET{36729.000000000
VVIRTUALS{A2112{BR334{DEN{ANUAL{TIPPROF4{DIM6SET{30485.000000000
VVIRTUALS{A2112{BR334{NUM{ANUAL{TIPPROF1{DIM6SET{2397.000000000
VVIRTUALS{A2112{BR334{NUM{ANUAL{TIPPROF4{DIM6SET{378.000000000
VVIRTUALS{A2112{BR335{DEN{ANUAL{TIPPROF1{DIM6SET{65366.000000000
VVIRTUALS{A2112{BR335{DEN{ANUAL{TIPPROF4{DIM6SET{46560.000000000
VVIRTUALS{A2112{BR335{NUM{ANUAL{TIPPROF1{DIM6SET{6392.000000000
VVIRTUALS{A2112{BR335{NUM{ANUAL{TIPPROF4{DIM6SET{1758.000000000
VVIRTUALS{A2112{BR336{DEN{ANUAL{TIPPROF1{DIM6SET{69769.000000000
VVIRTUALS{A2112{BR336{DEN{ANUAL{TIPPROF4{DIM6SET{61420.000000000
VVIRTUALS{A2112{BR336{NUM{ANUAL{TIPPROF1{DIM6SET{2301.000000000
VVIRTUALS{A2112{BR336{NUM{ANUAL{TIPPROF4{DIM6SET{606.000000000
VVIRTUALS{A2112{BR337{DEN{ANUAL{TIPPROF1{DIM6SET{32979.000000000
VVIRTUALS{A2112{BR337{DEN{ANUAL{TIPPROF4{DIM6SET{33381.000000000
VVIRTUALS{A2112{BR337{NUM{ANUAL{TIPPROF1{DIM6SET{1920.000000000
VVIRTUALS{A2112{BR337{NUM{ANUAL{TIPPROF4{DIM6SET{447.000000000
VVIRTUALS{A2112{BR338{DEN{ANUAL{TIPPROF1{DIM6SET{67577.000000000
VVIRTUALS{A2112{BR338{DEN{ANUAL{TIPPROF4{DIM6SET{39179.000000000
VVIRTUALS{A2112{BR338{NUM{ANUAL{TIPPROF1{DIM6SET{3022.000000000
VVIRTUALS{A2112{BR338{NUM{ANUAL{TIPPROF4{DIM6SET{506.000000000
VVIRTUALS{A2112{BR339{DEN{ANUAL{TIPPROF1{DIM6SET{83940.000000000
VVIRTUALS{A2112{BR339{DEN{ANUAL{TIPPROF4{DIM6SET{49423.000000000
VVIRTUALS{A2112{BR339{NUM{ANUAL{TIPPROF1{DIM6SET{2597.000000000
VVIRTUALS{A2112{BR339{NUM{ANUAL{TIPPROF4{DIM6SET{611.000000000
VVIRTUALS{A2112{BR341{DEN{ANUAL{TIPPROF1{DIM6SET{76584.000000000
VVIRTUALS{A2112{BR341{DEN{ANUAL{TIPPROF4{DIM6SET{61763.000000000
VVIRTUALS{A2112{BR341{NUM{ANUAL{TIPPROF1{DIM6SET{1819.000000000
VVIRTUALS{A2112{BR341{NUM{ANUAL{TIPPROF4{DIM6SET{634.000000000
VVIRTUALS{A2112{BR342{DEN{ANUAL{TIPPROF1{DIM6SET{66663.000000000
VVIRTUALS{A2112{BR342{DEN{ANUAL{TIPPROF4{DIM6SET{41231.000000000
VVIRTUALS{A2112{BR342{NUM{ANUAL{TIPPROF1{DIM6SET{2593.000000000
VVIRTUALS{A2112{BR342{NUM{ANUAL{TIPPROF4{DIM6SET{304.000000000
VVIRTUALS{A2112{BR344{DEN{ANUAL{TIPPROF1{DIM6SET{54956.000000000
VVIRTUALS{A2112{BR344{DEN{ANUAL{TIPPROF4{DIM6SET{57968.000000000
VVIRTUALS{A2112{BR344{NUM{ANUAL{TIPPROF1{DIM6SET{2247.000000000
VVIRTUALS{A2112{BR344{NUM{ANUAL{TIPPROF4{DIM6SET{1588.000000000
VVIRTUALS{A2112{BR348{DEN{ANUAL{TIPPROF1{DIM6SET{95053.000000000
VVIRTUALS{A2112{BR348{DEN{ANUAL{TIPPROF4{DIM6SET{68783.000000000
VVIRTUALS{A2112{BR348{NUM{ANUAL{TIPPROF1{DIM6SET{1136.000000000
VVIRTUALS{A2112{BR348{NUM{ANUAL{TIPPROF4{DIM6SET{906.000000000
VVIRTUALS{A2112{BR349{DEN{ANUAL{TIPPROF1{DIM6SET{84576.000000000
VVIRTUALS{A2112{BR349{DEN{ANUAL{TIPPROF4{DIM6SET{66845.000000000
VVIRTUALS{A2112{BR349{NUM{ANUAL{TIPPROF1{DIM6SET{2301.000000000
VVIRTUALS{A2112{BR349{NUM{ANUAL{TIPPROF4{DIM6SET{545.000000000
VVIRTUALS{A2112{BR350{DEN{ANUAL{TIPPROF1{DIM6SET{84257.000000000
VVIRTUALS{A2112{BR350{DEN{ANUAL{TIPPROF4{DIM6SET{62006.000000000
VVIRTUALS{A2112{BR350{NUM{ANUAL{TIPPROF1{DIM6SET{2313.000000000
VVIRTUALS{A2112{BR350{NUM{ANUAL{TIPPROF4{DIM6SET{1116.000000000
VVIRTUALS{A2112{BR352{DEN{ANUAL{TIPPROF1{DIM6SET{47875.000000000
VVIRTUALS{A2112{BR352{DEN{ANUAL{TIPPROF4{DIM6SET{26849.000000000
VVIRTUALS{A2112{BR352{NUM{ANUAL{TIPPROF1{DIM6SET{2000.000000000
VVIRTUALS{A2112{BR352{NUM{ANUAL{TIPPROF4{DIM6SET{405.000000000
VVIRTUALS{A2112{BR353{DEN{ANUAL{TIPPROF1{DIM6SET{48251.000000000
VVIRTUALS{A2112{BR353{DEN{ANUAL{TIPPROF4{DIM6SET{44496.000000000
VVIRTUALS{A2112{BR353{NUM{ANUAL{TIPPROF1{DIM6SET{2413.000000000
VVIRTUALS{A2112{BR353{NUM{ANUAL{TIPPROF4{DIM6SET{1014.000000000
VVIRTUALS{A2112{BR359{DEN{ANUAL{TIPPROF1{DIM6SET{106064.000000000
VVIRTUALS{A2112{BR359{DEN{ANUAL{TIPPROF4{DIM6SET{58274.000000000
VVIRTUALS{A2112{BR359{NUM{ANUAL{TIPPROF1{DIM6SET{5630.000000000
VVIRTUALS{A2112{BR359{NUM{ANUAL{TIPPROF4{DIM6SET{1529.000000000
VVIRTUALS{A2112{BR360{DEN{ANUAL{TIPPROF1{DIM6SET{84760.000000000
VVIRTUALS{A2112{BR360{DEN{ANUAL{TIPPROF4{DIM6SET{52416.000000000
VVIRTUALS{A2112{BR360{NUM{ANUAL{TIPPROF1{DIM6SET{3892.000000000
VVIRTUALS{A2112{BR360{NUM{ANUAL{TIPPROF4{DIM6SET{2892.000000000
VVIRTUALS{A2112{BR362{DEN{ANUAL{TIPPROF1{DIM6SET{58236.000000000
VVIRTUALS{A2112{BR362{DEN{ANUAL{TIPPROF4{DIM6SET{44020.000000000
VVIRTUALS{A2112{BR362{NUM{ANUAL{TIPPROF1{DIM6SET{3673.000000000
VVIRTUALS{A2112{BR362{NUM{ANUAL{TIPPROF4{DIM6SET{815.000000000
VVIRTUALS{A2112{BR363{DEN{ANUAL{TIPPROF1{DIM6SET{52389.000000000
VVIRTUALS{A2112{BR363{DEN{ANUAL{TIPPROF4{DIM6SET{50068.000000000
VVIRTUALS{A2112{BR363{NUM{ANUAL{TIPPROF1{DIM6SET{5516.000000000
VVIRTUALS{A2112{BR363{NUM{ANUAL{TIPPROF4{DIM6SET{1293.000000000
VVIRTUALS{A2112{BR365{DEN{ANUAL{TIPPROF1{DIM6SET{109433.000000000
VVIRTUALS{A2112{BR365{DEN{ANUAL{TIPPROF4{DIM6SET{68062.000000000
VVIRTUALS{A2112{BR365{NUM{ANUAL{TIPPROF1{DIM6SET{7067.000000000
VVIRTUALS{A2112{BR365{NUM{ANUAL{TIPPROF4{DIM6SET{3190.000000000
VVIRTUALS{A2112{BR366{DEN{ANUAL{TIPPROF1{DIM6SET{78167.000000000
VVIRTUALS{A2112{BR366{DEN{ANUAL{TIPPROF4{DIM6SET{69024.000000000
VVIRTUALS{A2112{BR366{NUM{ANUAL{TIPPROF1{DIM6SET{5485.000000000
VVIRTUALS{A2112{BR366{NUM{ANUAL{TIPPROF4{DIM6SET{1664.000000000
VVIRTUALS{A2112{BR367{DEN{ANUAL{TIPPROF1{DIM6SET{35691.000000000
VVIRTUALS{A2112{BR367{DEN{ANUAL{TIPPROF4{DIM6SET{31586.000000000
VVIRTUALS{A2112{BR367{NUM{ANUAL{TIPPROF1{DIM6SET{1921.000000000
VVIRTUALS{A2112{BR367{NUM{ANUAL{TIPPROF4{DIM6SET{522.000000000
VVIRTUALS{A2112{BR369{DEN{ANUAL{TIPPROF1{DIM6SET{56905.000000000
VVIRTUALS{A2112{BR369{DEN{ANUAL{TIPPROF4{DIM6SET{36195.000000000
VVIRTUALS{A2112{BR369{NUM{ANUAL{TIPPROF1{DIM6SET{5734.000000000
VVIRTUALS{A2112{BR369{NUM{ANUAL{TIPPROF4{DIM6SET{969.000000000
VVIRTUALS{A2112{BR370{DEN{ANUAL{TIPPROF1{DIM6SET{45650.000000000
VVIRTUALS{A2112{BR370{DEN{ANUAL{TIPPROF4{DIM6SET{30345.000000000
VVIRTUALS{A2112{BR370{NUM{ANUAL{TIPPROF1{DIM6SET{3990.000000000
VVIRTUALS{A2112{BR370{NUM{ANUAL{TIPPROF4{DIM6SET{424.000000000
VVIRTUALS{A2112{BR373{DEN{ANUAL{TIPPROF1{DIM6SET{20682.000000000
VVIRTUALS{A2112{BR373{DEN{ANUAL{TIPPROF4{DIM6SET{15725.000000000
VVIRTUALS{A2112{BR373{NUM{ANUAL{TIPPROF1{DIM6SET{2508.000000000
VVIRTUALS{A2112{BR373{NUM{ANUAL{TIPPROF4{DIM6SET{578.000000000
VVIRTUALS{A2112{BR374{DEN{ANUAL{TIPPROF1{DIM6SET{114967.000000000
VVIRTUALS{A2112{BR374{DEN{ANUAL{TIPPROF4{DIM6SET{68038.000000000
VVIRTUALS{A2112{BR374{NUM{ANUAL{TIPPROF1{DIM6SET{8083.000000000
VVIRTUALS{A2112{BR374{NUM{ANUAL{TIPPROF4{DIM6SET{2915.000000000
VVIRTUALS{A2112{BR376{DEN{ANUAL{TIPPROF1{DIM6SET{64274.000000000
VVIRTUALS{A2112{BR376{DEN{ANUAL{TIPPROF4{DIM6SET{63956.000000000
VVIRTUALS{A2112{BR376{NUM{ANUAL{TIPPROF1{DIM6SET{2810.000000000
VVIRTUALS{A2112{BR376{NUM{ANUAL{TIPPROF4{DIM6SET{876.000000000
VVIRTUALS{A2112{BR377{DEN{ANUAL{TIPPROF1{DIM6SET{39870.000000000
VVIRTUALS{A2112{BR377{DEN{ANUAL{TIPPROF4{DIM6SET{36849.000000000
VVIRTUALS{A2112{BR377{NUM{ANUAL{TIPPROF1{DIM6SET{1355.000000000
VVIRTUALS{A2112{BR377{NUM{ANUAL{TIPPROF4{DIM6SET{264.000000000
VVIRTUALS{A2112{BR379{DEN{ANUAL{TIPPROF1{DIM6SET{52800.000000000
VVIRTUALS{A2112{BR379{DEN{ANUAL{TIPPROF4{DIM6SET{51620.000000000
VVIRTUALS{A2112{BR379{NUM{ANUAL{TIPPROF1{DIM6SET{2101.000000000
VVIRTUALS{A2112{BR379{NUM{ANUAL{TIPPROF4{DIM6SET{518.000000000
VVIRTUALS{A2112{BR380{DEN{ANUAL{TIPPROF1{DIM6SET{60565.000000000
VVIRTUALS{A2112{BR380{DEN{ANUAL{TIPPROF4{DIM6SET{41829.000000000
VVIRTUALS{A2112{BR380{NUM{ANUAL{TIPPROF1{DIM6SET{5162.000000000
VVIRTUALS{A2112{BR380{NUM{ANUAL{TIPPROF4{DIM6SET{1387.000000000
VVIRTUALS{A2112{BR383{DEN{ANUAL{TIPPROF1{DIM6SET{84443.000000000
VVIRTUALS{A2112{BR383{DEN{ANUAL{TIPPROF4{DIM6SET{45676.000000000
VVIRTUALS{A2112{BR383{NUM{ANUAL{TIPPROF1{DIM6SET{3432.000000000
VVIRTUALS{A2112{BR383{NUM{ANUAL{TIPPROF4{DIM6SET{976.000000000
VVIRTUALS{A2112{BR384{DEN{ANUAL{TIPPROF1{DIM6SET{45645.000000000
VVIRTUALS{A2112{BR384{DEN{ANUAL{TIPPROF4{DIM6SET{30281.000000000
VVIRTUALS{A2112{BR384{NUM{ANUAL{TIPPROF1{DIM6SET{3225.000000000
VVIRTUALS{A2112{BR384{NUM{ANUAL{TIPPROF4{DIM6SET{333.000000000
VVIRTUALS{A2112{BR386{DEN{ANUAL{TIPPROF1{DIM6SET{66666.000000000
VVIRTUALS{A2112{BR386{DEN{ANUAL{TIPPROF4{DIM6SET{50081.000000000
VVIRTUALS{A2112{BR386{NUM{ANUAL{TIPPROF1{DIM6SET{1005.000000000
VVIRTUALS{A2112{BR386{NUM{ANUAL{TIPPROF4{DIM6SET{562.000000000
VVIRTUALS{A2112{BR387{DEN{ANUAL{TIPPROF1{DIM6SET{62251.000000000
VVIRTUALS{A2112{BR387{DEN{ANUAL{TIPPROF4{DIM6SET{34802.000000000
VVIRTUALS{A2112{BR387{NUM{ANUAL{TIPPROF1{DIM6SET{1829.000000000
VVIRTUALS{A2112{BR387{NUM{ANUAL{TIPPROF4{DIM6SET{715.000000000
VVIRTUALS{A2112{BR391{DEN{ANUAL{TIPPROF1{DIM6SET{59980.000000000
VVIRTUALS{A2112{BR391{DEN{ANUAL{TIPPROF4{DIM6SET{41482.000000000
VVIRTUALS{A2112{BR391{NUM{ANUAL{TIPPROF1{DIM6SET{5617.000000000
VVIRTUALS{A2112{BR391{NUM{ANUAL{TIPPROF4{DIM6SET{967.000000000
VVIRTUALS{A2112{BR392{DEN{ANUAL{TIPPROF1{DIM6SET{53936.000000000
VVIRTUALS{A2112{BR392{DEN{ANUAL{TIPPROF4{DIM6SET{46947.000000000
VVIRTUALS{A2112{BR392{NUM{ANUAL{TIPPROF1{DIM6SET{4972.000000000
VVIRTUALS{A2112{BR392{NUM{ANUAL{TIPPROF4{DIM6SET{1452.000000000
VVIRTUALS{A2112{BR395{DEN{ANUAL{TIPPROF1{DIM6SET{93311.000000000
VVIRTUALS{A2112{BR395{DEN{ANUAL{TIPPROF4{DIM6SET{80320.000000000
VVIRTUALS{A2112{BR395{NUM{ANUAL{TIPPROF1{DIM6SET{3694.000000000
VVIRTUALS{A2112{BR395{NUM{ANUAL{TIPPROF4{DIM6SET{2870.000000000
VVIRTUALS{A2112{BR396{DEN{ANUAL{TIPPROF1{DIM6SET{83453.000000000
VVIRTUALS{A2112{BR396{DEN{ANUAL{TIPPROF4{DIM6SET{67120.000000000
VVIRTUALS{A2112{BR396{NUM{ANUAL{TIPPROF1{DIM6SET{5753.000000000
VVIRTUALS{A2112{BR396{NUM{ANUAL{TIPPROF4{DIM6SET{2015.000000000
VVIRTUALS{A2112{BR397{DEN{ANUAL{TIPPROF1{DIM6SET{68176.000000000
VVIRTUALS{A2112{BR397{DEN{ANUAL{TIPPROF4{DIM6SET{33909.000000000
VVIRTUALS{A2112{BR397{NUM{ANUAL{TIPPROF1{DIM6SET{2464.000000000
VVIRTUALS{A2112{BR397{NUM{ANUAL{TIPPROF4{DIM6SET{16.000000000
VVIRTUALS{A2112{BR398{DEN{ANUAL{TIPPROF1{DIM6SET{72274.000000000
VVIRTUALS{A2112{BR398{DEN{ANUAL{TIPPROF4{DIM6SET{43216.000000000
VVIRTUALS{A2112{BR398{NUM{ANUAL{TIPPROF1{DIM6SET{1878.000000000
VVIRTUALS{A2112{BR398{NUM{ANUAL{TIPPROF4{DIM6SET{758.000000000
VVIRTUALS{A2112{BR399{DEN{ANUAL{TIPPROF1{DIM6SET{81463.000000000
VVIRTUALS{A2112{BR399{DEN{ANUAL{TIPPROF4{DIM6SET{53787.000000000
VVIRTUALS{A2112{BR399{NUM{ANUAL{TIPPROF1{DIM6SET{2301.000000000
VVIRTUALS{A2112{BR399{NUM{ANUAL{TIPPROF4{DIM6SET{706.000000000
VVIRTUALS{A2112{BR400{DEN{ANUAL{TIPPROF1{DIM6SET{53210.000000000
VVIRTUALS{A2112{BR400{DEN{ANUAL{TIPPROF4{DIM6SET{40904.000000000
VVIRTUALS{A2112{BR400{NUM{ANUAL{TIPPROF1{DIM6SET{2507.000000000
VVIRTUALS{A2112{BR400{NUM{ANUAL{TIPPROF4{DIM6SET{646.000000000
VVIRTUALS{A2112{BR401{DEN{ANUAL{TIPPROF1{DIM6SET{74041.000000000
VVIRTUALS{A2112{BR401{DEN{ANUAL{TIPPROF4{DIM6SET{36613.000000000
VVIRTUALS{A2112{BR401{NUM{ANUAL{TIPPROF1{DIM6SET{4472.000000000
VVIRTUALS{A2112{BR401{NUM{ANUAL{TIPPROF4{DIM6SET{832.000000000
VVIRTUALS{A2112{BR402{DEN{ANUAL{TIPPROF1{DIM6SET{79938.000000000
VVIRTUALS{A2112{BR402{DEN{ANUAL{TIPPROF4{DIM6SET{56715.000000000
VVIRTUALS{A2112{BR402{NUM{ANUAL{TIPPROF1{DIM6SET{3588.000000000
VVIRTUALS{A2112{BR402{NUM{ANUAL{TIPPROF4{DIM6SET{2198.000000000
VVIRTUALS{A2112{BR403{DEN{ANUAL{TIPPROF1{DIM6SET{45986.000000000
VVIRTUALS{A2112{BR403{DEN{ANUAL{TIPPROF4{DIM6SET{21603.000000000
VVIRTUALS{A2112{BR403{NUM{ANUAL{TIPPROF1{DIM6SET{3586.000000000
VVIRTUALS{A2112{BR403{NUM{ANUAL{TIPPROF4{DIM6SET{998.000000000
VVIRTUALS{A2112{BR404{DEN{ANUAL{TIPPROF1{DIM6SET{126075.000000000
VVIRTUALS{A2112{BR404{DEN{ANUAL{TIPPROF4{DIM6SET{60088.000000000
VVIRTUALS{A2112{BR404{NUM{ANUAL{TIPPROF1{DIM6SET{4451.000000000
VVIRTUALS{A2112{BR404{NUM{ANUAL{TIPPROF4{DIM6SET{1556.000000000