0@ED0
1@ED1
2@ED2
3@ED3
4@ED4
5@ED5
6@ED6
7@ED7
8@ED8
9@ED9
10@ED10
11@ED11
12@ED12
13@ED13
14@ED14
15@ED15
16@ED16
17@ED17
18@ED18
19@ED19
20@ED20
21@ED21
22@ED22
23@ED23
24@ED24
25@ED25
26@ED26
27@ED27
28@ED28
29@ED29
30@ED30
31@ED31
32@ED32
33@ED33
34@ED34
35@ED35
36@ED36
37@ED37
38@ED38
39@ED39
40@ED40
41@ED41
42@ED42
43@ED43
44@ED44
45@ED45
46@ED46
47@ED47
48@ED48
49@ED49
50@ED50
51@ED51
52@ED52
53@ED53
54@ED54
55@ED55
56@ED56
57@ED57
58@ED58
59@ED59
60@ED60
61@ED61
62@ED62
63@ED63
64@ED64
65@ED65
66@ED66
67@ED67
68@ED68
69@ED69
70@ED70
71@ED71
72@ED72
73@ED73
74@ED74
75@ED75
76@ED76
77@ED77
78@ED78
79@ED79
80@ED80
81@ED81
82@ED82
83@ED83
84@ED84
85@ED85
86@ED86
87@ED87
88@ED88
89@ED89
90@ED90
91@ED91
92@ED92
93@ED93
94@ED94
95@ED95
96@ED95M
97@ED95M
98@ED95M
99@ED95M
100@ED95M
101@ED95M
102@ED95M
103@ED95M
104@ED95M
105@ED95M
106@ED95M
107@ED95M
108@ED95M
109@ED95M
110@ED95M
111@ED95M
112@ED95M
113@ED95M
114@ED95M
115@ED95M
116@ED95M
117@ED95M
118@ED95M
119@ED95M
120@ED95M