D03.5@2
D03.6@2
C43.0@1
C01-C43.70@1
C01-C43.71@1
C01-C43.72@1
C01-C43.8@1
C01-C43.9@1
C01-C44@0
C01-C44.0@0
C01-C44.00@0
C01-C44.01@0
C01-C44.02@0
C01-C44.09@0
C01-C44.1@0
C01-C44.10@0
C01-C44.101@0
C01-C44.102@0
C01-C44.109@0
C01-C44.11@0
C01-C44.111@0
C01-C44.112@0
C01-C44.119@0
C01-C44.12@0
C01-C44.121@0
C01-C44.122@0
C01-C44.129@0
C01-C44.19@0
C01-C44.191@0
C01-C44.192@0
C01-C44.199@0
C01-C44.2@0
C01-C44.20@0
C01-C44.201@0
C01-C44.202@0
C01-C44.209@0
C01-C44.21@0
C01-C44.211@0
C01-C44.212@0
C01-C44.219@0
C01-C44.22@0
C01-C44.221@0
C01-C44.222@0
C01-C44.229@0
C01-C44.29@0
C01-C44.291@0
C01-C44.292@0
C01-C44.299@0
C01-C44.3@0
C01-C44.30@0
C01-C44.300@0
C01-C44.301@0
C01-C44.309@0
C01-C44.31@0
C01-C44.310@0
C01-C44.311@0
C01-C44.319@0
C01-C44.32@0
C01-C44.320@0
C01-C44.321@0
C01-C44.329@0
C01-C44.39@0
C01-C44.390@0
C01-C44.391@0
C01-C44.399@0
C01-C44.4@0
C01-C44.40@0
C01-C44.41@0
C01-C44.42@0
C01-C44.49@0
C01-C44.5@0
C01-C44.50@0
C01-C44.500@0
C01-C44.501@0
C01-C44.509@0
C01-C44.51@0
C01-C44.510@0
C01-C44.511@0
C01-C44.519@0
C01-C44.52@0
C01-C44.520@0
C01-C44.521@0
C01-C44.529@0
C01-C44.59@0
C01-C44.590@0
C01-C44.591@0
C01-C44.599@0
C01-C44.6@0
C01-C44.60@0
C01-C44.601@0
C01-C44.602@0
C01-C44.609@0
C01-C44.61@0
C01-C44.611@0
C01-C44.612@0
C01-C44.619@0
C01-C44.62@0
C01-C44.621@0
C01-C44.622@0
C01-C44.629@0
C01-C44.69@0
C01-C44.691@0
C01-C44.692@0
C01-C44.699@0
C01-C44.7@0
C01-C44.70@0
C01-C44.701@0
C01-C44.702@0
C01-C44.709@0
C01-C44.71@0
C01-C44.711@0
C01-C44.712@0
C01-C44.719@0
C01-C44.72@0
C01-C44.721@0
C01-C44.722@0
C01-C44.729@0
C01-C44.79@0
C01-C44.791@0
C01-C44.792@0
C01-C44.799@0
C01-C44.8@0
C01-C44.80@0
C01-C44.81@0
C01-C44.82@0
C01-C44.89@0
C01-C44.9@0
C01-C44.90@0
C01-C44.91@0
C01-C44.92@0
C01-C44.99@0
C01-C46.0@0
C01-C43@1
C01-C43.0@1
C01-C43.1@1
C01-C43.10@1
C01-C43.11@1
C01-C43.12@1
C01-C43.2@1
C01-C43.20@1
C01-C43.21@1
C01-C43.22@1
C01-C43.3@1
C01-C43.30@1
C01-C43.31@1
C01-C43.39@1
C01-C43.4@1
C01-C43.5@1
C01-C43.51@1
C01-C43.52@1
C01-C43.59@1
C01-C43.6@1
C01-C43.60@1
C01-C43.61@1
C01-C43.62@1
C01-C43.7@1
C43@1
C43.1@1
C43.2@1
C43.3@1
C43.4@1
C43.5@1
C43.6@1
C43.7@1
C43.8@1
C43.9@1
C44@0
C44.0@0
C44.1@0
C44.2@0
C44.3@0
C44.4@0
C44.5@0
C44.6@0
C44.7@0
C44.8@0
C44.9@0
C46.0@0
C46.1@0
